====== pysrim run =======
        SRIM-2013.00
=========================================
        Replacement Collisions       
 See SRIM Outputs\TDATA.txt for calc. details   
=========================================
====== TRIM Calc.= Xe(100 eV ) ==> None(  25 A) ==============================
------------------------------------------------------------------------------
 See file: SRIM Outputs\TDATA.txt for data about the calculation
 Ion    = Xe   Energy = .1 keV
============= TARGET MATERIAL ======================================
Layer  1 : None
Layer Width =     3.E+01 AAA ;
  Layer # 1- Density = 6.030E22 atoms/cm3 = 2.702 g/cm3
  Layer # 1- Al = 100  Atomic Percent = 100  Mass Percent
====================================================================
 Total Ions calculated =29999.99
 Total Target Vacancies     = 1 /Ion
 Total Target Displacements = 2 /Ion
 Total Target Replacement Collisions = 0 /Ion
================================================================
   Table Vacancy Units are  >>>>  Number /(Angstrom-Ion)  <<<<  
================================================================
  DEPTH (A)      Number
------------   -----------
2600000.E-07   0000.375867
5100000.E-07   0000.129200
7600000.E-07   0000.128400
1010000.E-06   0000.114133
1260000.E-06   0000.100400
1510000.E-06   0000.069067
1760000.E-06   0000.047600
2010000.E-06   0000.046267
2260000.E-06   0000.036000
2510000.E-06   0000.045200
2760000.E-06   0000.039467
3010000.E-06   0000.035067
3260000.E-06   0000.034267
3510000.E-06   0000.037733
3760000.E-06   0000.029200
4010000.E-06   0000.025600
4260000.E-06   0000.020267
4510000.E-06   0000.020800
4760000.E-06   0000.018400
5010000.E-06   0000.022400
5260000.E-06   0000.011600
5510000.E-06   0000.001867
5760000.E-06   0000.001333
6010000.E-06   0000.002000
6260000.E-06   0000.001600
6510000.E-06   0000.001733
6760000.E-06   0000.001333
7010000.E-06   0000.001467
7260000.E-06   0000.001733
7510000.E-06   0000.000933
7760000.E-06   0000.000800
8010000.E-06   0000.000133
8260000.E-06   0000.000400
8510000.E-06   0000.000667
8760000.E-06   0000.000000
9010000.E-06   0000.000133
9260000.E-06   0000.000000
9510000.E-06   0000.000267
9760000.E-06   0000.000133
1001000.E-05   0000.000267
1026000.E-05   0000.000000
1051000.E-05   0000.000000
1076000.E-05   0000.000000
1101000.E-05   0000.000133
1126000.E-05   0000.000000
1151000.E-05   0000.000133
1176000.E-05   0000.000000
1201000.E-05   0000.000000
1226000.E-05   0000.000000
1251000.E-05   0000.000000
1276000.E-05   0000.000000
1301000.E-05   0000.000000
1326000.E-05   0000.000000
1351000.E-05   0000.000000
1376000.E-05   0000.000000
1401000.E-05   0000.000000
1426000.E-05   0000.000000
1451000.E-05   0000.000000
1476000.E-05   0000.000000
1501000.E-05   0000.000000
1526000.E-05   0000.000000
1551000.E-05   0000.000000
1576000.E-05   0000.000000
1601000.E-05   0000.000000
1626000.E-05   0000.000000
1651000.E-05   0000.000000
1676000.E-05   0000.000000
1701000.E-05   0000.000000
1726000.E-05   0000.000000
1751000.E-05   0000.000000
1776000.E-05   0000.000000
1801000.E-05   0000.000000
1826000.E-05   0000.000000
1851000.E-05   0000.000000
1876000.E-05   0000.000000
1901000.E-05   0000.000000
1926000.E-05   0000.000000
1951000.E-05   0000.000000
1976000.E-05   0000.000000
2001000.E-05   0000.000000
2026000.E-05   0000.000000
2051000.E-05   0000.000000
2076000.E-05   0000.000000
2101000.E-05   0000.000000
2126000.E-05   0000.000000
2151000.E-05   0000.000000
2176000.E-05   0000.000000
2201000.E-05   0000.000000
2226000.E-05   0000.000000
2251000.E-05   0000.000000
2276000.E-05   0000.000000
2301000.E-05   0000.000000
2326000.E-05   0000.000000
2351000.E-05   0000.000000
2376000.E-05   0000.000000
2401000.E-05   0000.000000
2426000.E-05   0000.000000
2451000.E-05   0000.000000
2476000.E-05   0000.000000
2501000.E-05   0000.000000
