 3000000 eV  H -> Fe 
   &TRI_INP
 text='---elemements---'     
     ncp =  2, 
     symbol = "H", "Fe"

 text='---beam---'     
     case_e0=0
     e0  =  3000000, 0.00
     case_alpha=0
     alpha0 = 83.0 , 0.000 
     qubeam = 1.000, 0.000
     flc    = 1.000E+0, 

 text='---control---'     
     nh      = 2500
     nr_pproj=   64
     idrel   = 1 

 text='---target---'     
     ttarget = 50000.00 
     nqx     = 100 
     qu       = 0.0 , 1.0 
     qumax    = 0.0 , 1.000
     inel0    =  4  ,   3
     e_cutoff = 100., 100. 
     e_bulkb  =   0.,   1. 
     ipot     = 1 
     isbv     = 3 

 text='---output parameter'     
     lmatrices = .true.
     
/
