number of thick-   target composition 2...ncp  name of layer
layer     ness     qu_2   qu_3     
 40       5.00     1.0000  0.0000              Si 1
 15       5.00     0.0000  1.0000              Ta 1
 21       5.00     1.0000  0.0000              Si 2
 15       5.00     0.0000  1.0000              Ta 2
 21       5.00     1.0000  0.0000              Si 3
 15       5.00     0.0000  1.0000              Ta 3
 21       5.00     1.0000  0.0000              Si 4
 15       5.00     0.0000  1.0000              Ta 4
200       5.00     1.0000  0.0000              Si 5
  0       0         0       0                   end
