 0 LINEAR ENERGY


 ENERGY(eV) - PATHLENGTH(IN UNITS OF CW)(BACKSCATTERED PROJECTILES) ; SPECIES 1

                  1.00      2.00      3.00      4.00      5.00      6.00      7.00      8.00

  0.5000E+01     18196     28542     15994      4450       977       202        19         2     68382
  0.1000E+02         0         0         0         0         0         0         0         0         0
  0.1500E+02         0         0         0         0         0         0         0         0         0
  0.2000E+02         0         0         0         0         0         0         0         0         0
  0.2500E+02         0         0         0         0         0         0         0         0         0
  0.3000E+02         0         0         0         0         0         0         0         0         0
  0.3500E+02         0         0         0         0         0         0         0         0         0
  0.4000E+02         0         0         0         0         0         0         0         0         0
  0.4500E+02         0         0         0         0         0         0         0         0         0
  0.5000E+02         0         0         0         0         0         0         0         0         0
  0.5500E+02         0         0         0         0         0         0         0         0         0
  0.6000E+02         0         0         0         0         0         0         0         0         0
  0.6500E+02         0         0         0         0         0         0         0         0         0
  0.7000E+02         0         0         0         0         0         0         0         0         0
  0.7500E+02         0         0         0         0         0         0         0         0         0
  0.8000E+02         0         0         0         0         0         0         0         0         0
  0.8500E+02         0         0         0         0         0         0         0         0         0
  0.9000E+02         0         0         0         0         0         0         0         0         0
  0.9500E+02         0         0         0         0         0         0         0         0         0
  0.1000E+03         0         0         0         0         0         0         0         0         0
  0.1050E+03         0         0         0         0         0         0         0         0         0
  0.1100E+03         0         0         0         0         0         0         0         0         0
  0.1150E+03         0         0         0         0         0         0         0         0         0
  0.1200E+03         0         0         0         0         0         0         0         0         0
  0.1250E+03         0         0         0         0         0         0         0         0         0
  0.1300E+03         0         0         0         0         0         0         0         0         0
  0.1350E+03         0         0         0         0         0         0         0         0         0
  0.1400E+03         0         0         0         0         0         0         0         0         0
  0.1450E+03         0         0         0         0         0         0         0         0         0
  0.1500E+03         0         0         0         0         0         0         0         0         0
  0.1550E+03         0         0         0         0         0         0         0         0         0
  0.1600E+03         0         0         0         0         0         0         0         0         0
  0.1650E+03         0         0         0         0         0         0         0         0         0
  0.1700E+03         0         0         0         0         0         0         0         0         0
  0.1750E+03         0         0         0         0         0         0         0         0         0
  0.1800E+03         0         0         0         0         0         0         0         0         0
  0.1850E+03         0         0         0         0         0         0         0         0         0
  0.1900E+03         0         0         0         0         0         0         0         0         0
  0.1950E+03         0         0         0         0         0         0         0         0         0
  0.2000E+03         0         0         0         0         0         0         0         0         0
  0.2050E+03         0         0         0         0         0         0         0         0         0
  0.2100E+03         0         0         0         0         0         0         0         0         0
  0.2150E+03         0         0         0         0         0         0         0         0         0
  0.2200E+03         0         0         0         0         0         0         0         0         0
  0.2250E+03         0         0         0         0         0         0         0         0         0
  0.2300E+03         0         0         0         0         0         0         0         0         0
  0.2350E+03         0         0         0         0         0         0         0         0         0
  0.2400E+03         0         0         0         0         0         0         0         0         0
  0.2450E+03         0         0         0         0         0         0         0         0         0
  0.2500E+03         0         0         0         0         0         0         0         0         0
  0.2550E+03         0         0         0         0         0         0         0         0         0
  0.2600E+03         0         0         0         0         0         0         0         0         0
  0.2650E+03         0         0         0         0         0         0         0         0         0
  0.2700E+03         0         0         0         0         0         0         0         0         0
  0.2750E+03         0         0         0         0         0         0         0         0         0
  0.2800E+03         0         0         0         0         0         0         0         0         0
  0.2850E+03         0         0         0         0         0         0         0         0         0
  0.2900E+03         0         0         0         0         0         0         0         0         0
  0.2950E+03         0         0         0         0         0         0         0         0         0
  0.3000E+03         0         0         0         0         0         0         0         0         0
  0.3050E+03         0         0         0         0         0         0         0         0         0
  0.3100E+03         0         0         0         0         0         0         0         0         0
  0.3150E+03         0         0         0         0         0         0         0         0         0
  0.3200E+03         0         0         0         0         0         0         0         0         0
  0.3250E+03         0         0         0         0         0         0         0         0         0
  0.3300E+03         0         0         0         0         0         0         0         0         0
  0.3350E+03         0         0         0         0         0         0         0         0         0
  0.3400E+03         0         0         0         0         0         0         0         0         0
  0.3450E+03         0         0         0         0         0         0         0         0         0
  0.3500E+03         0         0         0         0         0         0         0         0         0
  0.3550E+03         0         0         0         0         0         0         0         0         0
  0.3600E+03         0         0         0         0         0         0         0         0         0
  0.3650E+03         0         0         0         0         0         0         0         0         0
  0.3700E+03         0         0         0         0         0         0         0         0         0
  0.3750E+03         0         0         0         0         0         0         0         0         0
  0.3800E+03         0         0         0         0         0         0         0         0         0
  0.3850E+03         0         0         0         0         0         0         0         0         0
  0.3900E+03         0         0         0         0         0         0         0         0         0
  0.3950E+03         0         0         0         0         0         0         0         0         0
  0.4000E+03         0         0         0         0         0         0         0         0         0
  0.4050E+03         0         0         0         0         0         0         0         0         0
  0.4100E+03         0         0         0         0         0         0         0         0         0
  0.4150E+03         0         0         0         0         0         0         0         0         0
  0.4200E+03         0         0         0         0         0         0         0         0         0
  0.4250E+03         0         0         0         0         0         0         0         0         0
  0.4300E+03         0         0         0         0         0         0         0         0         0
  0.4350E+03         0         0         0         0         0         0         0         0         0
  0.4400E+03         0         0         0         0         0         0         0         0         0
  0.4450E+03         0         0         0         0         0         0         0         0         0
  0.4500E+03         0         0         0         0         0         0         0         0         0
  0.4550E+03         0         0         0         0         0         0         0         0         0
  0.4600E+03         0         0         0         0         0         0         0         0         0
  0.4650E+03         0         0         0         0         0         0         0         0         0
  0.4700E+03         0         0         0         0         0         0         0         0         0
  0.4750E+03         0         0         0         0         0         0         0         0         0
  0.4800E+03         0         0         0         0         0         0         0         0         0
  0.4850E+03         0         0         0         0         0         0         0         0         0
  0.4900E+03         0         0         0         0         0         0         0         0         0
  0.4950E+03         0         0         0         0         0         0         0         0         0
  0.5000E+03         0         0         0         0         0         0         0         0         0

                 18196     28542     15994      4450       977       202        19         2     68382
