 500 eV  He -> Ta2O5 (gauss_mehler/pot=1)
   &TRI_INP
 text='---elemements---'     
     ncp =  2, 
     symbol = "Si", "Si"

 text='---beam---'     
     case_e0=0
     e0  =  500, 0.00,
     flc   = 10.000E+0, 
     case_alpha=0
     alpha0 = 0.000, 0.000
     qubeam = 1.000, 0.000

 text='---control---'     
     nh      = 100000,
     nr_pproj= 64
     idrel = 1, 
     sfin  = 1,
     isbv  = 3, 
     iintegral = 1
     ipot      = 1 
     
 text='---target---'     
     ttarget =  5000E+0, 
     nqx     =  500, 
     qu       = 0. , 1.0
     qumax  = 1.000, 1.000
     
 text='---output parameter'     
     lmatrices = .true.
/
