a_act [eV]
 3      number of elements
 1  D Z, symbol for check of input
26 Fe Z, symbol for check of input 
74  W Z, symbol for check of input
D      Fe         W
0       0         0    a_act for D
0    2.97      0.00    a_act for Fe
0    0.00      2.97    a_act for W
