%!PS-Adobe-3.0 EPSF-3.0
%%BoundingBox: 0 0 510 765
%%Title: Graphics produced by IDL
%%For: aam@graph03.ipp-hgw.mpg.de, /space/aam/TEST_STRIM_2007_1/case/D_C
%%Creator: IDL Version 6.2 (linux x86 m32)
%%CreationDate: Wed Jan 24 15:29:05 2007
%%DocumentData: Clean7bit
%%Requirements: color
%%LanguageLevel: 1
%%PageOrder: Ascend
%%Pages: (atend)
%%DocumentNeededResources: (atend)
%%EndComments
%%BeginProlog
%+ prolog.ps -- Prolog for IDL generated PostScript files
%+ Copyright (c) 1988-2005 Research Systems, Inc. All Rights Reserved.
%v 5
/$IDL_DICT 40 dict def $IDL_DICT begin /bdef { bind def } bind def /C
{currentpoint newpath moveto} bdef /CP {currentpoint} bdef /D {currentpoint
stroke moveto} bdef /F {closepath fill} bdef /K { setgray } bdef /M {moveto}
bdef /N {rmoveto} bdef /P {lineto} bdef /R {rlineto} bdef /S {gsave show
grestore} bdef /X {currentpoint pop} bdef /Z {gsave currentpoint lineto 20
setlinewidth 1 setlinecap stroke grestore} bdef /L0 {[] 0 setdash} bdef /L1
{[40 100] 0 setdash} bdef /L2 {[200 200] 0 setdash} bdef /L3 {[200 100 50
100] 0 setdash} bdef /L4 {[300 100 50 100 50 100 50 100] 0 setdash} bdef /L5
{[400 200] 0 setdash} bdef /STDFONT { findfont exch scalefont setfont } bdef
/ISOFONT { findfont dup length dict begin { 1 index /FID ne {def} {pop pop}
ifelse } forall /Encoding ISOLatin1Encoding def currentdict end /idltmpfont
exch definefont exch scalefont setfont } bdef /ISOBULLET { gsave /Helvetica
findfont exch scalefont setfont (\267) show currentpoint grestore moveto}
bdef /MITERLIMIT { 2.5 setmiterlimit } bdef end
%%EndProlog
%%Page: 0 1
%%PageRequirements: color
%%PageResources: (atend)
%%PageOrientation: Portrait
%%PageBoundingBox: 0 0 510 765
%%BeginPageSetup
$IDL_DICT begin 0.0283465 dup scale MITERLIMIT
%%IncludeResource: font Helvetica
423.333 /Helvetica STDFONT
%%EndPageSetup
 3000 3000 translate
0.90 0.90 scale
10 setlinewidth L0 0.000 0.000 0.000 setrgbcolor 11368 26394 M 14 44 R
0 -88 R -14 44 R -30 29 R -44 15 R -43 0 R -44 -15 R -29 -29 R 0 -29 R
14 -29 R 15 -15 R 29 -15 R 88 -29 R 29 -14 R 29 -30 R D 11178 26365 M
29 -29 R 29 -15 R 88 -29 R 29 -15 R 15 -14 R 14 -30 R 0 -58 R -29 -29 R
-44 -15 R -44 0 R -44 15 R -29 29 R -14 44 R 0 -88 R 14 44 R D 11557 26438 M
0 -307 R D 11572 26438 M 0 -307 R D 11470 26438 M -15 -88 R 0 88 R 219 0 R
0 -88 R -14 88 R D 11514 26131 M 102 0 R D 11849 26438 M -43 -15 R -30 -29 R
-14 -29 R -15 -59 R 0 -43 R 15 -59 R 14 -29 R 30 -29 R 43 -15 R 30 0 R
44 15 R 29 29 R 14 29 R 15 59 R 0 43 R -15 59 R -14 29 R -29 29 R -44 15 R
-30 0 R -29 -15 R -29 -29 R -15 -29 R -14 -59 R 0 -43 R 14 -59 R 15 -29 R
29 -29 R 29 -15 R D 11879 26131 M 29 15 R 29 29 R 15 29 R 14 59 R 0 43 R
-14 59 R -15 29 R -29 29 R -29 15 R D 12098 26438 M 0 -307 R D 12112 26438 M
0 -307 R D 12054 26438 M 175 0 R 44 -15 R 15 -14 R 14 -30 R 0 -43 R
-14 -30 R -15 -14 R -44 -15 R -117 0 R D 12229 26438 M 29 -15 R 15 -14 R
15 -30 R 0 -43 R -15 -30 R -15 -14 R -29 -15 R D 12054 26131 M 102 0 R D
12419 26438 M 0 -307 R D 12434 26438 M 0 -307 R D 12375 26438 M 176 0 R
43 -15 R 15 -14 R 15 -30 R 0 -43 R -15 -30 R -15 -14 R -43 -15 R -117 0 R D
12551 26438 M 29 -15 R 14 -14 R 15 -30 R 0 -43 R -15 -30 R -14 -14 R
-29 -15 R D 12375 26131 M 103 0 R D 12740 26160 M -14 -14 R 14 -15 R 15 15 R
-15 14 R D 13047 26394 M 15 44 R 0 -88 R -15 44 R -29 29 R -44 15 R -44 0 R
-44 -15 R -29 -29 R 0 -29 R 15 -29 R 14 -15 R 30 -15 R 87 -29 R 30 -14 R
29 -30 R D 12857 26365 M 29 -29 R 30 -15 R 87 -29 R 30 -15 R 14 -14 R
15 -30 R 0 -58 R -29 -29 R -44 -15 R -44 0 R -44 15 R -29 29 R -15 44 R
0 -88 R 15 44 R D 13179 26438 M 0 -307 R D 13193 26438 M 0 -307 R D
13135 26438 M 175 0 R 44 -15 R 14 -14 R 15 -30 R 0 -43 R -15 -30 R -14 -14 R
-44 -15 R -117 0 R D 13310 26438 M 29 -15 R 15 -14 R 14 -30 R 0 -43 R
-14 -30 R -15 -14 R -29 -15 R D 13135 26131 M 102 0 R D 13500 26438 M
0 -219 R 14 -44 R 30 -29 R 44 -15 R 29 0 R 44 15 R 29 29 R 14 44 R 0 219 R D
13514 26438 M 0 -219 R 15 -44 R 29 -29 R 30 -15 R D 13456 26438 M 102 0 R D
13661 26438 M 87 0 R D 13909 26438 M 0 -307 R D 13923 26438 M 0 -307 R D
13821 26438 M -14 -88 R 0 88 R 219 0 R 0 -88 R -15 88 R D 13865 26131 M
102 0 R D 14186 26438 M 0 -307 R D 14201 26438 M 0 -307 R D 14099 26438 M
-15 -88 R 0 88 R 219 0 R 0 -88 R -14 88 R D 14143 26131 M 102 0 R D
14405 26438 M 0 -307 R D 14420 26438 M 0 -307 R D 14508 26350 M 0 -117 R D
14362 26438 M 233 0 R 0 -88 R -14 88 R D 14420 26292 M 88 0 R D
14362 26131 M 233 0 R 0 88 R -14 -88 R D 14712 26438 M 0 -307 R D
14727 26438 M 0 -307 R D 14668 26438 M 176 0 R 43 -15 R 15 -14 R 15 -30 R
0 -29 R -15 -29 R -15 -15 R -43 -14 R -117 0 R D 14844 26438 M 29 -15 R
14 -14 R 15 -30 R 0 -29 R -15 -29 R -14 -15 R -29 -14 R D 14668 26131 M
103 0 R D 14800 26292 M 29 -15 R 15 -14 R 43 -103 R 15 -14 R 15 0 R 14 14 R
D 14829 26277 M 15 -29 R 29 -102 R 14 -15 R 30 0 R 14 29 R 0 15 R D
8663 16092 M 8797 0 R D 8663 16092 M 0 197 R D 10240 16092 M 0 197 R D
10310 15809 M -35 -11 R -23 -35 R -12 -59 R 0 -35 R 12 -58 R 23 -35 R
35 -12 R 24 0 R 35 12 R 23 35 R 12 58 R 0 35 R -12 59 R -23 35 R -35 11 R
-24 0 R -23 -11 R -12 -12 R -11 -23 R -12 -59 R 0 -35 R 12 -58 R 11 -24 R
12 -11 R 23 -12 R D 10334 15564 M 23 12 R 12 11 R 11 24 R 12 58 R 0 35 R
-12 59 R -11 23 R -12 12 R -23 11 R D 13297 16092 M 0 197 R D 13122 15763 M
23 11 R 35 35 R 0 -245 R D 13169 15798 M 0 -234 R D 13122 15564 M 105 0 R D
13391 15809 M -35 -11 R -24 -35 R -11 -59 R 0 -35 R 11 -58 R 24 -35 R
35 -12 R 23 0 R 35 12 R 23 35 R 12 58 R 0 35 R -12 59 R -23 35 R -35 11 R
-23 0 R -24 -11 R -11 -12 R -12 -23 R -12 -59 R 0 -35 R 12 -58 R 12 -24 R
11 -11 R 24 -12 R D 13414 15564 M 23 12 R 12 11 R 12 24 R 11 58 R 0 35 R
-11 59 R -12 23 R -12 12 R -23 11 R D 16354 16092 M 0 197 R D 16155 15763 M
12 -12 R -12 -12 R -11 12 R 0 12 R 11 23 R 12 12 R 35 11 R 47 0 R 35 -11 R
12 -12 R 11 -23 R 0 -24 R -11 -23 R -35 -23 R -59 -24 R -23 -12 R -24 -23 R
-11 -35 R 0 -35 R D 16249 15809 M 23 -11 R 12 -12 R 12 -23 R 0 -24 R
-12 -23 R -35 -23 R -47 -24 R D 16144 15587 M 11 12 R 24 0 R 58 -23 R 35 0 R
24 11 R 11 12 R D 16179 15599 M 58 -35 R 47 0 R 12 12 R 11 23 R 0 23 R D
16448 15809 M -35 -11 R -24 -35 R -12 -59 R 0 -35 R 12 -58 R 24 -35 R
35 -12 R 23 0 R 35 12 R 23 35 R 12 58 R 0 35 R -12 59 R -23 35 R -35 11 R
-23 0 R -24 -11 R -11 -12 R -12 -23 R -12 -59 R 0 -35 R 12 -58 R 12 -24 R
11 -11 R 24 -12 R D 16471 15564 M 23 12 R 12 11 R 12 24 R 11 58 R 0 35 R
-11 59 R -12 23 R -12 12 R -23 11 R D 17460 16092 M 0 197 R D 12518 15270 M
71 -164 R D 12530 15270 M 59 -140 R D 12659 15270 M -70 -164 R -24 -58 R
-23 -23 R -24 -12 R -11 0 R -12 12 R 12 11 R 11 -11 R D 12495 15270 M 70 0 R
D 12612 15270 M 70 0 R D 12927 15399 M 0 -386 R D 12939 15399 M 0 -386 R D
12927 15399 M 82 0 R D 12927 15013 M 82 0 R D 13161 15352 M -82 -246 R D
13161 15352 M 82 -246 R D 13161 15317 M 70 -211 R D 13103 15177 M 105 0 R D
13056 15106 M 70 0 R D 13196 15106 M 70 0 R D 13383 15399 M 0 -386 R D
13395 15399 M 0 -386 R D 13313 15399 M 82 0 R D 13313 15013 M 82 0 R D
8663 25920 M 8797 0 R D 8663 25920 M 0 -197 R D 10240 25920 M 0 -197 R D
13297 25920 M 0 -197 R D 16354 25920 M 0 -197 R D 17460 25920 M 0 -197 R D
8663 16092 M 0 9828 R 176 0 R D 8663 25748 M 176 0 R D 8412 25853 M
-35 -12 R -23 -35 R -12 -58 R 0 -36 R 12 -58 R 23 -35 R 35 -12 R 24 0 R
35 12 R 23 35 R 12 58 R 0 36 R -12 58 R -23 35 R -35 12 R -24 0 R -23 -12 R
-12 -12 R -12 -23 R -11 -58 R 0 -36 R 11 -58 R 12 -23 R 12 -12 R 23 -12 R D
8436 25607 M 23 12 R 12 12 R 11 23 R 12 58 R 0 36 R -12 58 R -11 23 R
-12 12 R -23 12 R D 8663 22691 M 176 0 R D 8143 22749 M 24 12 R 35 35 R
0 -246 R D 8190 22784 M 0 -234 R D 8143 22550 M 106 0 R D 8412 22796 M
-35 -12 R -23 -35 R -12 -58 R 0 -35 R 12 -59 R 23 -35 R 35 -12 R 24 0 R
35 12 R 23 35 R 12 59 R 0 35 R -12 58 R -23 35 R -35 12 R -24 0 R -23 -12 R
-12 -12 R -12 -23 R -11 -58 R 0 -35 R 11 -59 R 12 -23 R 12 -12 R 23 -12 R D
8436 22550 M 23 12 R 12 12 R 11 23 R 12 59 R 0 35 R -12 58 R -11 23 R
-12 12 R -23 12 R D 8663 19634 M 176 0 R D 8120 19692 M 12 -12 R -12 -11 R
-12 11 R 0 12 R 12 23 R 12 12 R 35 12 R 47 0 R 35 -12 R 11 -12 R 12 -23 R
0 -23 R -12 -24 R -35 -23 R -58 -23 R -24 -12 R -23 -23 R -12 -35 R 0 -36 R
D 8214 19739 M 23 -12 R 12 -12 R 11 -23 R 0 -23 R -11 -24 R -35 -23 R
-47 -23 R D 8108 19517 M 12 12 R 23 0 R 59 -24 R 35 0 R 23 12 R 12 12 R D
8143 19529 M 59 -36 R 47 0 R 11 12 R 12 24 R 0 23 R D 8412 19739 M -35 -12 R
-23 -35 R -12 -58 R 0 -35 R 12 -59 R 23 -35 R 35 -12 R 24 0 R 35 12 R
23 35 R 12 59 R 0 35 R -12 58 R -23 35 R -35 12 R -24 0 R -23 -12 R
-12 -12 R -12 -23 R -11 -58 R 0 -35 R 11 -59 R 12 -23 R 12 -12 R 23 -12 R D
8436 19493 M 23 12 R 12 12 R 11 23 R 12 59 R 0 35 R -12 58 R -11 23 R
-12 12 R -23 12 R D 8663 16577 M 176 0 R D 8120 16635 M 12 -11 R -12 -12 R
-12 12 R 0 11 R 12 24 R 12 11 R 35 12 R 47 0 R 35 -12 R 11 -23 R 0 -35 R
-11 -24 R -35 -11 R -35 0 R D 8214 16682 M 23 -12 R 12 -23 R 0 -35 R
-12 -24 R -23 -11 R 23 -12 R 23 -23 R 12 -24 R 0 -35 R -12 -23 R -11 -12 R
-35 -11 R -47 0 R -35 11 R -12 12 R -12 23 R 0 12 R 12 12 R 12 -12 R
-12 -12 R D 8249 16553 M 11 -35 R 0 -35 R -11 -23 R -12 -12 R -23 -11 R D
8412 16682 M -35 -12 R -23 -35 R -12 -58 R 0 -35 R 12 -59 R 23 -35 R
35 -11 R 24 0 R 35 11 R 23 35 R 12 59 R 0 35 R -12 58 R -23 35 R -35 12 R
-24 0 R -23 -12 R -12 -11 R -12 -24 R -11 -58 R 0 -35 R 11 -59 R 12 -23 R
12 -12 R 23 -11 R D 8436 16437 M 23 11 R 12 12 R 11 23 R 12 59 R 0 35 R
-12 58 R -11 24 R -12 11 R -23 12 R D 8663 16092 M 176 0 R D 7588 20457 M
164 128 R D 7588 20469 M 164 128 R D 7588 20597 M 164 -140 R D 7588 20433 M
0 71 R D 7588 20550 M 0 70 R D 7752 20433 M 0 71 R D 7752 20550 M 0 70 R D
7460 20877 M 386 0 R D 7460 20889 M 386 0 R D 7460 20877 M 0 82 R D
7846 20877 M 0 82 R D 7507 21111 M 245 -82 R D 7507 21111 M 245 82 R D
7542 21111 M 210 70 R D 7682 21053 M 0 105 R D 7752 21006 M 0 70 R D
7752 21146 M 0 70 R D 7460 21333 M 386 0 R D 7460 21345 M 386 0 R D
7460 21263 M 0 82 R D 7846 21263 M 0 82 R D 17460 16092 M 0 9828 R -176 0 R
D 17460 25748 M -176 0 R D 17460 22691 M -176 0 R D 17460 19634 M -176 0 R D
17460 16577 M -176 0 R D 17460 16092 M -176 0 R D L1 8663 25748 M 8797 0 R D
L0 0.141 0.000 0.961 setrgbcolor 10298 25659 M 88 0 R -44 0 R 0 44 R 0 -89 R
0 45 R 44 44 R -88 -89 R 44 45 R -44 44 R 88 -89 R D 10506 25321 M 89 0 R
-44 0 R 0 44 R 0 -88 R 0 44 R 44 44 R -89 -88 R 45 44 R -45 44 R 89 -88 R D
10342 25659 M 209 -338 R D 10597 25332 M 89 0 R -45 0 R 0 45 R 0 -89 R
0 44 R 45 45 R -89 -89 R 44 44 R -44 45 R 89 -89 R D 10551 25321 M 90 11 R D
10780 25178 M 89 0 R -44 0 R 0 44 R 0 -89 R 0 45 R 44 44 R -89 -89 R 45 45 R
-45 44 R 89 -89 R D 10641 25332 M 184 -154 R D 11048 25141 M 89 0 R -45 0 R
0 45 R 0 -89 R 0 44 R 45 45 R -89 -89 R 44 44 R -44 45 R 89 -89 R D
10825 25178 M 267 -37 R D 11186 25364 M 89 0 R -45 0 R 0 44 R 0 -88 R 0 44 R
45 44 R -89 -88 R 44 44 R -44 44 R 89 -88 R D 11092 25141 M 138 223 R D
11251 25625 M 88 0 R -44 0 R 0 45 R 0 -89 R 0 44 R 44 45 R -88 -89 R 44 44 R
-44 45 R 88 -89 R D 11230 25364 M 65 261 R D 15221 25919 M 0 -43 R 0 43 R D
15220 25919 M -43 -43 R 43 43 R D 15222 25919 M 44 -43 R D 11295 25625 M
3912 294 R D 17416 25850 M 44 0 R 0 44 R 0 -89 R 0 45 R D 17460 25849 M
-44 -44 R 44 45 R -44 44 R 44 -45 R D 15252 25919 M 2208 -69 R D
0.000 0.149 1.000 setrgbcolor 9954 24972 M 89 0 R -45 0 R 0 45 R 0 -89 R
0 44 R 45 45 R -89 -89 R 44 44 R -44 45 R 89 -89 R D 9499 24700 M 88 0 R
-44 0 R 0 44 R 0 -88 R 0 44 R 44 44 R -88 -88 R 44 44 R -44 44 R 88 -88 R D
9998 24972 M -455 -272 R D 9123 24225 M 89 0 R -45 0 R 0 44 R 0 -89 R 0 45 R
45 44 R -89 -89 R 44 45 R -44 44 R 89 -89 R D 9543 24700 M -376 -475 R D
8663 24135 M 45 0 R -45 0 R 0 45 R 0 -89 R 0 44 R 45 45 R -45 -45 R D
8663 24136 M 45 -45 R D 9167 24225 M -504 -90 R D
0.000 0.431 1.000 setrgbcolor 10344 24307 M 88 0 R -44 0 R 0 44 R 0 -88 R
0 44 R 44 44 R -88 -88 R 44 44 R -44 44 R 88 -88 R D 10518 23849 M 89 0 R
-45 0 R 0 45 R 0 -89 R 0 44 R 45 45 R -89 -89 R 44 44 R -44 45 R 89 -89 R D
10388 24307 M 174 -458 R D 10706 23458 M 89 0 R -44 0 R 0 45 R 0 -89 R
0 44 R 44 45 R -89 -89 R 45 44 R -45 45 R 89 -89 R D 10562 23849 M
189 -391 R D 10641 23282 M 89 0 R -45 0 R 0 45 R 0 -89 R 0 44 R 45 45 R
-89 -89 R 44 44 R -44 45 R 89 -89 R D 10751 23458 M -66 -176 R D
10571 22742 M 89 0 R -44 0 R 0 45 R 0 -89 R 0 44 R 44 45 R -89 -89 R 45 44 R
-45 45 R 89 -89 R D 10685 23282 M -69 -540 R D 10218 22287 M 89 0 R -44 0 R
0 44 R 0 -89 R 0 45 R 44 44 R -89 -89 R 45 45 R -45 44 R 89 -89 R D
10616 22742 M -353 -455 R D 0.000 0.714 1.000 setrgbcolor 10648 23680 M
89 0 R -44 0 R 0 45 R 0 -89 R 0 44 R 44 45 R -89 -89 R 45 44 R -45 45 R
89 -89 R D 11106 23529 M 89 0 R -44 0 R 0 44 R 0 -89 R 0 45 R 44 44 R
-89 -89 R 45 45 R -45 44 R 89 -89 R D 10693 23680 M 458 -151 R D
11546 23299 M 89 0 R -45 0 R 0 45 R 0 -89 R 0 44 R 45 45 R -89 -89 R 44 44 R
-44 45 R 89 -89 R D 11151 23529 M 439 -230 R D 0.000 1.000 1.000 setrgbcolor
10276 23006 M 89 0 R -45 0 R 0 45 R 0 -89 R 0 44 R 45 45 R -89 -89 R 44 44 R
-44 45 R 89 -89 R D 10124 22660 M 89 0 R -45 0 R 0 44 R 0 -89 R 0 45 R
45 44 R -89 -89 R 44 45 R -44 44 R 89 -89 R D 10320 23006 M -152 -346 R D
9693 22768 M 88 0 R -44 0 R 0 44 R 0 -89 R 0 45 R 44 44 R -88 -89 R 44 45 R
-44 44 R 88 -89 R D 10168 22660 M -431 108 R D 0.000 1.000 0.698 setrgbcolor
10591 22305 M 89 0 R -45 0 R 0 45 R 0 -89 R 0 44 R 45 45 R -89 -89 R 44 44 R
-44 45 R 89 -89 R D 10890 22005 M 89 0 R -44 0 R 0 44 R 0 -89 R 0 45 R
44 44 R -89 -89 R 45 45 R -45 44 R 89 -89 R D 10635 22305 M 300 -300 R D
11419 22021 M 89 0 R -44 0 R 0 44 R 0 -88 R 0 44 R 44 44 R -89 -88 R 45 44 R
-45 44 R 89 -88 R D 10935 22005 M 529 16 R D 12008 22125 M 89 0 R -45 0 R
0 44 R 0 -89 R 0 45 R 45 44 R -89 -89 R 44 45 R -44 44 R 89 -89 R D
11464 22021 M 588 104 R D 12470 22321 M 89 0 R -44 0 R 0 45 R 0 -89 R 0 44 R
44 45 R -89 -89 R 45 44 R -45 45 R 89 -89 R D 12052 22125 M 463 196 R D
0.000 1.000 0.416 setrgbcolor 10564 21613 M 88 0 R -44 0 R 0 45 R 0 -89 R
0 44 R 44 45 R -88 -89 R 44 44 R -44 45 R 88 -89 R D 10713 21324 M 89 0 R
-44 0 R 0 45 R 0 -89 R 0 44 R 44 45 R -89 -89 R 45 44 R -45 45 R 89 -89 R D
10608 21613 M 150 -289 R D 10840 20830 M 89 0 R -45 0 R 0 45 R 0 -89 R
0 44 R 45 45 R -89 -89 R 44 44 R -44 45 R 89 -89 R D 10758 21324 M
126 -494 R D 10754 20259 M 89 0 R -45 0 R 0 45 R 0 -89 R 0 44 R 45 45 R
-89 -89 R 44 44 R -44 45 R 89 -89 R D 10884 20830 M -86 -571 R D
0.000 1.000 0.098 setrgbcolor 10360 21050 M 89 0 R -44 0 R 0 44 R 0 -88 R
0 44 R 44 44 R -89 -88 R 45 44 R -45 44 R 89 -88 R D 10179 20900 M 88 0 R
-44 0 R 0 44 R 0 -88 R 0 44 R 44 44 R -88 -88 R 44 44 R -44 44 R 88 -88 R D
10405 21050 M -182 -150 R D 9675 20771 M 89 0 R -44 0 R 0 45 R 0 -89 R
0 44 R 44 45 R -89 -89 R 45 44 R -45 45 R 89 -89 R D 10223 20900 M
-503 -129 R D 0.180 1.000 0.000 setrgbcolor 10802 20342 M 89 0 R -45 0 R
0 44 R 0 -88 R 0 44 R 45 44 R -89 -88 R 44 44 R -44 44 R 89 -88 R D
11267 20061 M 88 0 R -44 0 R 0 45 R 0 -89 R 0 44 R 44 45 R -88 -89 R 44 44 R
-44 45 R 88 -89 R D 10846 20342 M 465 -281 R D 11747 19802 M 89 0 R -44 0 R
0 44 R 0 -89 R 0 45 R 44 44 R -89 -89 R 45 45 R -45 44 R 89 -89 R D
11311 20061 M 481 -259 R D 12327 19718 M 89 0 R -44 0 R 0 45 R 0 -89 R
0 44 R 44 45 R -89 -89 R 45 44 R -45 45 R 89 -89 R D 11792 19802 M 580 -84 R
D 12461 19377 M 89 0 R -45 0 R 0 45 R 0 -89 R 0 44 R 45 45 R -89 -89 R
44 44 R -44 45 R 89 -89 R D 12372 19718 M 133 -341 R D
0.467 1.000 0.000 setrgbcolor 10584 19603 M 89 0 R -44 0 R 0 44 R 0 -88 R
0 44 R 44 44 R -89 -88 R 45 44 R -45 44 R 89 -88 R D 10667 19352 M 88 0 R
-44 0 R 0 44 R 0 -89 R 0 45 R 44 44 R -88 -89 R 44 45 R -44 44 R 88 -89 R D
10629 19603 M 82 -251 R D 10824 19553 M 89 0 R -44 0 R 0 45 R 0 -89 R 0 44 R
44 45 R -89 -89 R 45 44 R -45 45 R 89 -89 R D 10711 19352 M 158 201 R D
0.749 1.000 0.000 setrgbcolor 10515 18988 M 89 0 R -44 0 R 0 45 R 0 -89 R
0 44 R 44 45 R -89 -89 R 45 44 R -45 45 R 89 -89 R D 10527 18444 M 89 0 R
-45 0 R 0 44 R 0 -88 R 0 44 R 45 44 R -89 -88 R 44 44 R -44 44 R 89 -88 R D
10560 18988 M 11 -544 R D 10917 18016 M 88 0 R -44 0 R 0 44 R 0 -89 R 0 45 R
44 44 R -88 -89 R 44 45 R -44 44 R 88 -89 R D 10571 18444 M 390 -428 R D
11224 17848 M 88 0 R -44 0 R 0 44 R 0 -89 R 0 45 R 44 44 R -88 -89 R 44 45 R
-44 44 R 88 -89 R D 10961 18016 M 307 -168 R D 11538 18006 M 89 0 R -44 0 R
0 44 R 0 -89 R 0 45 R 44 44 R -89 -89 R 45 45 R -45 44 R 89 -89 R D
11268 17848 M 315 158 R D 11537 17733 M 88 0 R -44 0 R 0 44 R 0 -89 R 0 45 R
44 44 R -88 -89 R 44 45 R -44 44 R 88 -89 R D 11583 18006 M -2 -273 R D
1.000 0.949 0.000 setrgbcolor 10221 18345 M 89 0 R -44 0 R 0 45 R 0 -89 R
0 44 R 44 45 R -89 -89 R 45 44 R -45 45 R 89 -89 R D 9816 17994 M 88 0 R
-44 0 R 0 45 R 0 -89 R 0 44 R 44 45 R -88 -89 R 44 44 R -44 45 R 88 -89 R D
10266 18345 M -406 -351 R D 9464 17509 M 89 0 R -44 0 R 0 45 R 0 -89 R
0 44 R 44 45 R -89 -89 R 45 44 R -45 45 R 89 -89 R D 9860 17994 M
-351 -485 R D 9332 16923 M 89 0 R -45 0 R 0 45 R 0 -89 R 0 44 R 45 45 R
-89 -89 R 44 44 R -44 45 R 89 -89 R D 9509 17509 M -133 -586 R D
9147 16426 M 89 0 R -44 0 R 0 44 R 0 -88 R 0 44 R 44 44 R -89 -88 R 45 44 R
-45 44 R 89 -88 R D 9376 16923 M -184 -497 R D 1.000 0.667 0.000 setrgbcolor
10474 17753 M 89 0 R -44 0 R 0 45 R 0 -89 R 0 44 R 44 45 R -89 -89 R 45 44 R
-45 45 R 89 -89 R D 10469 17576 M 89 0 R -44 0 R 0 44 R 0 -89 R 0 45 R
44 44 R -89 -89 R 45 45 R -45 44 R 89 -89 R D 10519 17753 M -5 -177 R D
10592 17182 M 88 0 R -44 0 R 0 44 R 0 -89 R 0 45 R 44 44 R -88 -89 R 44 45 R
-44 44 R 88 -89 R D 10514 17576 M 122 -394 R D 1.000 0.380 0.000 setrgbcolor
10352 17010 M 88 0 R -44 0 R 0 44 R 0 -89 R 0 45 R 44 44 R -88 -89 R 44 45 R
-44 44 R 88 -89 R D 10129 16537 M 89 0 R -45 0 R 0 44 R 0 -88 R 0 44 R
45 44 R -89 -88 R 44 44 R -44 44 R 89 -88 R D 10396 17010 M -223 -473 R D
9549 16327 M 88 0 R -44 0 R 0 45 R 0 -89 R 0 44 R 44 45 R -88 -89 R 44 44 R
-44 45 R 88 -89 R D 10173 16537 M -580 -210 R D 9299 16403 M 89 0 R -45 0 R
0 44 R 0 -88 R 0 44 R 45 44 R -89 -88 R 44 44 R -44 44 R 89 -88 R D
9593 16327 M -250 76 R D 1.000 0.082 0.000 setrgbcolor 10167 16341 M 88 0 R
-44 0 R 0 44 R 0 -89 R 0 45 R 44 44 R -88 -89 R 44 45 R -44 44 R 88 -89 R D
9791 16092 M 89 0 R -45 0 R 0 44 R 0 -45 R 0 1 R 45 44 R -46 -45 R 1 1 R
-44 44 R 45 -45 R D 10211 16341 M -376 -249 R D
0.000 0.000 0.000 setrgbcolor 9117 14153 M 0 -307 R D 9132 14153 M 0 -307 R
D 9073 14153 M 176 0 R 43 -15 R 15 -14 R 15 -30 R 0 -29 R -15 -29 R
-15 -15 R -43 -14 R D 9249 14153 M 29 -15 R 14 -14 R 15 -30 R 0 -29 R
-15 -29 R -14 -15 R -29 -14 R -117 0 R D 9249 14007 M 43 -15 R 15 -14 R
15 -30 R 0 -43 R -15 -30 R -15 -14 R -43 -15 R -176 0 R D 9249 14007 M
29 -15 R 14 -14 R 15 -30 R 0 -43 R -15 -30 R -14 -14 R -29 -15 R D
9512 14153 M -103 -307 R D 9512 14153 M 102 -307 R D 9512 14109 M 87 -263 R
D 9439 13934 M 131 0 R D 9380 13846 M 88 0 R D 9555 13846 M 88 0 R D
9906 14109 M 15 -44 R 0 88 R -15 -44 R -29 29 R -44 15 R -29 0 R -44 -15 R
-29 -29 R -15 -29 R -15 -44 R 0 -73 R 15 -44 R 15 -29 R 29 -29 R 44 -15 R
29 0 R 44 15 R 29 29 R 15 29 R D 9804 14153 M -30 -15 R -29 -29 R -14 -29 R
-15 -44 R 0 -73 R 15 -44 R 14 -29 R 29 -29 R 30 -15 R D 10037 14153 M
0 -307 R D 10052 14153 M 0 -307 R D 10242 14153 M -190 -190 R D
10125 14021 M 117 -175 R D 10110 14021 M 117 -175 R D 9994 14153 M 102 0 R D
10183 14153 M 88 0 R D 9994 13846 M 102 0 R D 10183 13846 M 88 0 R D
10344 14153 M 58 -307 R D 10359 14153 M 43 -234 R D 10461 14153 M -59 -307 R
D 10461 14153 M 58 -307 R D 10476 14153 M 43 -234 R D 10578 14153 M
-59 -307 R D 10300 14153 M 102 0 R D 10534 14153 M 88 0 R D 10709 13875 M
-14 -14 R 14 -15 R 15 15 R -15 14 R D 11016 14109 M 15 44 R 0 -88 R -15 44 R
-29 29 R -44 15 R -44 0 R -44 -15 R -29 -29 R 0 -29 R 15 -29 R 14 -15 R
29 -15 R 88 -29 R 29 -14 R 30 -30 R D 10826 14080 M 29 -29 R 29 -15 R
88 -29 R 29 -15 R 15 -14 R 15 -30 R 0 -58 R -30 -29 R -44 -15 R -43 0 R
-44 15 R -29 29 R -15 44 R 0 -88 R 15 44 R D 11147 14153 M 0 -307 R D
11162 14153 M 0 -307 R D 11104 14153 M 175 0 R 44 -15 R 14 -14 R 15 -30 R
0 -43 R -15 -30 R -14 -14 R -44 -15 R -117 0 R D 11279 14153 M 29 -15 R
15 -14 R 14 -30 R 0 -43 R -14 -30 R -15 -14 R -29 -15 R D 11104 13846 M
102 0 R D 11469 14153 M 0 -219 R 14 -44 R 29 -29 R 44 -15 R 30 0 R 43 15 R
30 29 R 14 44 R 0 219 R D 11483 14153 M 0 -219 R 15 -44 R 29 -29 R 29 -15 R
D 11425 14153 M 102 0 R D 11629 14153 M 88 0 R D 11878 14153 M 0 -307 R D
11892 14153 M 0 -307 R D 11790 14153 M -15 -88 R 0 88 R 219 0 R 0 -88 R
-14 88 R D 11834 13846 M 102 0 R D 12155 14153 M 0 -307 R D 12170 14153 M
0 -307 R D 12067 14153 M -14 -88 R 0 88 R 219 0 R 0 -88 R -15 88 R D
12111 13846 M 103 0 R D 12374 14153 M 0 -307 R D 12389 14153 M 0 -307 R D
12476 14065 M 0 -117 R D 12330 14153 M 234 0 R 0 -88 R -15 88 R D
12389 14007 M 87 0 R D 12330 13846 M 234 0 R 0 88 R -15 -88 R D
12681 14153 M 0 -307 R D 12696 14153 M 0 -307 R D 12637 14153 M 175 0 R
44 -15 R 15 -14 R 14 -30 R 0 -29 R -14 -29 R -15 -15 R -44 -14 R -116 0 R D
12812 14153 M 30 -15 R 14 -14 R 15 -30 R 0 -29 R -15 -29 R -14 -15 R
-30 -14 R D 12637 13846 M 102 0 R D 12769 14007 M 29 -15 R 14 -14 R
44 -103 R 15 -14 R 14 0 R 15 14 R D 12798 13992 M 14 -29 R 30 -102 R
14 -15 R 29 0 R 15 29 R 0 15 R D 4543 3807 M 12917 0 R D 4543 3807 M 0 197 R
D 5990 3807 M 0 197 R D 5640 3384 M 210 0 R D 5967 3478 M 23 11 R 35 35 R
0 -245 R D 6014 3513 M 0 -234 R D 5967 3279 M 105 0 R D 6236 3524 M
-35 -11 R -24 -35 R -11 -59 R 0 -35 R 11 -58 R 24 -35 R 35 -12 R 23 0 R
35 12 R 23 35 R 12 58 R 0 35 R -12 59 R -23 35 R -35 11 R -23 0 R -24 -11 R
-11 -12 R -12 -23 R -12 -59 R 0 -35 R 12 -58 R 12 -24 R 11 -11 R 24 -12 R D
6259 3279 M 23 12 R 12 11 R 12 24 R 11 58 R 0 35 R -11 59 R -12 23 R
-12 12 R -23 11 R D 11111 3807 M 0 197 R D 11182 3524 M -35 -11 R -24 -35 R
-12 -59 R 0 -35 R 12 -58 R 24 -35 R 35 -12 R 23 0 R 35 12 R 23 35 R 12 58 R
0 35 R -12 59 R -23 35 R -35 11 R -23 0 R -24 -11 R -11 -12 R -12 -23 R
-12 -59 R 0 -35 R 12 -58 R 12 -24 R 11 -11 R 24 -12 R D 11205 3279 M 23 12 R
12 11 R 12 24 R 11 58 R 0 35 R -11 59 R -12 23 R -12 12 R -23 11 R D
16233 3807 M 0 197 R D 16057 3478 M 24 11 R 35 35 R 0 -245 R D 16104 3513 M
0 -234 R D 16057 3279 M 106 0 R D 16326 3524 M -35 -11 R -23 -35 R -12 -59 R
0 -35 R 12 -58 R 23 -35 R 35 -12 R 24 0 R 35 12 R 23 35 R 12 58 R 0 35 R
-12 59 R -23 35 R -35 11 R -24 0 R -23 -11 R -12 -12 R -12 -23 R -11 -59 R
0 -35 R 11 -58 R 12 -24 R 12 -11 R 23 -12 R D 16350 3279 M 23 12 R 12 11 R
11 24 R 12 58 R 0 35 R -12 59 R -11 23 R -12 12 R -23 11 R D 17460 3807 M
0 197 R D 10458 2985 M 70 -164 R D 10470 2985 M 58 -140 R D 10598 2985 M
-70 -164 R -23 -58 R -24 -23 R -23 -12 R -12 0 R -11 12 R 11 11 R 12 -11 R D
10435 2985 M 70 0 R D 10551 2985 M 71 0 R D 10867 3114 M 0 -386 R D
10879 3114 M 0 -386 R D 10867 3114 M 82 0 R D 10867 2728 M 82 0 R D
11101 3067 M -82 -246 R D 11101 3067 M 81 -246 R D 11101 3032 M 70 -211 R D
11042 2892 M 105 0 R D 10995 2821 M 71 0 R D 11136 2821 M 70 0 R D
11323 3114 M 0 -386 R D 11334 3114 M 0 -386 R D 11253 3114 M 81 0 R D
11253 2728 M 81 0 R D 4543 13635 M 12917 0 R D 4543 13635 M 0 -197 R D
5990 13635 M 0 -197 R D 11111 13635 M 0 -197 R D 16233 13635 M 0 -197 R D
17460 13635 M 0 -197 R D 4543 3807 M 0 9828 R 258 0 R D 4543 13459 M 258 0 R
D 3695 13423 M 211 0 R D 4023 13517 M 23 12 R 35 35 R 0 -246 R D
4069 13552 M 0 -234 R D 4023 13318 M 105 0 R D 4291 13564 M -35 -12 R
-23 -35 R -12 -58 R 0 -36 R 12 -58 R 23 -35 R 35 -12 R 24 0 R 35 12 R
23 35 R 12 58 R 0 36 R -12 58 R -23 35 R -35 12 R -24 0 R -23 -12 R
-12 -12 R -11 -23 R -12 -58 R 0 -36 R 12 -58 R 11 -23 R 12 -12 R 23 -12 R D
4315 13318 M 23 12 R 12 12 R 11 23 R 12 58 R 0 36 R -12 58 R -11 23 R
-12 12 R -23 12 R D 4543 10899 M 258 0 R D 3929 10863 M 210 0 R D
4245 11003 M -24 -117 R 24 24 R 35 11 R 35 0 R 35 -11 R 23 -24 R 12 -35 R
0 -23 R -12 -35 R -23 -24 R -35 -11 R -35 0 R -35 11 R -12 12 R -12 23 R
0 12 R 12 12 R 12 -12 R -12 -12 R D 4315 10921 M 23 -11 R 23 -24 R 12 -35 R
0 -23 R -12 -35 R -23 -24 R -23 -11 R D 4245 11003 M 116 0 R D 4245 10991 M
58 0 R 58 12 R D 4543 8338 M 258 0 R D 4291 8442 M -35 -11 R -23 -35 R
-12 -59 R 0 -35 R 12 -58 R 23 -35 R 35 -12 R 24 0 R 35 12 R 23 35 R 12 58 R
0 35 R -12 59 R -23 35 R -35 11 R -24 0 R -23 -11 R -12 -12 R -11 -23 R
-12 -59 R 0 -35 R 12 -58 R 11 -24 R 12 -11 R 23 -12 R D 4315 8197 M 23 12 R
12 11 R 11 24 R 12 58 R 0 35 R -12 59 R -11 23 R -12 12 R -23 11 R D
4543 5777 M 258 0 R D 4245 5882 M -24 -117 R 24 23 R 35 12 R 35 0 R 35 -12 R
23 -23 R 12 -35 R 0 -23 R -12 -35 R -23 -24 R -35 -12 R -35 0 R -35 12 R
-12 12 R -12 23 R 0 12 R 12 12 R 12 -12 R -12 -12 R D 4315 5800 M 23 -12 R
23 -23 R 12 -35 R 0 -23 R -12 -35 R -23 -24 R -23 -12 R D 4245 5882 M
116 0 R D 4245 5870 M 58 0 R 58 12 R D 4543 3807 M 258 0 R D 3164 8172 M
163 128 R D 3164 8184 M 163 128 R D 3164 8312 M 163 -140 R D 3164 8148 M
0 71 R D 3164 8265 M 0 70 R D 3327 8148 M 0 71 R D 3327 8265 M 0 70 R D
3035 8592 M 386 0 R D 3035 8604 M 386 0 R D 3035 8592 M 0 82 R D 3421 8592 M
0 82 R D 3082 8826 M 245 -82 R D 3082 8826 M 245 82 R D 3117 8826 M 210 70 R
D 3257 8768 M 0 105 R D 3327 8721 M 0 70 R D 3327 8861 M 0 70 R D
3035 9048 M 386 0 R D 3035 9060 M 386 0 R D 3035 8978 M 0 82 R D 3421 8978 M
0 82 R D 17460 3807 M 0 9828 R -258 0 R D 17460 13459 M -258 0 R D
17460 10899 M -258 0 R D 17460 8338 M -258 0 R D 17460 5777 M -258 0 R D
17460 3807 M -258 0 R D L1 4542 8338 M 12918 0 R D L0
0.141 0.000 0.961 setrgbcolor 11658 8084 M 89 0 R -45 0 R 0 45 R 0 -89 R
0 44 R 45 45 R -89 -89 R 44 44 R -44 45 R 89 -89 R D 11111 11059 M 89 0 R
-44 0 R 0 44 R 0 -89 R 0 45 R 44 44 R -89 -89 R 45 45 R -45 44 R 89 -89 R D
11702 8084 M -546 2975 R D 0.000 0.114 1.000 setrgbcolor 10402 7711 M 89 0 R
-45 0 R 0 45 R 0 -89 R 0 44 R 45 45 R -89 -89 R 44 44 R -44 45 R 89 -89 R D
9887 8110 M 89 0 R -44 0 R 0 45 R 0 -89 R 0 44 R 44 45 R -89 -89 R 45 44 R
-45 45 R 89 -89 R D 10446 7711 M -514 399 R D 9478 10420 M 89 0 R -44 0 R
0 44 R 0 -88 R 0 44 R 44 44 R -89 -88 R 45 44 R -45 44 R 89 -88 R D
9932 8110 M -409 2310 R D 0.000 0.380 1.000 setrgbcolor 11539 7672 M 89 0 R
-44 0 R 0 44 R 0 -89 R 0 45 R 44 44 R -89 -89 R 45 45 R -45 44 R 89 -89 R D
11860 7835 M 89 0 R -44 0 R 0 45 R 0 -89 R 0 44 R 44 45 R -89 -89 R 45 44 R
-45 45 R 89 -89 R D 11584 7672 M 321 163 R D 11589 10726 M 89 0 R -45 0 R
0 45 R 0 -89 R 0 44 R 45 45 R -89 -89 R 44 44 R -44 45 R 89 -89 R D
11905 7835 M -272 2891 R D 0.000 0.647 1.000 setrgbcolor 10831 7221 M 89 0 R
-45 0 R 0 45 R 0 -89 R 0 44 R 45 45 R -89 -89 R 44 44 R -44 45 R 89 -89 R D
10399 6754 M 88 0 R -44 0 R 0 45 R 0 -89 R 0 44 R 44 45 R -88 -89 R 44 44 R
-44 45 R 88 -89 R D 10875 7221 M -432 -467 R D 9839 6763 M 88 0 R -44 0 R
0 45 R 0 -89 R 0 44 R 44 45 R -88 -89 R 44 44 R -44 45 R 88 -89 R D
10443 6754 M -560 9 R D 9413 7433 M 89 0 R -45 0 R 0 44 R 0 -89 R 0 45 R
45 44 R -89 -89 R 44 45 R -44 44 R 89 -89 R D 9883 6763 M -426 670 R D
8113 10825 M 88 0 R -44 0 R 0 44 R 0 -89 R 0 45 R 44 44 R -88 -89 R 44 45 R
-44 44 R 88 -89 R D 9457 7433 M -1300 3392 R D 0.000 0.914 1.000 setrgbcolor
12231 7618 M 89 0 R -45 0 R 0 44 R 0 -89 R 0 45 R 45 44 R -89 -89 R 44 45 R
-44 44 R 89 -89 R D 12667 7976 M 89 0 R -44 0 R 0 44 R 0 -89 R 0 45 R
44 44 R -89 -89 R 45 45 R -45 44 R 89 -89 R D 12275 7618 M 437 358 R D
12919 8810 M 89 0 R -45 0 R 0 45 R 0 -89 R 0 44 R 45 45 R -89 -89 R 44 44 R
-44 45 R 89 -89 R D 12712 7976 M 251 834 R D 13467 10709 M 89 0 R -44 0 R
0 44 R 0 -89 R 0 45 R 44 44 R -89 -89 R 45 45 R -45 44 R 89 -89 R D
12963 8810 M 549 1899 R D 0.000 1.000 0.796 setrgbcolor 13651 7767 M 89 0 R
-45 0 R 0 44 R 0 -88 R 0 44 R 45 44 R -89 -88 R 44 44 R -44 44 R 89 -88 R D
14416 7738 M 89 0 R -45 0 R 0 44 R 0 -88 R 0 44 R 45 44 R -89 -88 R 44 44 R
-44 44 R 89 -88 R D 13695 7767 M 765 -29 R D 15466 8087 M 89 0 R -45 0 R
0 44 R 0 -89 R 0 45 R 45 44 R -89 -89 R 44 45 R -44 44 R 89 -89 R D
14460 7738 M 1050 349 R D 16169 8386 M 89 0 R -44 0 R 0 45 R 0 -89 R 0 44 R
44 45 R -89 -89 R 45 44 R -45 45 R 89 -89 R D 15510 8087 M 704 299 R D
17416 10463 M 44 0 R 0 44 R 0 -89 R 0 45 R D 17460 10462 M -44 -44 R 44 45 R
-44 44 R 44 -45 R D 16214 8386 M 1246 2077 R D 0.000 1.000 0.529 setrgbcolor
10710 7220 M 89 0 R -44 0 R 0 45 R 0 -89 R 0 44 R 44 45 R -89 -89 R 45 44 R
-45 45 R 89 -89 R D 9957 6643 M 89 0 R -44 0 R 0 44 R 0 -89 R 0 45 R 44 44 R
-89 -89 R 45 45 R -45 44 R 89 -89 R D 10755 7220 M -753 -577 R D 8948 6264 M
89 0 R -45 0 R 0 44 R 0 -88 R 0 44 R 45 44 R -89 -88 R 44 44 R -44 44 R
89 -88 R D 10002 6643 M -1010 -379 R D 7914 6287 M 88 0 R -44 0 R 0 45 R
0 -89 R 0 44 R 44 45 R -88 -89 R 44 44 R -44 45 R 88 -89 R D 8992 6264 M
-1034 23 R D 7175 7045 M 88 0 R -44 0 R 0 45 R 0 -89 R 0 44 R 44 45 R
-88 -89 R 44 44 R -44 45 R 88 -89 R D 7958 6287 M -739 758 R D 6495 7789 M
89 0 R -44 0 R 0 45 R 0 -89 R 0 44 R 44 45 R -89 -89 R 45 44 R -45 45 R
89 -89 R D 7219 7045 M -679 744 R D 5677 11178 M 89 0 R -45 0 R 0 44 R
0 -88 R 0 44 R 45 44 R -89 -88 R 44 44 R -44 44 R 89 -88 R D 6540 7789 M
-819 3389 R D 0.000 1.000 0.263 setrgbcolor 6287 7224 M 89 0 R -45 0 R
0 44 R 0 -89 R 0 45 R 45 44 R -89 -89 R 44 45 R -44 44 R 89 -89 R D
5627 7334 M 89 0 R -44 0 R 0 45 R 0 -89 R 0 44 R 44 45 R -89 -89 R 45 44 R
-45 45 R 89 -89 R D 6331 7224 M -659 110 R D 4542 10482 M 45 0 R -44 0 R
0 44 R 0 -89 R 0 45 R 44 44 R -45 -45 R 1 1 R -1 0 R 45 -45 R D 5672 7334 M
-1129 3148 R D 0.000 1.000 0.000 setrgbcolor 10912 6642 M 89 0 R -45 0 R
0 45 R 0 -89 R 0 44 R 45 45 R -89 -89 R 44 44 R -44 45 R 89 -89 R D
10834 6535 M 89 0 R -44 0 R 0 45 R 0 -89 R 0 44 R 44 45 R -89 -89 R 45 44 R
-45 45 R 89 -89 R D 10956 6642 M -77 -107 R D 11475 6513 M 89 0 R -45 0 R
0 45 R 0 -89 R 0 44 R 45 45 R -89 -89 R 44 44 R -44 45 R 89 -89 R D
10879 6535 M 640 -22 R D 12500 6608 M 89 0 R -44 0 R 0 44 R 0 -89 R 0 45 R
44 44 R -89 -89 R 45 45 R -45 44 R 89 -89 R D 11519 6513 M 1026 95 R D
13357 7194 M 88 0 R -44 0 R 0 45 R 0 -89 R 0 44 R 44 45 R -88 -89 R 44 44 R
-44 45 R 88 -89 R D 12545 6608 M 856 586 R D 14209 8167 M 89 0 R -45 0 R
0 44 R 0 -88 R 0 44 R 45 44 R -89 -88 R 44 44 R -44 44 R 89 -88 R D
13401 7194 M 852 973 R D 16133 10825 M 89 0 R -44 0 R 0 45 R 0 -89 R 0 44 R
44 45 R -89 -89 R 45 44 R -45 45 R 89 -89 R D 14253 8167 M 1925 2658 R D
0.263 1.000 0.000 setrgbcolor 10332 7702 M 88 0 R -44 0 R 0 45 R 0 -89 R
0 44 R 44 45 R -88 -89 R 44 44 R -44 45 R 88 -89 R D 9943 8002 M 89 0 R
-45 0 R 0 44 R 0 -89 R 0 45 R 45 44 R -89 -89 R 44 45 R -44 44 R 89 -89 R D
10376 7702 M -389 300 R D 9122 10340 M 88 0 R -44 0 R 0 44 R 0 -89 R 0 45 R
44 44 R -88 -89 R 44 45 R -44 44 R 88 -89 R D 9987 8002 M -821 2338 R D
0.529 1.000 0.000 setrgbcolor 8655 7896 M 89 0 R -44 0 R 0 44 R 0 -88 R
0 44 R 44 44 R -89 -88 R 45 44 R -45 44 R 89 -88 R D 6502 10497 M 89 0 R
-45 0 R 0 44 R 0 -88 R 0 44 R 45 44 R -89 -88 R 44 44 R -44 44 R 89 -88 R D
8700 7896 M -2154 2601 R D 0.796 1.000 0.000 setrgbcolor 10075 6719 M 89 0 R
-45 0 R 0 45 R 0 -89 R 0 44 R 45 45 R -89 -89 R 44 44 R -44 45 R 89 -89 R D
9790 7330 M 89 0 R -44 0 R 0 45 R 0 -89 R 0 44 R 44 45 R -89 -89 R 45 44 R
-45 45 R 89 -89 R D 10119 6719 M -284 611 R D 10338 8215 M 89 0 R -45 0 R
0 45 R 0 -89 R 0 44 R 45 45 R -89 -89 R 44 44 R -44 45 R 89 -89 R D
9835 7330 M 547 885 R D 11112 11026 M 89 0 R -44 0 R 0 44 R 0 -88 R 0 44 R
44 44 R -89 -88 R 45 44 R -45 44 R 89 -88 R D 10382 8215 M 775 2811 R D
1.000 0.933 0.000 setrgbcolor 10349 7515 M 89 0 R -45 0 R 0 44 R 0 -89 R
0 45 R 45 44 R -89 -89 R 44 45 R -44 44 R 89 -89 R D 10051 7756 M 89 0 R
-45 0 R 0 44 R 0 -88 R 0 44 R 45 44 R -89 -88 R 44 44 R -44 44 R 89 -88 R D
10393 7515 M -298 241 R D 10057 8888 M 89 0 R -44 0 R 0 44 R 0 -89 R 0 45 R
44 44 R -89 -89 R 45 45 R -45 44 R 89 -89 R D 10095 7756 M 7 1132 R D
10098 10985 M 88 0 R -44 0 R 0 45 R 0 -89 R 0 44 R 44 45 R -88 -89 R 44 44 R
-44 45 R 88 -89 R D 10102 8888 M 40 2097 R D 1.000 0.667 0.000 setrgbcolor
10082 7441 M 89 0 R -44 0 R 0 44 R 0 -89 R 0 45 R 44 44 R -89 -89 R 45 45 R
-45 44 R 89 -89 R D 9758 8429 M 88 0 R -44 0 R 0 45 R 0 -89 R 0 44 R 44 45 R
-88 -89 R 44 44 R -44 45 R 88 -89 R D 10127 7441 M -325 988 R D 9439 10506 M
88 0 R -44 0 R 0 44 R 0 -88 R 0 44 R 44 44 R -88 -88 R 44 44 R -44 44 R
88 -88 R D 9802 8429 M -319 2077 R D 1.000 0.400 0.000 setrgbcolor
10764 7306 M 89 0 R -44 0 R 0 44 R 0 -89 R 0 45 R 44 44 R -89 -89 R 45 45 R
-45 44 R 89 -89 R D 10099 6672 M 89 0 R -44 0 R 0 44 R 0 -89 R 0 45 R
44 44 R -89 -89 R 45 45 R -45 44 R 89 -89 R D 10809 7306 M -665 -634 R D
9245 6419 M 89 0 R -45 0 R 0 44 R 0 -88 R 0 44 R 45 44 R -89 -88 R 44 44 R
-44 44 R 89 -88 R D 10144 6672 M -855 -253 R D 8525 6696 M 89 0 R -44 0 R
0 44 R 0 -89 R 0 45 R 44 44 R -89 -89 R 45 45 R -45 44 R 89 -89 R D
9289 6419 M -719 277 R D 8050 7064 M 89 0 R -44 0 R 0 44 R 0 -88 R 0 44 R
44 44 R -89 -88 R 45 44 R -45 44 R 89 -88 R D 8570 6696 M -475 368 R D
7480 7769 M 89 0 R -44 0 R 0 44 R 0 -89 R 0 45 R 44 44 R -89 -89 R 45 45 R
-45 44 R 89 -89 R D 8095 7064 M -570 705 R D 6150 11069 M 89 0 R -45 0 R
0 44 R 0 -89 R 0 45 R 45 44 R -89 -89 R 44 45 R -44 44 R 89 -89 R D
7525 7769 M -1331 3300 R D 1.000 0.133 0.000 setrgbcolor 10876 7248 M 89 0 R
-45 0 R 0 44 R 0 -88 R 0 44 R 45 44 R -89 -88 R 44 44 R -44 44 R 89 -88 R D
10546 6835 M 89 0 R -44 0 R 0 45 R 0 -89 R 0 44 R 44 45 R -89 -89 R 45 44 R
-45 45 R 89 -89 R D 10920 7248 M -329 -413 R D 9585 6536 M 89 0 R -44 0 R
0 44 R 0 -89 R 0 45 R 44 44 R -89 -89 R 45 45 R -45 44 R 89 -89 R D
10591 6835 M -961 -299 R D 8614 6823 M 89 0 R -45 0 R 0 44 R 0 -88 R 0 44 R
45 44 R -89 -88 R 44 44 R -44 44 R 89 -88 R D 9630 6536 M -972 287 R D
8064 7538 M 89 0 R -44 0 R 0 45 R 0 -89 R 0 44 R 44 45 R -89 -89 R 45 44 R
-45 45 R 89 -89 R D 8658 6823 M -549 715 R D 8093 11137 M 89 0 R -45 0 R
0 44 R 0 -89 R 0 45 R 45 44 R -89 -89 R 44 45 R -44 44 R 89 -89 R D
8109 7538 M 28 3599 R D 0.000 0.000 0.000 setrgbcolor 1865 1694 M 0 -344 R D
1882 1694 M 0 -344 R D 1816 1694 M 197 0 R 49 -17 R 16 -16 R 16 -33 R
0 -49 R -16 -33 R -16 -16 R -49 -16 R -131 0 R D 2013 1694 M 32 -17 R
17 -16 R 16 -33 R 0 -49 R -16 -33 R -17 -16 R -32 -16 R D 1816 1350 M
115 0 R D 2225 1694 M 0 -344 R D 2242 1694 M 0 -344 R D 2176 1694 M 197 0 R
49 -17 R 16 -16 R 16 -33 R 0 -33 R -16 -32 R -16 -17 R -49 -16 R -131 0 R D
2373 1694 M 32 -17 R 17 -16 R 16 -33 R 0 -33 R -16 -32 R -17 -17 R -32 -16 R
D 2176 1350 M 115 0 R D 2323 1530 M 33 -16 R 17 -17 R 49 -114 R 16 -17 R
16 0 R 17 17 R D 2356 1514 M 17 -33 R 32 -115 R 17 -16 R 32 0 R 17 33 R
0 16 R D 2667 1694 M -49 -17 R -33 -33 R -16 -32 R -17 -66 R 0 -49 R
17 -65 R 16 -33 R 33 -33 R 49 -16 R 33 0 R 49 16 R 32 33 R 17 33 R 16 65 R
0 49 R -16 66 R -17 32 R -32 33 R -49 17 R -33 0 R -33 -17 R -32 -33 R
-17 -32 R -16 -66 R 0 -49 R 16 -65 R 17 -33 R 32 -33 R 33 -16 R D
2700 1350 M 32 16 R 33 33 R 16 33 R 17 65 R 0 49 R -17 66 R -16 32 R
-33 33 R -32 17 R D 3027 1694 M 0 -279 R -17 -49 R -32 -16 R -33 0 R
-33 16 R -16 33 R 0 33 R 16 16 R 17 -16 R -17 -17 R D 3010 1694 M 0 -279 R
-16 -49 R -16 -16 R D 2961 1694 M 115 0 R D 3190 1694 M 0 -344 R D
3207 1694 M 0 -344 R D 3305 1595 M 0 -130 R D 3141 1694 M 262 0 R 0 -99 R
-16 99 R D 3207 1530 M 98 0 R D 3141 1350 M 262 0 R 0 98 R -16 -98 R D
3730 1644 M 17 -49 R 0 99 R -17 -50 R -32 33 R -50 17 R -32 0 R -49 -17 R
-33 -33 R -16 -32 R -17 -49 R 0 -82 R 17 -49 R 16 -33 R 33 -33 R 49 -16 R
32 0 R 50 16 R 32 33 R 17 33 R D 3616 1694 M -33 -17 R -33 -33 R -16 -32 R
-16 -49 R 0 -82 R 16 -49 R 16 -33 R 33 -33 R 33 -16 R D 3943 1694 M 0 -344 R
D 3959 1694 M 0 -344 R D 3845 1694 M -17 -99 R 0 99 R 246 0 R 0 -99 R
-17 99 R D 3894 1350 M 114 0 R D 4188 1694 M 0 -344 R D 4205 1694 M 0 -344 R
D 4139 1694 M 115 0 R D 4139 1350 M 115 0 R D 4450 1694 M -49 -17 R
-33 -33 R -16 -32 R -17 -66 R 0 -49 R 17 -65 R 16 -33 R 33 -33 R 49 -16 R
33 0 R 49 16 R 32 33 R 17 33 R 16 65 R 0 49 R -16 66 R -17 32 R -32 33 R
-49 17 R -33 0 R -33 -17 R -32 -33 R -17 -32 R -16 -66 R 0 -49 R 16 -65 R
17 -33 R 32 -33 R 33 -16 R D 4483 1350 M 32 16 R 33 33 R 16 33 R 17 65 R
0 49 R -17 66 R -16 32 R -33 33 R -32 17 R D 4728 1694 M 0 -344 R D
4744 1694 M 197 -311 R D 4744 1661 M 197 -311 R 0 344 R D 4679 1694 M 65 0 R
D 4892 1694 M 98 0 R D 4679 1350 M 98 0 R D 5448 1694 M -49 -17 R -33 -33 R
-16 -32 R -17 -66 R 0 -49 R 17 -65 R 16 -33 R 33 -33 R 49 -16 R 33 0 R
49 16 R 32 33 R 17 33 R 16 65 R 0 49 R -16 66 R -17 32 R -32 33 R -49 17 R
-33 0 R -33 -17 R -33 -33 R -16 -32 R -16 -66 R 0 -49 R 16 -65 R 16 -33 R
33 -33 R 33 -16 R D 5481 1350 M 32 16 R 33 33 R 16 33 R 17 65 R 0 49 R
-17 66 R -16 32 R -33 33 R -32 17 R D 5726 1694 M 0 -344 R D 5742 1694 M
0 -344 R D 5840 1595 M 0 -130 R D 5677 1694 M 262 0 R 0 -99 R -17 99 R D
5742 1530 M 98 0 R D 5677 1350 M 114 0 R D 6380 1694 M 0 -344 R D
6397 1694 M 0 -344 R D 6282 1694 M -16 -99 R 0 99 R 245 0 R 0 -99 R -16 99 R
D 6331 1350 M 115 0 R D 6626 1694 M 0 -344 R D 6642 1694 M 0 -344 R D
6577 1694 M 196 0 R 49 -17 R 16 -16 R 17 -33 R 0 -33 R -17 -32 R -16 -17 R
-49 -16 R -131 0 R D 6773 1694 M 33 -17 R 16 -16 R 16 -33 R 0 -33 R
-16 -32 R -16 -17 R -33 -16 R D 6577 1350 M 114 0 R D 6724 1530 M 32 -16 R
17 -17 R 49 -114 R 16 -17 R 17 0 R 16 17 R D 6756 1514 M 17 -33 R 33 -115 R
16 -16 R 33 0 R 16 33 R 0 16 R D 7067 1694 M -114 -344 R D 7067 1694 M
115 -344 R D 7067 1644 M 98 -294 R D 6985 1448 M 148 0 R D 6920 1350 M
98 0 R D 7116 1350 M 98 0 R D 7394 1694 M 0 -279 R -16 -49 R -33 -16 R
-32 0 R -33 16 R -16 33 R 0 33 R 16 16 R 16 -16 R -16 -17 R D 7378 1694 M
0 -279 R -16 -49 R -17 -16 R D 7329 1694 M 114 0 R D 7558 1694 M 0 -344 R D
7574 1694 M 0 -344 R D 7672 1595 M 0 -130 R D 7509 1694 M 262 0 R 0 -99 R
-17 99 R D 7574 1530 M 98 0 R D 7509 1350 M 262 0 R 0 98 R -17 -98 R D
8098 1644 M 16 -49 R 0 99 R -16 -50 R -33 33 R -49 17 R -33 0 R -49 -17 R
-33 -33 R -16 -32 R -16 -49 R 0 -82 R 16 -49 R 16 -33 R 33 -33 R 49 -16 R
33 0 R 49 16 R 33 33 R 16 33 R D 7983 1694 M -32 -17 R -33 -33 R -17 -32 R
-16 -49 R 0 -82 R 16 -49 R 17 -33 R 33 -33 R 32 -16 R D 8310 1694 M 0 -344 R
D 8327 1694 M 0 -344 R D 8212 1694 M -16 -99 R 0 99 R 245 0 R 0 -99 R
-16 99 R D 8261 1350 M 115 0 R D 8638 1694 M -49 -17 R -33 -33 R -17 -32 R
-16 -66 R 0 -49 R 16 -65 R 17 -33 R 33 -33 R 49 -16 R 32 0 R 49 16 R 33 33 R
16 33 R 17 65 R 0 49 R -17 66 R -16 32 R -33 33 R -49 17 R -32 0 R -33 -17 R
-33 -33 R -16 -32 R -17 -66 R 0 -49 R 17 -65 R 16 -33 R 33 -33 R 33 -16 R D
8670 1350 M 33 16 R 33 33 R 16 33 R 16 65 R 0 49 R -16 66 R -16 32 R
-33 33 R -33 17 R D 8916 1694 M 0 -344 R D 8932 1694 M 0 -344 R D
8867 1694 M 196 0 R 49 -17 R 16 -16 R 17 -33 R 0 -33 R -17 -32 R -16 -17 R
-49 -16 R -131 0 R D 9063 1694 M 33 -17 R 16 -16 R 16 -33 R 0 -33 R
-16 -32 R -16 -17 R -33 -16 R D 8867 1350 M 114 0 R D 9014 1530 M 33 -16 R
16 -17 R 49 -114 R 16 -17 R 17 0 R 16 17 R D 9047 1514 M 16 -33 R 33 -115 R
16 -16 R 33 0 R 16 33 R 0 16 R D 9276 1694 M 0 -344 R D 9292 1694 M 0 -344 R
D 9226 1694 M 115 0 R D 9226 1350 M 115 0 R D 9455 1694 M 0 -344 R D
9472 1694 M 0 -344 R D 9570 1595 M 0 -130 R D 9406 1694 M 262 0 R 0 -99 R
-16 99 R D 9472 1530 M 98 0 R D 9406 1350 M 262 0 R 0 98 R -16 -98 R D
9979 1644 M 16 50 R 0 -99 R -16 49 R -33 33 R -49 17 R -49 0 R -49 -17 R
-33 -33 R 0 -32 R 17 -33 R 16 -16 R 33 -17 R 98 -32 R 33 -17 R 32 -32 R D
9766 1612 M 33 -33 R 33 -16 R 98 -33 R 33 -16 R 16 -17 R 16 -32 R 0 -66 R
-32 -33 R -49 -16 R -50 0 R -49 16 R -32 33 R -17 49 R 0 -98 R 17 49 R D
10928 1628 M 32 16 R 49 50 R 0 -344 R D 10993 1677 M 0 -327 R D 10928 1350 M
147 0 R D 11304 1694 M -49 -17 R -33 -49 R -16 -82 R 0 -49 R 16 -82 R
33 -49 R 49 -16 R 33 0 R 49 16 R 32 49 R 17 82 R 0 49 R -17 82 R -32 49 R
-49 17 R -33 0 R -33 -17 R -16 -16 R -16 -33 R -17 -82 R 0 -49 R 17 -82 R
16 -32 R 16 -17 R 33 -16 R D 11337 1350 M 32 16 R 17 17 R 16 32 R 16 82 R
0 49 R -16 82 R -16 33 R -17 16 R -32 17 R D 11631 1694 M -49 -17 R
-33 -49 R -16 -82 R 0 -49 R 16 -82 R 33 -49 R 49 -16 R 33 0 R 49 16 R
33 49 R 16 82 R 0 49 R -16 82 R -33 49 R -49 17 R -33 0 R -33 -17 R
-16 -16 R -16 -33 R -17 -82 R 0 -49 R 17 -82 R 16 -32 R 16 -17 R 33 -16 R D
11664 1350 M 33 16 R 16 17 R 16 32 R 17 82 R 0 49 R -17 82 R -16 33 R
-16 16 R -33 17 R D 11958 1694 M -49 -17 R -33 -49 R -16 -82 R 0 -49 R
16 -82 R 33 -49 R 49 -16 R 33 0 R 49 16 R 33 49 R 16 82 R 0 49 R -16 82 R
-33 49 R -49 17 R -33 0 R -32 -17 R -17 -16 R -16 -33 R -17 -82 R 0 -49 R
17 -82 R 16 -32 R 17 -17 R 32 -16 R D 11991 1350 M 33 16 R 16 17 R 16 32 R
17 82 R 0 49 R -17 82 R -16 33 R -16 16 R -33 17 R D 12465 1481 M 197 0 R
0 33 R -17 32 R -16 17 R -33 16 R -49 0 R -49 -16 R -33 -33 R -16 -49 R
0 -33 R 16 -49 R 33 -33 R 49 -16 R 33 0 R 49 16 R 33 33 R D 12645 1481 M
0 49 R -16 33 R D 12547 1579 M -33 -16 R -32 -33 R -17 -49 R 0 -33 R
17 -49 R 32 -33 R 33 -16 R D 12760 1694 M 114 -344 R D 12776 1694 M
98 -295 R D 12989 1694 M -115 -344 R D 12727 1694 M 98 0 R D 12923 1694 M
99 0 R D 13365 1694 M 65 -344 R D 13381 1694 M 49 -262 R D 13496 1694 M
-66 -344 R D 13496 1694 M 65 -344 R D 13512 1694 M 49 -262 R D 13627 1694 M
-66 -344 R D 13316 1694 M 114 0 R D 13578 1694 M 98 0 R D 14019 1497 M
295 0 R D 14445 1644 M 261 -147 R -261 -147 R D 15312 1644 M 16 -49 R 0 99 R
-16 -50 R -33 33 R -49 17 R -33 0 R -49 -17 R -33 -33 R -16 -32 R -16 -49 R
0 -82 R 16 -49 R 16 -33 R 33 -33 R 49 -16 R 33 0 R 49 16 R 33 33 R 16 33 R D
15197 1694 M -33 -17 R -32 -33 R -17 -32 R -16 -49 R 0 -82 R 16 -49 R
17 -33 R 32 -33 R 33 -16 R D 1856 834 M 0 -294 R D 1870 834 M 0 -294 R D
1814 834 M 168 0 R 42 -14 R 14 -14 R 14 -28 R 0 -28 R -14 -28 R -14 -14 R
-42 -14 R -112 0 R D 1982 834 M 28 -14 R 14 -14 R 14 -28 R 0 -28 R -14 -28 R
-14 -14 R -28 -14 R D 1814 540 M 98 0 R D 1940 694 M 28 -14 R 14 -14 R
42 -98 R 14 -14 R 14 0 R 14 14 R D 1968 680 M 14 -28 R 28 -98 R 14 -14 R
28 0 R 14 28 R 0 14 R D 2165 834 M 0 -294 R D 2179 834 M 0 -294 R D
2263 750 M 0 -112 R D 2122 834 M 225 0 R 0 -84 R -14 84 R D 2179 694 M
84 0 R D 2122 540 M 225 0 R 0 84 R -14 -84 R D 2627 792 M 14 -42 R 0 84 R
-14 -42 R -28 28 R -42 14 R -28 0 R -42 -14 R -28 -28 R -14 -28 R -14 -42 R
0 -70 R 14 -42 R 14 -28 R 28 -28 R 42 -14 R 28 0 R 42 14 R 28 28 R 14 28 R D
2529 834 M -28 -14 R -28 -28 R -14 -28 R -14 -42 R 0 -70 R 14 -42 R 14 -28 R
28 -28 R 28 -14 R D 2824 834 M -43 -14 R -28 -28 R -14 -28 R -14 -56 R
0 -42 R 14 -56 R 14 -28 R 28 -28 R 43 -14 R 28 0 R 42 14 R 28 28 R 14 28 R
14 56 R 0 42 R -14 56 R -14 28 R -28 28 R -42 14 R -28 0 R -29 -14 R
-28 -28 R -14 -28 R -14 -56 R 0 -42 R 14 -56 R 14 -28 R 28 -28 R 29 -14 R D
2852 540 M 28 14 R 28 28 R 14 28 R 14 56 R 0 42 R -14 56 R -14 28 R -28 28 R
-28 14 R D 3062 834 M 0 -294 R D 3076 834 M 0 -294 R D 3020 834 M 98 0 R D
3020 540 M 98 0 R D 3216 834 M 0 -294 R D 3230 834 M 0 -294 R D 3174 834 M
98 0 R D 3174 540 M 210 0 R 0 84 R -14 -84 R D 3623 792 M 14 42 R 0 -84 R
-14 42 R -28 28 R -42 14 R -42 0 R -42 -14 R -29 -28 R 0 -28 R 14 -28 R
15 -14 R 28 -14 R 84 -28 R 28 -14 R 28 -28 R D 3440 764 M 29 -28 R 28 -14 R
84 -28 R 28 -14 R 14 -14 R 14 -28 R 0 -56 R -28 -28 R -42 -14 R -42 0 R
-42 14 R -29 28 R -14 42 R 0 -84 R 14 42 R D 11840 168 M 10 28 R 0 -56 R
-10 28 R -18 19 R -29 9 R -28 0 R -28 -9 R -18 -19 R 0 -18 R 9 -19 R 9 -9 R
19 -10 R 56 -19 R 19 -9 R 19 -19 R D 11719 150 M 18 -19 R 19 -9 R 56 -19 R
19 -10 R 9 -9 R 10 -19 R 0 -37 R -19 -19 R -28 -9 R -28 0 R -28 9 R -19 19 R
-9 28 R 0 -56 R 9 28 R D 11924 196 M 0 -196 R D 11934 196 M 0 -196 R D
11896 196 M 94 0 R 28 -9 R 19 -19 R 9 -18 R 9 -28 R 0 -47 R -9 -28 R
-9 -19 R -19 -19 R -28 -9 R -94 0 R D 11990 196 M 18 -9 R 19 -19 R 10 -18 R
9 -28 R 0 -47 R -9 -28 R -10 -19 R -19 -19 R -18 -9 R D 12167 196 M 0 -196 R
D 12177 196 M 0 -196 R D 12111 196 M -9 -56 R 0 56 R 140 0 R 0 -56 R -9 56 R
D 12139 0 M 66 0 R D 12308 131 M 0 -131 R D 12317 131 M 0 -131 R D
12317 75 M 9 28 R 19 19 R 19 9 R 28 0 R 9 -9 R 0 -10 R -9 -9 R -10 9 R
10 10 R D 12280 131 M 37 0 R D 12280 0 M 65 0 R D 12466 196 M -9 -9 R 9 -9 R
10 9 R -10 9 R D 12466 131 M 0 -131 R D 12476 131 M 0 -131 R D 12438 131 M
38 0 R D 12438 0 M 66 0 R D 12569 131 M 0 -131 R D 12579 131 M 0 -131 R D
12579 103 M 18 19 R 28 9 R 19 0 R 28 -9 R 9 -19 R 0 -103 R D 12644 131 M
19 -9 R 9 -19 R 0 -103 R D 12681 103 M 19 19 R 28 9 R 19 0 R 28 -9 R 9 -19 R
0 -103 R D 12747 131 M 19 -9 R 9 -19 R 0 -103 R D 12541 131 M 38 0 R D
12541 0 M 66 0 R D 12644 0 M 66 0 R D 12747 0 M 65 0 R D 12981 168 M 9 28 R
0 -56 R -9 28 R -19 19 R -28 9 R -28 0 R -28 -9 R -19 -19 R 0 -18 R 9 -19 R
10 -9 R 18 -10 R 57 -19 R 18 -9 R 19 -19 R D 12859 150 M 19 -19 R 18 -9 R
57 -19 R 18 -10 R 10 -9 R 9 -19 R 0 -37 R -19 -19 R -28 -9 R -28 0 R -28 9 R
-19 19 R -9 28 R 0 -56 R 9 28 R D 13065 196 M 0 -196 R D 13074 196 M
0 -196 R D 13037 196 M 112 0 R 28 -9 R 9 -9 R 10 -19 R 0 -28 R -10 -19 R
-9 -9 R -28 -10 R -75 0 R D 13149 196 M 19 -9 R 9 -9 R 9 -19 R 0 -28 R
-9 -19 R -9 -9 R -19 -10 R D 13037 0 M 65 0 R D 13270 131 M -9 -9 R 9 -10 R
10 10 R -10 9 R D 13270 19 M -9 -10 R 9 -9 R 10 9 R -10 10 R D 13495 196 M
65 -196 R D 13504 196 M 56 -168 R D 13626 196 M -66 -196 R D 13476 196 M
56 0 R D 13588 196 M 56 0 R D 13700 196 M 0 -196 R D 13710 196 M 0 -196 R D
13766 140 M 0 -75 R D 13672 196 M 150 0 R 0 -56 R -9 56 R D 13710 103 M
56 0 R D 13672 0 M 150 0 R 0 56 R -9 -56 R D 13897 196 M 0 -196 R D
13906 196 M 0 -196 R D 13869 196 M 112 0 R 28 -9 R 9 -9 R 9 -19 R 0 -19 R
-9 -18 R -9 -10 R -28 -9 R -75 0 R D 13981 196 M 18 -9 R 10 -9 R 9 -19 R
0 -19 R -9 -18 R -10 -10 R -18 -9 R D 13869 0 M 65 0 R D 13953 103 M
18 -10 R 10 -9 R 28 -65 R 9 -10 R 9 0 R 10 10 R D 13971 93 M 10 -18 R
18 -66 R 10 -9 R 18 0 R 10 19 R 0 9 R D 14205 168 M 9 28 R 0 -56 R -9 28 R
-19 19 R -28 9 R -28 0 R -28 -9 R -18 -19 R 0 -18 R 9 -19 R 9 -9 R 19 -10 R
56 -19 R 19 -9 R 18 -19 R D 14084 150 M 18 -19 R 19 -9 R 56 -19 R 19 -10 R
9 -9 R 9 -19 R 0 -37 R -18 -19 R -28 -9 R -28 0 R -28 9 R -19 19 R -9 28 R
0 -56 R 9 28 R D 14289 196 M 0 -196 R D 14299 196 M 0 -196 R D 14261 196 M
66 0 R D 14261 0 M 66 0 R D 14439 196 M -28 -9 R -19 -19 R -9 -18 R
-10 -38 R 0 -28 R 10 -37 R 9 -19 R 19 -19 R 28 -9 R 18 0 R 29 9 R 18 19 R
10 19 R 9 37 R 0 28 R -9 38 R -10 18 R -18 19 R -29 9 R -18 0 R -19 -9 R
-19 -19 R -9 -18 R -9 -38 R 0 -28 R 9 -37 R 9 -19 R 19 -19 R 19 -9 R D
14457 0 M 19 9 R 19 19 R 9 19 R 10 37 R 0 28 R -10 38 R -9 18 R -19 19 R
-19 9 R D 14598 196 M 0 -196 R D 14607 196 M 112 -177 R D 14607 178 M
112 -178 R 0 196 R D 14570 196 M 37 0 R D 14691 196 M 56 0 R D 14570 0 M
56 0 R D 15028 178 M 0 -178 R D 15037 196 M 0 -196 R D 15037 196 M
-103 -140 R 150 0 R D 15000 0 M 65 0 R D 15149 19 M -9 -10 R 9 -9 R 10 9 R
-10 10 R D 15252 159 M 19 9 R 28 28 R 0 -196 R D 15289 187 M 0 -187 R D
15252 0 M 84 0 R D 15495 178 M 0 -178 R D 15504 196 M 0 -196 R D 15504 196 M
-102 -140 R 149 0 R D 15467 0 M 65 0 R D 16205 159 M 10 -9 R -10 -10 R
-9 10 R 0 9 R 9 19 R 10 9 R 28 9 R 37 0 R 28 -9 R 10 -9 R 9 -19 R 0 -19 R
-9 -18 R -28 -19 R -47 -19 R -19 -9 R -19 -19 R -9 -28 R 0 -28 R D
16280 196 M 19 -9 R 9 -9 R 10 -19 R 0 -19 R -10 -18 R -28 -19 R -37 -19 R D
16196 19 M 9 9 R 19 0 R 47 -19 R 28 0 R 19 10 R 9 9 R D 16224 28 M 47 -28 R
37 0 R 10 9 R 9 19 R 0 19 R D 16467 178 M 0 -178 R D 16477 196 M 0 -196 R D
16477 196 M -103 -140 R 149 0 R D 16439 0 M 66 0 R D 16589 19 M -10 -10 R
10 -9 R 9 9 R -9 10 R D 16720 196 M -29 -9 R -18 -28 R -10 -47 R 0 -28 R
10 -47 R 18 -28 R 29 -9 R 18 0 R 28 9 R 19 28 R 9 47 R 0 28 R -9 47 R
-19 28 R -28 9 R -18 0 R -19 -9 R -10 -9 R -9 -19 R -9 -47 R 0 -28 R 9 -47 R
9 -18 R 10 -10 R 19 -9 R D 16738 0 M 19 9 R 9 10 R 10 18 R 9 47 R 0 28 R
-9 47 R -10 19 R -9 9 R -19 9 R D 16878 159 M 19 9 R 28 28 R 0 -196 R D
16916 187 M 0 -187 R D 16878 0 M 85 0 R D 17056 19 M -9 -10 R 9 -9 R 9 9 R
-9 10 R D 17140 159 M 10 -9 R -10 -10 R -9 10 R 0 9 R 9 19 R 10 9 R 28 9 R
37 0 R 28 -9 R 9 -9 R 10 -19 R 0 -19 R -10 -18 R -28 -19 R -46 -19 R
-19 -9 R -19 -19 R -9 -28 R 0 -28 R D 17215 196 M 19 -9 R 9 -9 R 9 -19 R
0 -19 R -9 -18 R -28 -19 R -37 -19 R D 17131 19 M 9 9 R 19 0 R 47 -19 R
28 0 R 18 10 R 10 9 R D 17159 28 M 47 -28 R 37 0 R 9 9 R 10 19 R 0 19 R D
17374 196 M -28 -9 R -19 -28 R -9 -47 R 0 -28 R 9 -47 R 19 -28 R 28 -9 R
19 0 R 28 9 R 18 28 R 10 47 R 0 28 R -10 47 R -18 28 R -28 9 R -19 0 R
-19 -9 R -9 -9 R -10 -19 R -9 -47 R 0 -28 R 9 -47 R 10 -18 R 9 -10 R 19 -9 R
D 17393 0 M 18 9 R 10 10 R 9 18 R 9 47 R 0 28 R -9 47 R -9 19 R -10 9 R
-18 9 R D 17561 196 M -28 -9 R -19 -28 R -9 -47 R 0 -28 R 9 -47 R 19 -28 R
28 -9 R 18 0 R 29 9 R 18 28 R 10 47 R 0 28 R -10 47 R -18 28 R -29 9 R
-18 0 R -19 -9 R -9 -9 R -10 -19 R -9 -47 R 0 -28 R 9 -47 R 10 -18 R 9 -10 R
19 -9 R D 17579 0 M 19 9 R 10 10 R 9 18 R 9 47 R 0 28 R -9 47 R -9 19 R
-10 9 R -19 9 R D 17692 196 M 0 -56 R D 17692 159 M 9 19 R 19 18 R 18 0 R
47 -28 R 19 0 R 9 10 R 10 18 R D 17701 178 M 19 9 R 18 0 R 47 -19 R D
17823 196 M 0 -28 R -10 -28 R -37 -47 R -10 -18 R -9 -28 R 0 -47 R D
17813 140 M -47 -47 R -9 -18 R -9 -28 R 0 -47 R D
%%PageTrailer
end
%%PageResources: font Helvetica
%%Trailer
showpage
%%Pages: 1
%%DocumentNeededResources: font Helvetica
%%EOF
