SDTrimSP: VERSION 4.14    24.01.2007
  1000 eV W -> C                                                                
 16   maxnumber history (back_sputtered-recoil)       
    i_traj     ihist     iproj    parent     ncoll   species       ibn  termflag
       226         1         1         2         0         2         2         5
         k              x              y              z          ptime         energy
         0  4.9516786E-01  1.1536915E+00 -4.3550061E+00  2.3911994E+01  1.0411283E+01
         1 -5.3128714E+00  8.6529510E-02 -7.3636011E+00  7.5155851E+01  3.0012830E+00
    i_traj     ihist     iproj    parent     ncoll   species       ibn  termflag
         1         2         1         2         1         2         3         5
         k              x              y              z          ptime         energy
         0  1.2234090E+00 -1.2987525E+00  4.4136953E+00  2.4074724E+01  2.9665568E+01
         1  4.4451744E-01 -2.3037693E+00  5.4296887E+00  3.1567006E+01  1.9078320E+01
         2 -4.0656546E+00 -3.1020167E+00  7.1634862E+00  5.9540256E+01  1.1668320E+01
    i_traj     ihist     iproj    parent     ncoll   species       ibn  termflag
         0         3         1         2         1         2         3         5
         k              x              y              z          ptime         energy
         0  1.3008123E+00  9.2219021E-01 -2.3851718E+00  1.6165939E+01  3.5654794E+01
         1  9.8157617E-01  1.5490286E+00 -3.8178762E+00  2.2864540E+01  1.4992591E+01
         2 -4.6641010E+00  1.0193092E+00 -7.9789048E+00  6.8182434E+01  7.5825909E+00
    i_traj     ihist     iproj    parent     ncoll   species       ibn  termflag
         0         4         1         1         3         2         5         5
         k              x              y              z          ptime         energy
         0  2.1802620E+00 -4.6139847E-01 -6.6695435E-01  1.8844794E+01  6.3673462E+01
         1  3.0923763E+00 -1.3054619E+00 -1.8870533E+00  2.4313825E+01  3.9565112E+01
         2  3.0744056E+00 -2.3989836E+00 -3.5675460E+00  3.2313831E+01  1.6893007E+01
         3  1.7676236E+00 -3.2301558E+00 -4.8359764E+00  4.4554828E+01  1.0352566E+01
         4 -4.8557938E+00 -5.7690434E+00 -3.7526096E+00  1.0019372E+02  2.9425660E+00
    i_traj     ihist     iproj    parent     ncoll   species       ibn  termflag
         0         7         8         2         0         2         4         5
         k              x              y              z          ptime         energy
         0  1.4065086E+00  2.2728187E+00  2.0016101E+00  2.4361752E+01  1.6671070E+01
         1  7.0751281E-01  3.1248317E+00  3.9162643E+00  3.7961029E+01  1.3772512E+01
         2 -9.2257682E-01  3.6156236E+00  5.3242250E+00  5.2823700E+01  1.3277749E+01
         3 -4.6293427E+00  4.6867275E+00  7.4769702E+00  8.3074749E+01  5.8677494E+00
    i_traj     ihist     iproj    parent     ncoll   species       ibn  termflag
         0         8         4         2         2         2         5         5
         k              x              y              z          ptime         energy
         0  1.1148011E+00  5.0454974E+00 -1.6612031E+00  2.5062765E+01  3.0725356E+01
         1  1.1712919E+00  6.5392786E+00 -2.4460930E+00  3.2702927E+01  2.2000321E+01
         2  4.9067186E-01  8.5890480E+00 -4.0204079E+00  4.7025403E+01  2.0118422E+01
         3 -9.4701985E-02  9.9632716E+00 -4.5784718E+00  5.5930689E+01  1.2244423E+01
         4 -4.1490318E+00  1.2396509E+01 -6.0414775E+00  9.1220199E+01  4.8344231E+00
    i_traj     ihist     iproj    parent     ncoll   species       ibn  termflag
         0         9         6         1         5         2         7         5
         k              x              y              z          ptime         energy
         0  2.1825215E+00 -6.9649803E-01 -7.5396040E-02  1.8735198E+01  8.5348314E+01
         1  3.3105400E+00 -2.1672180E+00 -2.3460174E-01  2.3778637E+01  7.1000144E+01
         2  4.0496371E+00 -4.1383399E+00  1.9832426E-01  3.0172534E+01  5.5850426E+01
         3  4.0038598E+00 -6.1577875E+00 -2.3468670E-01  3.7105983E+01  3.1662661E+01
         4  2.5236906E+00 -7.6008693E+00  8.8334360E-03  4.6393320E+01  2.1608698E+01
         5  1.0715564E+00 -8.9269492E+00  8.4911326E-01  5.7945941E+01  1.7354865E+01
         6 -5.5457344E+00 -1.0524899E+01  2.9231562E+00  1.0056421E+02  9.9448648E+00
    i_traj     ihist     iproj    parent     ncoll   species       ibn  termflag
         1         9         8         2         1         2         3         5
         k              x              y              z          ptime         energy
         0  2.1760501E+00 -9.3338984E+00  2.0165528E+00  4.1098969E+01  1.8648715E+01
         1  1.9598307E+00 -1.0621934E+01  2.9318586E+00  5.0370194E+01  1.2081192E+01
         2 -4.1857967E+00 -1.2826788E+01  5.8849647E+00  1.0180574E+02  4.6711918E+00
    i_traj     ihist     iproj    parent     ncoll   species       ibn  termflag
         0        10         5         2         4         2         7         5
         k              x              y              z          ptime         energy
         0  3.3107254E+00 -3.0331128E-01 -4.5750384E+00  2.7255463E+01  7.3342520E+01
         1  3.5200809E+00 -4.5466593E-01 -6.3271105E+00  3.2436572E+01  4.8014267E+01
         2  3.5626537E+00  7.9669862E-01 -8.0952129E+00  4.0279282E+01  3.8294393E+01
         3  3.3788341E+00  2.7989797E+00 -8.8132873E+00  4.8938069E+01  2.9013834E+01
         4  2.2334185E+00  4.4708278E+00 -9.4448809E+00  5.8832348E+01  2.2039092E+01
         5  3.3364125E-01  6.1347037E+00 -1.0303215E+01  7.3105981E+01  2.1153786E+01
         6 -4.8569541E+00  9.8923562E+00 -1.1994832E+01  1.0905606E+02  1.3743786E+01
    i_traj     ihist     iproj    parent     ncoll   species       ibn  termflag
         0        12         2         2         1         2         3         5
         k              x              y              z          ptime         energy
         0  1.2410041E+00 -1.4360510E+00  2.2103894E+00  1.6145538E+01  1.6320882E+01
         1  6.5666347E-01 -2.1947899E+00  3.4275670E+00  2.5771844E+01  9.6734761E+00
         2 -3.9087048E+00 -3.7988387E+00  4.6155944E+00  6.5740041E+01  2.2634761E+00
    i_traj     ihist     iproj    parent     ncoll   species       ibn  termflag
         1        12         5         2         0         2         2         5
         k              x              y              z          ptime         energy
         0  8.6276269E-01 -4.7092342E+00 -8.0096771E+00  5.1310241E+01  2.0606234E+01
         1 -4.2159020E+00 -8.9140479E+00 -7.3384793E+00  8.7734826E+01  1.3196234E+01
    i_traj     ihist     iproj    parent     ncoll   species       ibn  termflag
         2        12         8         2         1         2         4         5
         k              x              y              z          ptime         energy
         0  3.1604105E+00 -1.9372858E+00  8.2683885E+00  4.6598159E+01  2.5237025E+01
         1  1.9677129E+00 -2.4929706E+00  9.1578368E+00  5.4532451E+01  1.2850380E+01
         2  2.3933132E-01 -1.4241310E+00  1.0949435E+01  7.3566303E+01  1.1288574E+01
         3 -5.2490238E+00  8.8500202E-02  1.4342620E+01  1.2277869E+02  3.8785743E+00
    i_traj     ihist     iproj    parent     ncoll   species       ibn  termflag
         0        16         3         2         1         2         4         5
         k              x              y              z          ptime         energy
         0  1.6072716E+00 -1.4020790E+00  3.0765119E+00  2.7012952E+01  1.5123457E+01
         1  1.1362508E+00 -1.9842652E+00  4.4347698E+00  3.7027895E+01  9.6743671E+00
         2 -1.0731915E+00 -1.9715000E+00  6.1239610E+00  5.9357595E+01  8.9519705E+00
         3 -5.1697453E+00 -1.8929954E+00  7.7773735E+00  9.6199608E+01  1.5419705E+00
    i_traj     ihist     iproj    parent     ncoll   species       ibn  termflag
         1        16         5         2         0         2         3         5
         k              x              y              z          ptime         energy
         0  1.7516496E+00 -1.9231245E+00  5.9915133E+00  3.5665978E+01  1.6707193E+01
         1 -1.7845556E-01 -2.5567685E+00  6.8596212E+00  4.9159486E+01  1.6267327E+01
         2 -4.2335715E+00 -3.1799702E+00  8.4995429E+00  7.6489797E+01  8.8573269E+00
    i_traj     ihist     iproj    parent     ncoll   species       ibn  termflag
         0        17         5         1         5         2         7         5
         k              x              y              z          ptime         energy
         0  2.0155968E+00 -5.9100318E-01 -4.7597434E-02  1.8644952E+01  1.1018095E+02
         1  3.2538340E+00 -1.8895032E+00 -1.5217431E-01  2.2933235E+01  5.5142495E+01
         2  3.7470168E+00 -3.5582167E+00 -1.2710888E+00  2.9918032E+01  4.1676917E+01
         3  3.2063095E+00 -4.9629217E+00 -2.7975607E+00  3.8249883E+01  3.1795299E+01
         4  2.4875333E+00 -5.8909251E+00 -4.6243439E+00  4.7915124E+01  2.6081116E+01
         5  1.1116998E+00 -7.0036157E+00 -5.7984875E+00  5.8359930E+01  1.7819578E+01
         6 -5.3323628E+00 -9.6012517E+00 -4.3669431E+00  1.0028545E+02  1.0409578E+01
    i_traj     ihist     iproj    parent     ncoll   species       ibn  termflag
         1        17         7         1         4         2         6         5
         k              x              y              z          ptime         energy
         0  2.1281380E+00 -3.7335356E-01  8.1353064E-01  1.8939852E+01  4.9784021E+01
         1  2.9339822E+00 -1.0166355E+00  2.2152303E+00  2.5121330E+01  3.5414566E+01
         2  3.5189026E+00 -2.8931700E+00  3.1001384E+00  3.4211901E+01  2.7810883E+01
         3  2.9582516E+00 -4.7898325E+00  3.6984662E+00  4.4050824E+01  1.8058344E+01
         4  1.5615206E+00 -5.8631405E+00  4.6933837E+00  5.6013758E+01  1.0336070E+01
         5 -5.4647671E+00 -5.8076689E+00  6.1604305E+00  1.1171580E+02  2.9260702E+00
 ende
 16   number history from SDTrimSP
