%!PS-Adobe-3.0 EPSF-3.0
%%BoundingBox: 0 0 510 765
%%Title: Graphics produced by IDL
%%For: aam@graph03.ipp-hgw.mpg.de, /space/aam/TEST_STRIM_2007_1/case/D_C
%%Creator: IDL Version 6.2 (linux x86 m32)
%%CreationDate: Wed Jan 24 15:29:05 2007
%%DocumentData: Clean7bit
%%Requirements: color
%%LanguageLevel: 1
%%PageOrder: Ascend
%%Pages: (atend)
%%DocumentNeededResources: (atend)
%%EndComments
%%BeginProlog
%+ prolog.ps -- Prolog for IDL generated PostScript files
%+ Copyright (c) 1988-2005 Research Systems, Inc. All Rights Reserved.
%v 5
/$IDL_DICT 40 dict def $IDL_DICT begin /bdef { bind def } bind def /C
{currentpoint newpath moveto} bdef /CP {currentpoint} bdef /D {currentpoint
stroke moveto} bdef /F {closepath fill} bdef /K { setgray } bdef /M {moveto}
bdef /N {rmoveto} bdef /P {lineto} bdef /R {rlineto} bdef /S {gsave show
grestore} bdef /X {currentpoint pop} bdef /Z {gsave currentpoint lineto 20
setlinewidth 1 setlinecap stroke grestore} bdef /L0 {[] 0 setdash} bdef /L1
{[40 100] 0 setdash} bdef /L2 {[200 200] 0 setdash} bdef /L3 {[200 100 50
100] 0 setdash} bdef /L4 {[300 100 50 100 50 100 50 100] 0 setdash} bdef /L5
{[400 200] 0 setdash} bdef /STDFONT { findfont exch scalefont setfont } bdef
/ISOFONT { findfont dup length dict begin { 1 index /FID ne {def} {pop pop}
ifelse } forall /Encoding ISOLatin1Encoding def currentdict end /idltmpfont
exch definefont exch scalefont setfont } bdef /ISOBULLET { gsave /Helvetica
findfont exch scalefont setfont (\267) show currentpoint grestore moveto}
bdef /MITERLIMIT { 2.5 setmiterlimit } bdef end
%%EndProlog
%%Page: 0 1
%%PageRequirements: color
%%PageResources: (atend)
%%PageOrientation: Portrait
%%PageBoundingBox: 0 0 510 765
%%BeginPageSetup
$IDL_DICT begin 0.0283465 dup scale MITERLIMIT
%%IncludeResource: font Helvetica
423.333 /Helvetica STDFONT
%%EndPageSetup
 3000 3000 translate
0.90 0.90 scale
10 setlinewidth L0 0.000 0.000 0.000 setrgbcolor 9220 26394 M 15 44 R
0 -88 R -15 44 R -29 29 R -44 15 R -44 0 R -43 -15 R -30 -29 R 0 -29 R
15 -29 R 15 -15 R 29 -15 R 87 -29 R 30 -14 R 29 -30 R D 9030 26365 M
30 -29 R 29 -15 R 87 -29 R 30 -15 R 14 -14 R 15 -30 R 0 -58 R -29 -29 R
-44 -15 R -44 0 R -44 15 R -29 29 R -15 44 R 0 -88 R 15 44 R D 9410 26438 M
0 -307 R D 9425 26438 M 0 -307 R D 9322 26438 M -14 -88 R 0 88 R 219 0 R
0 -88 R -15 88 R D 9366 26131 M 102 0 R D 9702 26438 M -44 -15 R -29 -29 R
-14 -29 R -15 -59 R 0 -43 R 15 -59 R 14 -29 R 29 -29 R 44 -15 R 29 0 R
44 15 R 29 29 R 15 29 R 15 59 R 0 43 R -15 59 R -15 29 R -29 29 R -44 15 R
-29 0 R -29 -15 R -29 -29 R -15 -29 R -14 -59 R 0 -43 R 14 -59 R 15 -29 R
29 -29 R 29 -15 R D 9731 26131 M 30 15 R 29 29 R 14 29 R 15 59 R 0 43 R
-15 59 R -14 29 R -29 29 R -30 15 R D 9950 26438 M 0 -307 R D 9965 26438 M
0 -307 R D 9907 26438 M 175 0 R 44 -15 R 14 -14 R 15 -30 R 0 -43 R -15 -30 R
-14 -14 R -44 -15 R -117 0 R D 10082 26438 M 29 -15 R 15 -14 R 14 -30 R
0 -43 R -14 -30 R -15 -14 R -29 -15 R D 9907 26131 M 102 0 R D 10272 26438 M
0 -307 R D 10286 26438 M 0 -307 R D 10228 26438 M 175 0 R 44 -15 R 15 -14 R
14 -30 R 0 -43 R -14 -30 R -15 -14 R -44 -15 R -117 0 R D 10403 26438 M
29 -15 R 15 -14 R 15 -30 R 0 -43 R -15 -30 R -15 -14 R -29 -15 R D
10228 26131 M 102 0 R D 2076 7493 M 15384 0 R D 2076 7493 M 0 368 R D
5538 7493 M 0 368 R D 5188 7070 M 210 0 R D 5491 7163 M 12 -12 R -12 -11 R
-11 11 R 0 12 R 11 23 R 12 12 R 35 12 R 47 0 R 35 -12 R 12 -12 R 11 -23 R
0 -23 R -11 -24 R -35 -23 R -59 -23 R -23 -12 R -24 -23 R -11 -35 R 0 -36 R
D 5585 7210 M 23 -12 R 12 -12 R 12 -23 R 0 -23 R -12 -24 R -35 -23 R
-47 -23 R D 5480 6988 M 11 12 R 24 0 R 58 -24 R 35 0 R 24 12 R 11 12 R D
5515 7000 M 58 -36 R 47 0 R 12 12 R 11 24 R 0 23 R D 5784 7210 M -35 -12 R
-24 -35 R -12 -58 R 0 -35 R 12 -59 R 24 -35 R 35 -12 R 23 0 R 35 12 R
23 35 R 12 59 R 0 35 R -12 58 R -23 35 R -35 12 R -23 0 R -24 -12 R
-11 -12 R -12 -23 R -12 -58 R 0 -35 R 12 -59 R 12 -23 R 11 -12 R 24 -12 R D
5807 6964 M 23 12 R 12 12 R 12 23 R 11 59 R 0 35 R -11 58 R -12 23 R
-12 12 R -23 12 R D 11142 7493 M 0 368 R D 11212 7210 M -35 -12 R -23 -35 R
-12 -58 R 0 -35 R 12 -59 R 23 -35 R 35 -12 R 24 0 R 35 12 R 23 35 R 12 59 R
0 35 R -12 58 R -23 35 R -35 12 R -24 0 R -23 -12 R -12 -12 R -11 -23 R
-12 -58 R 0 -35 R 12 -59 R 11 -23 R 12 -12 R 23 -12 R D 11236 6964 M 23 12 R
12 12 R 11 23 R 12 59 R 0 35 R -12 58 R -11 23 R -12 12 R -23 12 R D
16746 7493 M 0 368 R D 16548 7163 M 11 -12 R -11 -11 R -12 11 R 0 12 R
12 23 R 11 12 R 35 12 R 47 0 R 35 -12 R 12 -12 R 12 -23 R 0 -23 R -12 -24 R
-35 -23 R -59 -23 R -23 -12 R -23 -23 R -12 -35 R 0 -36 R D 16641 7210 M
23 -12 R 12 -12 R 12 -23 R 0 -23 R -12 -24 R -35 -23 R -47 -23 R D
16536 6988 M 12 12 R 23 0 R 58 -24 R 35 0 R 24 12 R 12 12 R D 16571 7000 M
58 -36 R 47 0 R 12 12 R 12 24 R 0 23 R D 16840 7210 M -35 -12 R -24 -35 R
-11 -58 R 0 -35 R 11 -59 R 24 -35 R 35 -12 R 23 0 R 35 12 R 24 35 R 11 59 R
0 35 R -11 58 R -24 35 R -35 12 R -23 0 R -24 -12 R -11 -12 R -12 -23 R
-12 -58 R 0 -35 R 12 -59 R 12 -23 R 11 -12 R 24 -12 R D 16863 6964 M 23 12 R
12 12 R 12 23 R 12 59 R 0 35 R -12 58 R -12 23 R -12 12 R -23 12 R D
17460 7493 M 0 368 R D 9225 6670 M 70 -163 R D 9236 6670 M 59 -140 R D
9365 6670 M -70 -163 R -24 -59 R -23 -23 R -23 -12 R -12 0 R -12 12 R
12 12 R 12 -12 R D 9201 6670 M 70 0 R D 9318 6670 M 70 0 R D 9634 6799 M
0 -386 R D 9645 6799 M 0 -386 R D 9634 6799 M 81 0 R D 9634 6413 M 81 0 R D
9867 6752 M -82 -245 R D 9867 6752 M 82 -245 R D 9867 6717 M 70 -210 R D
9809 6577 M 105 0 R D 9762 6507 M 70 0 R D 9902 6507 M 70 0 R D 10089 6799 M
0 -386 R D 10101 6799 M 0 -386 R D 10019 6799 M 82 0 R D 10019 6413 M 82 0 R
D 2076 25920 M 15384 0 R D 2076 25920 M 0 -369 R D 5538 25920 M 0 -369 R D
11142 25920 M 0 -369 R D 16746 25920 M 0 -369 R D 17460 25920 M 0 -369 R D
2076 7493 M 0 18427 R 307 0 R D 2076 24872 M 307 0 R D 1825 24977 M
-36 -12 R -23 -35 R -12 -58 R 0 -35 R 12 -59 R 23 -35 R 36 -12 R 23 0 R
35 12 R 23 35 R 12 59 R 0 35 R -12 58 R -23 35 R -35 12 R -23 0 R -24 -12 R
-12 -12 R -11 -23 R -12 -58 R 0 -35 R 12 -59 R 11 -23 R 12 -12 R 24 -12 R D
1848 24731 M 23 12 R 12 12 R 12 23 R 11 59 R 0 35 R -11 58 R -12 23 R
-12 12 R -23 12 R D 2076 19268 M 307 0 R D 1532 19326 M 12 -12 R -12 -11 R
-11 11 R 0 12 R 11 23 R 12 12 R 35 12 R 47 0 R 35 -12 R 12 -12 R 11 -23 R
0 -23 R -11 -24 R -35 -23 R -59 -23 R -23 -12 R -24 -23 R -11 -35 R 0 -36 R
D 1626 19373 M 23 -12 R 12 -12 R 12 -23 R 0 -23 R -12 -24 R -35 -23 R
-47 -23 R D 1521 19151 M 11 12 R 24 0 R 58 -24 R 35 0 R 24 12 R 11 12 R D
1556 19163 M 58 -36 R 47 0 R 12 12 R 11 24 R 0 23 R D 1825 19373 M -36 -12 R
-23 -35 R -12 -58 R 0 -35 R 12 -59 R 23 -35 R 36 -12 R 23 0 R 35 12 R
23 35 R 12 59 R 0 35 R -12 58 R -23 35 R -35 12 R -23 0 R -24 -12 R
-12 -12 R -11 -23 R -12 -58 R 0 -35 R 12 -59 R 11 -23 R 12 -12 R 24 -12 R D
1848 19127 M 23 12 R 12 12 R 12 23 R 11 59 R 0 35 R -11 58 R -12 23 R
-12 12 R -23 12 R D 2076 13664 M 307 0 R D 1626 13745 M 0 -222 R D
1638 13769 M 0 -246 R D 1638 13769 M -129 -175 R 187 0 R D 1591 13523 M
82 0 R D 1825 13769 M -36 -12 R -23 -35 R -12 -58 R 0 -35 R 12 -59 R
23 -35 R 36 -12 R 23 0 R 35 12 R 23 35 R 12 59 R 0 35 R -12 58 R -23 35 R
-35 12 R -23 0 R -24 -12 R -12 -12 R -11 -23 R -12 -58 R 0 -35 R 12 -59 R
11 -23 R 12 -12 R 24 -12 R D 1848 13523 M 23 12 R 12 12 R 12 23 R 11 59 R
0 35 R -11 58 R -12 23 R -12 12 R -23 12 R D 2076 8060 M 307 0 R D
1661 8130 M -12 -12 R 12 -12 R 12 12 R 0 12 R -12 23 R -23 12 R -35 0 R
-36 -12 R -23 -23 R -12 -24 R -11 -46 R 0 -70 R 11 -36 R 24 -23 R 35 -12 R
23 0 R 35 12 R 24 23 R 11 36 R 0 11 R -11 35 R -24 24 R -35 11 R -11 0 R
-36 -11 R -23 -24 R -12 -35 R D 1603 8165 M -24 -12 R -23 -23 R -12 -24 R
-12 -46 R 0 -70 R 12 -36 R 23 -23 R 24 -12 R D 1614 7919 M 24 12 R 23 23 R
12 36 R 0 11 R -12 35 R -23 24 R -24 11 R D 1825 8165 M -36 -12 R -23 -35 R
-12 -58 R 0 -35 R 12 -59 R 23 -35 R 36 -12 R 23 0 R 35 12 R 23 35 R 12 59 R
0 35 R -12 58 R -23 35 R -35 12 R -23 0 R -24 -12 R -12 -12 R -11 -23 R
-12 -58 R 0 -35 R 12 -59 R 11 -23 R 12 -12 R 24 -12 R D 1848 7919 M 23 12 R
12 12 R 12 23 R 11 59 R 0 35 R -11 58 R -12 23 R -12 12 R -23 12 R D
2076 7493 M 307 0 R D 1001 16157 M 163 129 R D 1001 16169 M 163 128 R D
1001 16297 M 163 -140 R D 1001 16134 M 0 70 R D 1001 16251 M 0 70 R D
1164 16134 M 0 70 R D 1164 16251 M 0 70 R D 872 16578 M 386 0 R D
872 16589 M 386 0 R D 872 16578 M 0 82 R D 1258 16578 M 0 82 R D 919 16811 M
245 -81 R D 919 16811 M 245 82 R D 954 16811 M 210 71 R D 1094 16753 M
0 105 R D 1164 16706 M 0 70 R D 1164 16846 M 0 71 R D 872 17033 M 386 0 R D
872 17045 M 386 0 R D 872 16963 M 0 82 R D 1258 16963 M 0 82 R D
17460 7493 M 0 18427 R -308 0 R D 17460 24872 M -308 0 R D 17460 19268 M
-308 0 R D 17460 13664 M -308 0 R D 17460 8060 M -308 0 R D 17460 7493 M
-308 0 R D L1 2075 24872 M 15385 0 R D L0 0.141 0.000 0.961 setrgbcolor
11142 25919 M 0 -43 R 0 43 R D 11141 25919 M -43 -43 R 43 43 R D
11143 25919 M 44 -43 R D 11098 24941 M 89 0 R -45 0 R 0 45 R 0 -89 R 0 44 R
45 45 R -89 -89 R 44 44 R -44 45 R 89 -89 R D 11142 25919 M 0 -978 R D
11117 24306 M 89 0 R -44 0 R 0 44 R 0 -89 R 0 45 R 44 44 R -89 -89 R 45 45 R
-45 44 R 89 -89 R D 11142 24941 M 20 -635 R D 11167 23726 M 89 0 R -45 0 R
0 45 R 0 -89 R 0 44 R 45 45 R -89 -89 R 44 44 R -44 45 R 89 -89 R D
11162 24306 M 49 -580 R D 11210 23077 M 89 0 R -44 0 R 0 44 R 0 -89 R 0 45 R
44 44 R -89 -89 R 45 45 R -45 44 R 89 -89 R D 11211 23726 M 44 -649 R D
11240 22516 M 89 0 R -45 0 R 0 44 R 0 -89 R 0 45 R 45 44 R -89 -89 R 44 45 R
-44 44 R 89 -89 R D 11255 23077 M 29 -561 R D 11294 21883 M 89 0 R -44 0 R
0 44 R 0 -89 R 0 45 R 44 44 R -89 -89 R 45 45 R -45 44 R 89 -89 R D
11284 22516 M 55 -633 R D 11341 21264 M 88 0 R -44 0 R 0 45 R 0 -89 R 0 44 R
44 45 R -88 -89 R 44 44 R -44 45 R 88 -89 R D 11339 21883 M 46 -619 R D
11369 20665 M 89 0 R -45 0 R 0 45 R 0 -89 R 0 44 R 45 45 R -89 -89 R 44 44 R
-44 45 R 89 -89 R D 11385 21264 M 28 -599 R D 11396 20073 M 89 0 R -45 0 R
0 44 R 0 -89 R 0 45 R 45 44 R -89 -89 R 44 45 R -44 44 R 89 -89 R D
11413 20665 M 27 -592 R D 11391 19433 M 88 0 R -44 0 R 0 45 R 0 -89 R 0 44 R
44 45 R -88 -89 R 44 44 R -44 45 R 88 -89 R D 11440 20073 M -5 -640 R D
11385 18928 M 89 0 R -44 0 R 0 45 R 0 -89 R 0 44 R 44 45 R -89 -89 R 45 44 R
-45 45 R 89 -89 R D 11435 19433 M -5 -505 R D 11349 18284 M 89 0 R -45 0 R
0 44 R 0 -89 R 0 45 R 45 44 R -89 -89 R 44 45 R -44 44 R 89 -89 R D
11430 18928 M -37 -644 R D 11357 17668 M 89 0 R -45 0 R 0 45 R 0 -89 R
0 44 R 45 45 R -89 -89 R 44 44 R -44 45 R 89 -89 R D 11393 18284 M 8 -616 R
D 11358 17112 M 89 0 R -44 0 R 0 45 R 0 -89 R 0 44 R 44 45 R -89 -89 R
45 44 R -45 45 R 89 -89 R D 11401 17668 M 2 -556 R D 11386 16458 M 88 0 R
-44 0 R 0 44 R 0 -89 R 0 45 R 44 44 R -88 -89 R 44 45 R -44 44 R 88 -89 R D
11403 17112 M 27 -654 R D 11417 15861 M 88 0 R -44 0 R 0 44 R 0 -89 R 0 45 R
44 44 R -88 -89 R 44 45 R -44 44 R 88 -89 R D 11430 16458 M 31 -597 R D
11422 15288 M 89 0 R -45 0 R 0 44 R 0 -89 R 0 45 R 45 44 R -89 -89 R 44 45 R
-44 44 R 89 -89 R D 11461 15861 M 5 -573 R D 11412 14717 M 89 0 R -45 0 R
0 45 R 0 -89 R 0 44 R 45 45 R -89 -89 R 44 44 R -44 45 R 89 -89 R D
11466 15288 M -10 -571 R D 11438 14247 M 89 0 R -44 0 R 0 44 R 0 -88 R
0 44 R 44 44 R -89 -88 R 45 44 R -45 44 R 89 -88 R D 11456 14717 M 27 -470 R
D 11510 13606 M 89 0 R -44 0 R 0 44 R 0 -89 R 0 45 R 44 44 R -89 -89 R
45 45 R -45 44 R 89 -89 R D 11483 14247 M 72 -641 R D 11559 13052 M 88 0 R
-44 0 R 0 44 R 0 -88 R 0 44 R 44 44 R -88 -88 R 44 44 R -44 44 R 88 -88 R D
11555 13606 M 48 -554 R D 11685 12481 M 89 0 R -44 0 R 0 44 R 0 -89 R 0 45 R
44 44 R -89 -89 R 45 45 R -45 44 R 89 -89 R D 11603 13052 M 127 -571 R D
11728 11941 M 89 0 R -45 0 R 0 45 R 0 -89 R 0 44 R 45 45 R -89 -89 R 44 44 R
-44 45 R 89 -89 R D 11730 12481 M 42 -540 R D 11740 11452 M 89 0 R -45 0 R
0 44 R 0 -88 R 0 44 R 45 44 R -89 -88 R 44 44 R -44 44 R 89 -88 R D
11772 11941 M 12 -489 R D 11725 10833 M 89 0 R -45 0 R 0 44 R 0 -89 R 0 45 R
45 44 R -89 -89 R 44 45 R -44 44 R 89 -89 R D 11784 11452 M -15 -619 R D
11691 10328 M 89 0 R -45 0 R 0 44 R 0 -89 R 0 45 R 45 44 R -89 -89 R 44 45 R
-44 44 R 89 -89 R D 11769 10833 M -34 -505 R D 11681 9808 M 89 0 R -45 0 R
0 44 R 0 -89 R 0 45 R 45 44 R -89 -89 R 44 45 R -44 44 R 89 -89 R D
11735 10328 M -10 -520 R D 0.000 0.282 1.000 setrgbcolor 11142 25919 M
0 -43 R 0 43 R D 11141 25919 M -43 -43 R 43 43 R D 11143 25919 M 44 -43 R D
11098 24669 M 89 0 R -45 0 R 0 44 R 0 -89 R 0 45 R 45 44 R -89 -89 R 44 45 R
-44 44 R 89 -89 R D 11142 25919 M 0 -1250 R D 11067 24064 M 89 0 R -44 0 R
0 44 R 0 -89 R 0 45 R 44 44 R -89 -89 R 45 45 R -45 44 R 89 -89 R D
11142 24669 M -30 -605 R D 11071 23423 M 88 0 R -44 0 R 0 44 R 0 -89 R
0 45 R 44 44 R -88 -89 R 44 45 R -44 44 R 88 -89 R D 11112 24064 M 3 -641 R
D 11083 22846 M 89 0 R -45 0 R 0 44 R 0 -89 R 0 45 R 45 44 R -89 -89 R
44 45 R -44 44 R 89 -89 R D 11115 23423 M 12 -577 R D 11069 22201 M 89 0 R
-44 0 R 0 44 R 0 -89 R 0 45 R 44 44 R -89 -89 R 45 45 R -45 44 R 89 -89 R D
11127 22846 M -13 -645 R D 11089 21617 M 88 0 R -44 0 R 0 44 R 0 -88 R
0 44 R 44 44 R -88 -88 R 44 44 R -44 44 R 88 -88 R D 11114 22201 M 19 -584 R
D 11112 20961 M 88 0 R -44 0 R 0 44 R 0 -88 R 0 44 R 44 44 R -88 -88 R
44 44 R -44 44 R 88 -88 R D 11133 21617 M 23 -656 R D 11140 20368 M 89 0 R
-44 0 R 0 44 R 0 -89 R 0 45 R 44 44 R -89 -89 R 45 45 R -45 44 R 89 -89 R D
11156 20961 M 29 -593 R D 11141 19810 M 89 0 R -45 0 R 0 45 R 0 -89 R 0 44 R
45 45 R -89 -89 R 44 44 R -44 45 R 89 -89 R D 11185 20368 M 0 -558 R D
11180 19154 M 88 0 R -44 0 R 0 45 R 0 -89 R 0 44 R 44 45 R -88 -89 R 44 44 R
-44 45 R 88 -89 R D 11185 19810 M 39 -656 R D 11196 18553 M 89 0 R -44 0 R
0 44 R 0 -89 R 0 45 R 44 44 R -89 -89 R 45 45 R -45 44 R 89 -89 R D
11224 19154 M 17 -601 R D 11193 17971 M 89 0 R -44 0 R 0 45 R 0 -89 R 0 44 R
44 45 R -89 -89 R 45 44 R -45 45 R 89 -89 R D 11241 18553 M -3 -582 R D
11161 17387 M 89 0 R -45 0 R 0 45 R 0 -89 R 0 44 R 45 45 R -89 -89 R 44 44 R
-44 45 R 89 -89 R D 11238 17971 M -33 -584 R D 11075 16768 M 89 0 R -45 0 R
0 44 R 0 -89 R 0 45 R 45 44 R -89 -89 R 44 45 R -44 44 R 89 -89 R D
11205 17387 M -86 -619 R D 10936 16162 M 88 0 R -44 0 R 0 45 R 0 -89 R
0 44 R 44 45 R -88 -89 R 44 44 R -44 45 R 88 -89 R D 11119 16768 M
-139 -606 R D 10782 15527 M 89 0 R -45 0 R 0 44 R 0 -89 R 0 45 R 45 44 R
-89 -89 R 44 45 R -44 44 R 89 -89 R D 10980 16162 M -154 -635 R D
10620 15020 M 89 0 R -44 0 R 0 44 R 0 -89 R 0 45 R 44 44 R -89 -89 R 45 45 R
-45 44 R 89 -89 R D 10826 15527 M -161 -507 R D 10449 14467 M 88 0 R -44 0 R
0 45 R 0 -89 R 0 44 R 44 45 R -88 -89 R 44 44 R -44 45 R 88 -89 R D
10665 15020 M -172 -553 R D 10231 13826 M 89 0 R -44 0 R 0 44 R 0 -89 R
0 45 R 44 44 R -89 -89 R 45 45 R -45 44 R 89 -89 R D 10493 14467 M
-217 -641 R D 10022 13292 M 89 0 R -45 0 R 0 44 R 0 -89 R 0 45 R 45 44 R
-89 -89 R 44 45 R -44 44 R 89 -89 R D 10276 13826 M -210 -534 R D
9755 12700 M 89 0 R -44 0 R 0 45 R 0 -89 R 0 44 R 44 45 R -89 -89 R 45 44 R
-45 45 R 89 -89 R D 10066 13292 M -266 -592 R D 9574 12151 M 89 0 R -45 0 R
0 44 R 0 -88 R 0 44 R 45 44 R -89 -88 R 44 44 R -44 44 R 89 -88 R D
9800 12700 M -182 -549 R D 9411 11544 M 89 0 R -45 0 R 0 44 R 0 -88 R 0 44 R
45 44 R -89 -88 R 44 44 R -44 44 R 89 -88 R D 9618 12151 M -163 -607 R D
9251 10963 M 89 0 R -44 0 R 0 44 R 0 -89 R 0 45 R 44 44 R -89 -89 R 45 45 R
-45 44 R 89 -89 R D 9455 11544 M -159 -581 R D 9077 10428 M 88 0 R -44 0 R
0 44 R 0 -89 R 0 45 R 44 44 R -88 -89 R 44 45 R -44 44 R 88 -89 R D
9296 10963 M -175 -535 R D 8941 9831 M 89 0 R -44 0 R 0 45 R 0 -89 R 0 44 R
44 45 R -89 -89 R 45 44 R -45 45 R 89 -89 R D 9121 10428 M -135 -597 R D
8789 9226 M 89 0 R -45 0 R 0 44 R 0 -89 R 0 45 R 45 44 R -89 -89 R 44 45 R
-44 44 R 89 -89 R D 8986 9831 M -153 -605 R D 8604 8747 M 89 0 R -44 0 R
0 44 R 0 -88 R 0 44 R 44 44 R -89 -88 R 45 44 R -45 44 R 89 -88 R D
8833 9226 M -184 -479 R D 8392 8131 M 89 0 R -45 0 R 0 44 R 0 -89 R 0 45 R
45 44 R -89 -89 R 44 45 R -44 44 R 89 -89 R D 8649 8747 M -213 -616 R D
0.000 0.733 1.000 setrgbcolor 11142 25919 M 0 -43 R 0 43 R D 11141 25919 M
-43 -43 R 43 43 R D 11143 25919 M 44 -43 R D 11098 24506 M 89 0 R -45 0 R
0 45 R 0 -89 R 0 44 R 45 45 R -89 -89 R 44 44 R -44 45 R 89 -89 R D
11142 25919 M 0 -1413 R D 11083 23909 M 88 0 R -44 0 R 0 45 R 0 -89 R 0 44 R
44 45 R -88 -89 R 44 44 R -44 45 R 88 -89 R D 11142 24506 M -15 -597 R D
11070 23287 M 89 0 R -45 0 R 0 44 R 0 -89 R 0 45 R 45 44 R -89 -89 R 44 45 R
-44 44 R 89 -89 R D 11127 23909 M -13 -622 R D 11082 22737 M 89 0 R -44 0 R
0 45 R 0 -89 R 0 44 R 44 45 R -89 -89 R 45 44 R -45 45 R 89 -89 R D
11114 23287 M 13 -550 R D 11126 22121 M 88 0 R -44 0 R 0 44 R 0 -89 R 0 45 R
44 44 R -88 -89 R 44 45 R -44 44 R 88 -89 R D 11127 22737 M 43 -616 R D
11138 21508 M 88 0 R -44 0 R 0 44 R 0 -89 R 0 45 R 44 44 R -88 -89 R 44 45 R
-44 44 R 88 -89 R D 11170 22121 M 12 -613 R D 11128 20868 M 88 0 R -44 0 R
0 45 R 0 -89 R 0 44 R 44 45 R -88 -89 R 44 44 R -44 45 R 88 -89 R D
11182 21508 M -10 -640 R D 11108 20294 M 89 0 R -45 0 R 0 44 R 0 -89 R
0 45 R 45 44 R -89 -89 R 44 45 R -44 44 R 89 -89 R D 11172 20868 M
-20 -574 R D 11131 19663 M 88 0 R -44 0 R 0 44 R 0 -88 R 0 44 R 44 44 R
-88 -88 R 44 44 R -44 44 R 88 -88 R D 11152 20294 M 23 -631 R D
11155 19090 M 89 0 R -45 0 R 0 44 R 0 -89 R 0 45 R 45 44 R -89 -89 R 44 45 R
-44 44 R 89 -89 R D 11175 19663 M 24 -573 R D 11178 18461 M 89 0 R -44 0 R
0 44 R 0 -89 R 0 45 R 44 44 R -89 -89 R 45 45 R -45 44 R 89 -89 R D
11199 19090 M 24 -629 R D 11173 17856 M 89 0 R -45 0 R 0 44 R 0 -89 R 0 45 R
45 44 R -89 -89 R 44 45 R -44 44 R 89 -89 R D 11223 18461 M -6 -605 R D
11141 17205 M 89 0 R -45 0 R 0 44 R 0 -89 R 0 45 R 45 44 R -89 -89 R 44 45 R
-44 44 R 89 -89 R D 11217 17856 M -32 -651 R D 11115 16598 M 89 0 R -45 0 R
0 44 R 0 -89 R 0 45 R 45 44 R -89 -89 R 44 45 R -44 44 R 89 -89 R D
11185 17205 M -26 -607 R D 11049 16022 M 88 0 R -44 0 R 0 44 R 0 -89 R
0 45 R 44 44 R -88 -89 R 44 45 R -44 44 R 88 -89 R D 11159 16598 M
-66 -576 R D 10971 15435 M 89 0 R -44 0 R 0 44 R 0 -88 R 0 44 R 44 44 R
-89 -88 R 45 44 R -45 44 R 89 -88 R D 11093 16022 M -77 -587 R D
10891 14820 M 89 0 R -44 0 R 0 44 R 0 -89 R 0 45 R 44 44 R -89 -89 R 45 45 R
-45 44 R 89 -89 R D 11016 15435 M -80 -615 R D 10812 14258 M 89 0 R -45 0 R
0 45 R 0 -89 R 0 44 R 45 45 R -89 -89 R 44 44 R -44 45 R 89 -89 R D
10936 14820 M -80 -562 R D 10797 13658 M 89 0 R -45 0 R 0 45 R 0 -89 R
0 44 R 45 45 R -89 -89 R 44 44 R -44 45 R 89 -89 R D 10856 14258 M
-15 -600 R D 10796 13006 M 88 0 R -44 0 R 0 44 R 0 -88 R 0 44 R 44 44 R
-88 -88 R 44 44 R -44 44 R 88 -88 R D 10841 13658 M -1 -652 R D
10811 12397 M 89 0 R -44 0 R 0 44 R 0 -89 R 0 45 R 44 44 R -89 -89 R 45 45 R
-45 44 R 89 -89 R D 10840 13006 M 16 -609 R D 10865 11856 M 89 0 R -44 0 R
0 44 R 0 -89 R 0 45 R 44 44 R -89 -89 R 45 45 R -45 44 R 89 -89 R D
10856 12397 M 54 -541 R D 10920 11221 M 89 0 R -45 0 R 0 44 R 0 -89 R 0 45 R
45 44 R -89 -89 R 44 45 R -44 44 R 89 -89 R D 10910 11856 M 54 -635 R D
11005 10656 M 89 0 R -44 0 R 0 45 R 0 -89 R 0 44 R 44 45 R -89 -89 R 45 44 R
-45 45 R 89 -89 R D 10964 11221 M 86 -565 R D 11083 10066 M 89 0 R -45 0 R
0 44 R 0 -88 R 0 44 R 45 44 R -89 -88 R 44 44 R -44 44 R 89 -88 R D
11050 10656 M 77 -590 R D 11138 9482 M 89 0 R -44 0 R 0 44 R 0 -88 R 0 44 R
44 44 R -89 -88 R 45 44 R -45 44 R 89 -88 R D 11127 10066 M 56 -584 R D
0.000 1.000 0.796 setrgbcolor 11142 25919 M 0 -43 R 0 43 R D 11141 25919 M
-43 -43 R 43 43 R D 11143 25919 M 44 -43 R D 11098 24743 M 89 0 R -45 0 R
0 45 R 0 -89 R 0 44 R 45 45 R -89 -89 R 44 44 R -44 45 R 89 -89 R D
11142 25919 M 0 -1176 R D 11112 24055 M 89 0 R -44 0 R 0 45 R 0 -89 R 0 44 R
44 45 R -89 -89 R 45 44 R -45 45 R 89 -89 R D 11142 24743 M 15 -688 R D
11145 23496 M 89 0 R -44 0 R 0 45 R 0 -89 R 0 44 R 44 45 R -89 -89 R 45 44 R
-45 45 R 89 -89 R D 11157 24055 M 33 -559 R D 11205 22856 M 88 0 R -44 0 R
0 45 R 0 -89 R 0 44 R 44 45 R -88 -89 R 44 44 R -44 45 R 88 -89 R D
11190 23496 M 59 -640 R D 11244 22259 M 89 0 R -45 0 R 0 44 R 0 -89 R 0 45 R
45 44 R -89 -89 R 44 45 R -44 44 R 89 -89 R D 11249 22856 M 39 -597 R D
11268 21626 M 89 0 R -45 0 R 0 44 R 0 -89 R 0 45 R 45 44 R -89 -89 R 44 45 R
-44 44 R 89 -89 R D 11288 22259 M 24 -633 R D 11292 21063 M 89 0 R -45 0 R
0 45 R 0 -89 R 0 44 R 45 45 R -89 -89 R 44 44 R -44 45 R 89 -89 R D
11312 21626 M 24 -563 R D 11282 20385 M 89 0 R -45 0 R 0 45 R 0 -89 R 0 44 R
45 45 R -89 -89 R 44 44 R -44 45 R 89 -89 R D 11336 21063 M -10 -678 R D
11267 19849 M 89 0 R -45 0 R 0 44 R 0 -88 R 0 44 R 45 44 R -89 -88 R 44 44 R
-44 44 R 89 -88 R D 11326 20385 M -15 -536 R D 11206 19230 M 89 0 R -45 0 R
0 44 R 0 -89 R 0 45 R 45 44 R -89 -89 R 44 45 R -44 44 R 89 -89 R D
11311 19849 M -61 -619 R D 11180 18645 M 88 0 R -44 0 R 0 44 R 0 -89 R
0 45 R 44 44 R -88 -89 R 44 45 R -44 44 R 88 -89 R D 11250 19230 M
-26 -585 R D 11110 18032 M 89 0 R -45 0 R 0 44 R 0 -89 R 0 45 R 45 44 R
-89 -89 R 44 45 R -44 44 R 89 -89 R D 11224 18645 M -70 -613 R D
11065 17468 M 89 0 R -44 0 R 0 44 R 0 -89 R 0 45 R 44 44 R -89 -89 R 45 45 R
-45 44 R 89 -89 R D 11154 18032 M -44 -564 R D 11071 16850 M 89 0 R -44 0 R
0 44 R 0 -89 R 0 45 R 44 44 R -89 -89 R 45 45 R -45 44 R 89 -89 R D
11110 17468 M 6 -618 R D 11069 16345 M 89 0 R -44 0 R 0 44 R 0 -88 R 0 44 R
44 44 R -89 -88 R 45 44 R -45 44 R 89 -88 R D 11116 16850 M -2 -505 R D
11098 15676 M 89 0 R -44 0 R 0 45 R 0 -89 R 0 44 R 44 45 R -89 -89 R 45 44 R
-45 45 R 89 -89 R D 11114 16345 M 29 -669 R D 11084 15073 M 89 0 R -45 0 R
0 45 R 0 -89 R 0 44 R 45 45 R -89 -89 R 44 44 R -44 45 R 89 -89 R D
11143 15676 M -15 -603 R D 11085 14535 M 89 0 R -44 0 R 0 44 R 0 -89 R
0 45 R 44 44 R -89 -89 R 45 45 R -45 44 R 89 -89 R D 11128 15073 M 2 -538 R
D 11083 13923 M 88 0 R -44 0 R 0 44 R 0 -88 R 0 44 R 44 44 R -88 -88 R
44 44 R -44 44 R 88 -88 R D 11130 14535 M -3 -612 R D 11073 13400 M 89 0 R
-45 0 R 0 45 R 0 -89 R 0 44 R 45 45 R -89 -89 R 44 44 R -44 45 R 89 -89 R D
11127 13923 M -10 -523 R D 11138 12776 M 89 0 R -45 0 R 0 44 R 0 -88 R
0 44 R 45 44 R -89 -88 R 44 44 R -44 44 R 89 -88 R D 11117 13400 M 65 -624 R
D 11190 12255 M 89 0 R -45 0 R 0 44 R 0 -89 R 0 45 R 45 44 R -89 -89 R
44 45 R -44 44 R 89 -89 R D 11182 12776 M 52 -521 R D 11288 11644 M 88 0 R
-44 0 R 0 45 R 0 -89 R 0 44 R 44 45 R -88 -89 R 44 44 R -44 45 R 88 -89 R D
11234 12255 M 98 -611 R D 11324 11129 M 89 0 R -45 0 R 0 44 R 0 -89 R 0 45 R
45 44 R -89 -89 R 44 45 R -44 44 R 89 -89 R D 11332 11644 M 36 -515 R D
0.000 1.000 0.349 setrgbcolor 11142 25919 M 0 -43 R 0 43 R D 11141 25919 M
-43 -43 R 43 43 R D 11143 25919 M 44 -43 R D 11098 24544 M 89 0 R -45 0 R
0 45 R 0 -89 R 0 44 R 45 45 R -89 -89 R 44 44 R -44 45 R 89 -89 R D
11142 25919 M 0 -1375 R D 11084 23943 M 88 0 R -44 0 R 0 44 R 0 -89 R 0 45 R
44 44 R -88 -89 R 44 45 R -44 44 R 88 -89 R D 11142 24544 M -14 -601 R D
11035 23328 M 89 0 R -44 0 R 0 45 R 0 -89 R 0 44 R 44 45 R -89 -89 R 45 44 R
-45 45 R 89 -89 R D 11128 23943 M -48 -615 R D 11019 22737 M 89 0 R -45 0 R
0 44 R 0 -89 R 0 45 R 45 44 R -89 -89 R 44 45 R -44 44 R 89 -89 R D
11080 23328 M -17 -591 R D 10955 22076 M 88 0 R -44 0 R 0 45 R 0 -89 R
0 44 R 44 45 R -88 -89 R 44 44 R -44 45 R 88 -89 R D 11063 22737 M
-64 -661 R D 10892 21475 M 89 0 R -45 0 R 0 45 R 0 -89 R 0 44 R 45 45 R
-89 -89 R 44 44 R -44 45 R 89 -89 R D 10999 22076 M -63 -601 R D
10822 20925 M 89 0 R -44 0 R 0 45 R 0 -89 R 0 44 R 44 45 R -89 -89 R 45 44 R
-45 45 R 89 -89 R D 10936 21475 M -69 -550 R D 10751 20301 M 88 0 R -44 0 R
0 44 R 0 -89 R 0 45 R 44 44 R -88 -89 R 44 45 R -44 44 R 88 -89 R D
10867 20925 M -72 -624 R D 10724 19698 M 88 0 R -44 0 R 0 44 R 0 -88 R
0 44 R 44 44 R -88 -88 R 44 44 R -44 44 R 88 -88 R D 10795 20301 M
-27 -603 R D 10650 19036 M 89 0 R -45 0 R 0 44 R 0 -89 R 0 45 R 45 44 R
-89 -89 R 44 45 R -44 44 R 89 -89 R D 10768 19698 M -74 -662 R D
10588 18463 M 89 0 R -44 0 R 0 44 R 0 -89 R 0 45 R 44 44 R -89 -89 R 45 45 R
-45 44 R 89 -89 R D 10694 19036 M -61 -573 R D 10561 17858 M 89 0 R -45 0 R
0 45 R 0 -89 R 0 44 R 45 45 R -89 -89 R 44 44 R -44 45 R 89 -89 R D
10633 18463 M -28 -605 R D 10553 17298 M 89 0 R -45 0 R 0 44 R 0 -89 R
0 45 R 45 44 R -89 -89 R 44 45 R -44 44 R 89 -89 R D 10605 17858 M -8 -560 R
D 10492 16648 M 89 0 R -44 0 R 0 45 R 0 -89 R 0 44 R 44 45 R -89 -89 R
45 44 R -45 45 R 89 -89 R D 10597 17298 M -60 -650 R D 10424 16078 M 89 0 R
-45 0 R 0 45 R 0 -89 R 0 44 R 45 45 R -89 -89 R 44 44 R -44 45 R 89 -89 R D
10537 16648 M -69 -570 R D 10316 15470 M 89 0 R -44 0 R 0 45 R 0 -89 R
0 44 R 44 45 R -89 -89 R 45 44 R -45 45 R 89 -89 R D 10468 16078 M
-107 -608 R D 10238 14904 M 88 0 R -44 0 R 0 45 R 0 -89 R 0 44 R 44 45 R
-88 -89 R 44 44 R -44 45 R 88 -89 R D 10361 15470 M -79 -566 R D
10168 14330 M 88 0 R -44 0 R 0 45 R 0 -89 R 0 44 R 44 45 R -88 -89 R 44 44 R
-44 45 R 88 -89 R D 10282 14904 M -70 -574 R D 10076 13820 M 89 0 R -44 0 R
0 44 R 0 -89 R 0 45 R 44 44 R -89 -89 R 45 45 R -45 44 R 89 -89 R D
10212 14330 M -91 -510 R D 9956 13299 M 89 0 R -44 0 R 0 44 R 0 -89 R 0 45 R
44 44 R -89 -89 R 45 45 R -45 44 R 89 -89 R D 10121 13820 M -120 -521 R D
9767 12710 M 89 0 R -44 0 R 0 44 R 0 -89 R 0 45 R 44 44 R -89 -89 R 45 45 R
-45 44 R 89 -89 R D 10001 13299 M -189 -589 R D 9602 12186 M 89 0 R -44 0 R
0 44 R 0 -88 R 0 44 R 44 44 R -89 -88 R 45 44 R -45 44 R 89 -88 R D
9812 12710 M -165 -524 R D 9397 11691 M 89 0 R -44 0 R 0 44 R 0 -89 R 0 45 R
44 44 R -89 -89 R 45 45 R -45 44 R 89 -89 R D 9647 12186 M -205 -495 R D
9119 11172 M 89 0 R -44 0 R 0 45 R 0 -89 R 0 44 R 44 45 R -89 -89 R 45 44 R
-45 45 R 89 -89 R D 9442 11691 M -278 -519 R D 8827 10686 M 89 0 R -44 0 R
0 45 R 0 -89 R 0 44 R 44 45 R -89 -89 R 45 44 R -45 45 R 89 -89 R D
9164 11172 M -292 -486 R D 8599 10346 M 89 0 R -44 0 R 0 44 R 0 -88 R 0 44 R
44 44 R -89 -88 R 45 44 R -45 44 R 89 -88 R D 8872 10686 M -228 -340 R D
8304 9812 M 89 0 R -44 0 R 0 44 R 0 -89 R 0 45 R 44 44 R -89 -89 R 45 45 R
-45 44 R 89 -89 R D 8644 10346 M -295 -534 R D 0.082 1.000 0.000 setrgbcolor
11142 25919 M 0 -43 R 0 43 R D 11141 25919 M -43 -43 R 43 43 R D
11143 25919 M 44 -43 R D 11098 24843 M 89 0 R -45 0 R 0 45 R 0 -89 R 0 44 R
45 45 R -89 -89 R 44 44 R -44 45 R 89 -89 R D 11142 25919 M 0 -1076 R D
11100 24210 M 89 0 R -45 0 R 0 45 R 0 -89 R 0 44 R 45 45 R -89 -89 R 44 44 R
-44 45 R 89 -89 R D 11142 24843 M 2 -633 R D 11134 23633 M 88 0 R -44 0 R
0 44 R 0 -89 R 0 45 R 44 44 R -88 -89 R 44 45 R -44 44 R 88 -89 R D
11144 24210 M 34 -577 R D 11206 23010 M 89 0 R -45 0 R 0 44 R 0 -89 R 0 45 R
45 44 R -89 -89 R 44 45 R -44 44 R 89 -89 R D 11178 23633 M 72 -623 R D
11243 22412 M 89 0 R -45 0 R 0 45 R 0 -89 R 0 44 R 45 45 R -89 -89 R 44 44 R
-44 45 R 89 -89 R D 11250 23010 M 37 -598 R D 11247 21806 M 89 0 R -45 0 R
0 45 R 0 -89 R 0 44 R 45 45 R -89 -89 R 44 44 R -44 45 R 89 -89 R D
11287 22412 M 4 -606 R D 11273 21182 M 89 0 R -45 0 R 0 45 R 0 -89 R 0 44 R
45 45 R -89 -89 R 44 44 R -44 45 R 89 -89 R D 11291 21806 M 26 -624 R D
11248 20545 M 89 0 R -44 0 R 0 44 R 0 -88 R 0 44 R 44 44 R -89 -88 R 45 44 R
-45 44 R 89 -88 R D 11317 21182 M -24 -637 R D 11235 19949 M 89 0 R -45 0 R
0 45 R 0 -89 R 0 44 R 45 45 R -89 -89 R 44 44 R -44 45 R 89 -89 R D
11293 20545 M -14 -596 R D 11274 19318 M 88 0 R -44 0 R 0 45 R 0 -89 R
0 44 R 44 45 R -88 -89 R 44 44 R -44 45 R 88 -89 R D 11279 19949 M 39 -631 R
D 11325 18738 M 89 0 R -44 0 R 0 45 R 0 -89 R 0 44 R 44 45 R -89 -89 R
45 44 R -45 45 R 89 -89 R D 11318 19318 M 52 -580 R D 11388 18132 M 89 0 R
-45 0 R 0 44 R 0 -89 R 0 45 R 45 44 R -89 -89 R 44 45 R -44 44 R 89 -89 R D
11370 18738 M 62 -606 R D 11468 17489 M 89 0 R -44 0 R 0 44 R 0 -89 R 0 45 R
44 44 R -89 -89 R 45 45 R -45 44 R 89 -89 R D 11432 18132 M 81 -643 R D
11547 16876 M 89 0 R -44 0 R 0 44 R 0 -88 R 0 44 R 44 44 R -89 -88 R 45 44 R
-45 44 R 89 -88 R D 11513 17489 M 79 -613 R D 11638 16275 M 89 0 R -45 0 R
0 44 R 0 -89 R 0 45 R 45 44 R -89 -89 R 44 45 R -44 44 R 89 -89 R D
11592 16876 M 90 -601 R D 11713 15691 M 89 0 R -44 0 R 0 45 R 0 -89 R 0 44 R
44 45 R -89 -89 R 45 44 R -45 45 R 89 -89 R D 11682 16275 M 76 -584 R D
11797 15088 M 89 0 R -45 0 R 0 45 R 0 -89 R 0 44 R 45 45 R -89 -89 R 44 44 R
-44 45 R 89 -89 R D 11758 15691 M 83 -603 R D 11907 14521 M 89 0 R -45 0 R
0 44 R 0 -89 R 0 45 R 45 44 R -89 -89 R 44 45 R -44 44 R 89 -89 R D
11841 15088 M 110 -567 R D 12010 13961 M 89 0 R -44 0 R 0 45 R 0 -89 R
0 44 R 44 45 R -89 -89 R 45 44 R -45 45 R 89 -89 R D 11951 14521 M
104 -560 R D 12099 13412 M 88 0 R -44 0 R 0 45 R 0 -89 R 0 44 R 44 45 R
-88 -89 R 44 44 R -44 45 R 88 -89 R D 12055 13961 M 88 -549 R D
12257 12854 M 89 0 R -45 0 R 0 44 R 0 -89 R 0 45 R 45 44 R -89 -89 R 44 45 R
-44 44 R 89 -89 R D 12143 13412 M 158 -558 R D 12483 12302 M 88 0 R -44 0 R
0 44 R 0 -89 R 0 45 R 44 44 R -88 -89 R 44 45 R -44 44 R 88 -89 R D
12301 12854 M 226 -552 R D 12679 11818 M 89 0 R -45 0 R 0 44 R 0 -89 R
0 45 R 45 44 R -89 -89 R 44 45 R -44 44 R 89 -89 R D 12527 12302 M
196 -484 R D 12878 11283 M 89 0 R -44 0 R 0 44 R 0 -89 R 0 45 R 44 44 R
-89 -89 R 45 45 R -45 44 R 89 -89 R D 12723 11818 M 200 -535 R D
13057 10857 M 89 0 R -45 0 R 0 45 R 0 -89 R 0 44 R 45 45 R -89 -89 R 44 44 R
-44 45 R 89 -89 R D 12923 11283 M 178 -426 R D 13297 10293 M 89 0 R -45 0 R
0 45 R 0 -89 R 0 44 R 45 45 R -89 -89 R 44 44 R -44 45 R 89 -89 R D
13101 10857 M 240 -564 R D 13425 9824 M 89 0 R -44 0 R 0 44 R 0 -89 R 0 45 R
44 44 R -89 -89 R 45 45 R -45 44 R 89 -89 R D 13341 10293 M 129 -469 R D
13570 9401 M 88 0 R -44 0 R 0 45 R 0 -89 R 0 44 R 44 45 R -88 -89 R 44 44 R
-44 45 R 88 -89 R D 13470 9824 M 144 -423 R D 0.529 1.000 0.000 setrgbcolor
11142 25919 M 0 -43 R 0 43 R D 11141 25919 M -43 -43 R 43 43 R D
11143 25919 M 44 -43 R D 11098 24533 M 89 0 R -45 0 R 0 44 R 0 -89 R 0 45 R
45 44 R -89 -89 R 44 45 R -44 44 R 89 -89 R D 11142 25919 M 0 -1386 R D
11046 23860 M 88 0 R -44 0 R 0 44 R 0 -89 R 0 45 R 44 44 R -88 -89 R 44 45 R
-44 44 R 88 -89 R D 11142 24533 M -52 -673 R D 10985 23304 M 89 0 R -45 0 R
0 44 R 0 -88 R 0 44 R 45 44 R -89 -88 R 44 44 R -44 44 R 89 -88 R D
11090 23860 M -61 -556 R D 10888 22701 M 89 0 R -44 0 R 0 44 R 0 -89 R
0 45 R 44 44 R -89 -89 R 45 45 R -45 44 R 89 -89 R D 11029 23304 M
-96 -603 R D 10768 22128 M 89 0 R -45 0 R 0 45 R 0 -89 R 0 44 R 45 45 R
-89 -89 R 44 44 R -44 45 R 89 -89 R D 10933 22701 M -121 -573 R D
10595 21503 M 89 0 R -44 0 R 0 44 R 0 -89 R 0 45 R 44 44 R -89 -89 R 45 45 R
-45 44 R 89 -89 R D 10812 22128 M -172 -625 R D 10409 20971 M 89 0 R -44 0 R
0 44 R 0 -88 R 0 44 R 44 44 R -89 -88 R 45 44 R -45 44 R 89 -88 R D
10640 21503 M -186 -532 R D 10219 20329 M 88 0 R -44 0 R 0 44 R 0 -89 R
0 45 R 44 44 R -88 -89 R 44 45 R -44 44 R 88 -89 R D 10454 20971 M
-191 -642 R D 10072 19785 M 89 0 R -44 0 R 0 44 R 0 -89 R 0 45 R 44 44 R
-89 -89 R 45 45 R -45 44 R 89 -89 R D 10263 20329 M -146 -544 R D
9879 19173 M 89 0 R -45 0 R 0 44 R 0 -88 R 0 44 R 45 44 R -89 -88 R 44 44 R
-44 44 R 89 -88 R D 10117 19785 M -194 -612 R D 9718 18612 M 89 0 R -44 0 R
0 44 R 0 -89 R 0 45 R 44 44 R -89 -89 R 45 45 R -45 44 R 89 -89 R D
9923 19173 M -160 -561 R D 9523 18024 M 89 0 R -44 0 R 0 44 R 0 -88 R 0 44 R
44 44 R -89 -88 R 45 44 R -45 44 R 89 -88 R D 9763 18612 M -195 -588 R D
9300 17453 M 89 0 R -45 0 R 0 45 R 0 -89 R 0 44 R 45 45 R -89 -89 R 44 44 R
-44 45 R 89 -89 R D 9568 18024 M -224 -571 R D 9059 16883 M 89 0 R -44 0 R
0 44 R 0 -89 R 0 45 R 44 44 R -89 -89 R 45 45 R -45 44 R 89 -89 R D
9344 17453 M -240 -570 R D 8878 16357 M 89 0 R -44 0 R 0 45 R 0 -89 R 0 44 R
44 45 R -89 -89 R 45 44 R -45 45 R 89 -89 R D 9104 16883 M -181 -526 R D
8661 15789 M 89 0 R -44 0 R 0 45 R 0 -89 R 0 44 R 44 45 R -89 -89 R 45 44 R
-45 45 R 89 -89 R D 8923 16357 M -217 -568 R D 8514 15222 M 89 0 R -45 0 R
0 44 R 0 -89 R 0 45 R 45 44 R -89 -89 R 44 45 R -44 44 R 89 -89 R D
8706 15789 M -148 -567 R D 8339 14638 M 89 0 R -45 0 R 0 44 R 0 -89 R 0 45 R
45 44 R -89 -89 R 44 45 R -44 44 R 89 -89 R D 8558 15222 M -175 -584 R D
8153 14081 M 89 0 R -44 0 R 0 44 R 0 -89 R 0 45 R 44 44 R -89 -89 R 45 45 R
-45 44 R 89 -89 R D 8383 14638 M -185 -557 R D 7925 13526 M 89 0 R -44 0 R
0 45 R 0 -89 R 0 44 R 44 45 R -89 -89 R 45 44 R -45 45 R 89 -89 R D
8198 14081 M -228 -555 R D 7659 13003 M 89 0 R -44 0 R 0 45 R 0 -89 R 0 44 R
44 45 R -89 -89 R 45 44 R -45 45 R 89 -89 R D 7970 13526 M -266 -523 R D
7338 12498 M 89 0 R -45 0 R 0 44 R 0 -89 R 0 45 R 45 44 R -89 -89 R 44 45 R
-44 44 R 89 -89 R D 7704 13003 M -322 -505 R D 7017 12037 M 88 0 R -44 0 R
0 44 R 0 -88 R 0 44 R 44 44 R -88 -88 R 44 44 R -44 44 R 88 -88 R D
7382 12498 M -321 -461 R D 6673 11512 M 89 0 R -45 0 R 0 45 R 0 -89 R 0 44 R
45 45 R -89 -89 R 44 44 R -44 45 R 89 -89 R D 7061 12037 M -344 -525 R D
6433 11059 M 89 0 R -44 0 R 0 44 R 0 -88 R 0 44 R 44 44 R -89 -88 R 45 44 R
-45 44 R 89 -88 R D 6717 11512 M -239 -453 R D 6115 10535 M 89 0 R -45 0 R
0 44 R 0 -89 R 0 45 R 45 44 R -89 -89 R 44 45 R -44 44 R 89 -89 R D
6478 11059 M -319 -524 R D 5877 10039 M 89 0 R -44 0 R 0 44 R 0 -89 R 0 45 R
44 44 R -89 -89 R 45 45 R -45 44 R 89 -89 R D 6159 10535 M -237 -496 R D
0.980 1.000 0.000 setrgbcolor 11142 25919 M 0 -43 R 0 43 R D 11141 25919 M
-43 -43 R 43 43 R D 11143 25919 M 44 -43 R D 11098 24597 M 89 0 R -45 0 R
0 44 R 0 -88 R 0 44 R 45 44 R -89 -88 R 44 44 R -44 44 R 89 -88 R D
11142 25919 M 0 -1322 R D 11100 23963 M 88 0 R -44 0 R 0 44 R 0 -89 R 0 45 R
44 44 R -88 -89 R 44 45 R -44 44 R 88 -89 R D 11142 24597 M 2 -634 R D
11126 23367 M 88 0 R -44 0 R 0 45 R 0 -89 R 0 44 R 44 45 R -88 -89 R 44 44 R
-44 45 R 88 -89 R D 11144 23963 M 26 -596 R D 11144 22782 M 88 0 R -44 0 R
0 44 R 0 -89 R 0 45 R 44 44 R -88 -89 R 44 45 R -44 44 R 88 -89 R D
11170 23367 M 18 -585 R D 11135 22121 M 88 0 R -44 0 R 0 44 R 0 -88 R 0 44 R
44 44 R -88 -88 R 44 44 R -44 44 R 88 -88 R D 11188 22782 M -9 -661 R D
11119 21533 M 89 0 R -44 0 R 0 45 R 0 -89 R 0 44 R 44 45 R -89 -89 R 45 44 R
-45 45 R 89 -89 R D 11179 22121 M -15 -588 R D 11123 20917 M 89 0 R -45 0 R
0 45 R 0 -89 R 0 44 R 45 45 R -89 -89 R 44 44 R -44 45 R 89 -89 R D
11164 21533 M 3 -616 R D 11121 20307 M 89 0 R -45 0 R 0 44 R 0 -89 R 0 45 R
45 44 R -89 -89 R 44 45 R -44 44 R 89 -89 R D 11167 20917 M -2 -610 R D
11103 19705 M 88 0 R -44 0 R 0 45 R 0 -89 R 0 44 R 44 45 R -88 -89 R 44 44 R
-44 45 R 88 -89 R D 11165 20307 M -18 -602 R D 11109 19089 M 88 0 R -44 0 R
0 44 R 0 -88 R 0 44 R 44 44 R -88 -88 R 44 44 R -44 44 R 88 -88 R D
11147 19705 M 6 -616 R D 11120 18438 M 89 0 R -44 0 R 0 44 R 0 -89 R 0 45 R
44 44 R -89 -89 R 45 45 R -45 44 R 89 -89 R D 11153 19089 M 12 -651 R D
11126 17904 M 89 0 R -44 0 R 0 44 R 0 -88 R 0 44 R 44 44 R -89 -88 R 45 44 R
-45 44 R 89 -88 R D 11165 18438 M 6 -534 R D 11094 17296 M 89 0 R -44 0 R
0 44 R 0 -89 R 0 45 R 44 44 R -89 -89 R 45 45 R -45 44 R 89 -89 R D
11171 17904 M -32 -608 R D 11086 16620 M 89 0 R -45 0 R 0 44 R 0 -88 R
0 44 R 45 44 R -89 -88 R 44 44 R -44 44 R 89 -88 R D 11139 17296 M -9 -676 R
D 11056 16007 M 89 0 R -45 0 R 0 45 R 0 -89 R 0 44 R 45 45 R -89 -89 R
44 44 R -44 45 R 89 -89 R D 11130 16620 M -30 -613 R D 11044 15426 M 89 0 R
-45 0 R 0 44 R 0 -88 R 0 44 R 45 44 R -89 -88 R 44 44 R -44 44 R 89 -88 R D
11100 16007 M -12 -581 R D 11060 14847 M 89 0 R -45 0 R 0 44 R 0 -89 R
0 45 R 45 44 R -89 -89 R 44 45 R -44 44 R 89 -89 R D 11088 15426 M 16 -579 R
D 11102 14238 M 88 0 R -44 0 R 0 45 R 0 -89 R 0 44 R 44 45 R -88 -89 R
44 44 R -44 45 R 88 -89 R D 11104 14847 M 42 -609 R D 11141 13655 M 89 0 R
-44 0 R 0 44 R 0 -89 R 0 45 R 44 44 R -89 -89 R 45 45 R -45 44 R 89 -89 R D
11146 14238 M 40 -583 R D 11226 13015 M 89 0 R -45 0 R 0 44 R 0 -89 R 0 45 R
45 44 R -89 -89 R 44 45 R -44 44 R 89 -89 R D 11186 13655 M 84 -640 R D
11300 12464 M 89 0 R -44 0 R 0 44 R 0 -88 R 0 44 R 44 44 R -89 -88 R 45 44 R
-45 44 R 89 -88 R D 11270 13015 M 75 -551 R D 11377 11944 M 89 0 R -45 0 R
0 44 R 0 -89 R 0 45 R 45 44 R -89 -89 R 44 45 R -44 44 R 89 -89 R D
11345 12464 M 76 -520 R D 11448 11380 M 89 0 R -44 0 R 0 44 R 0 -89 R 0 45 R
44 44 R -89 -89 R 45 45 R -45 44 R 89 -89 R D 11421 11944 M 72 -564 R D
11476 10824 M 89 0 R -45 0 R 0 44 R 0 -88 R 0 44 R 45 44 R -89 -88 R 44 44 R
-44 44 R 89 -88 R D 11493 11380 M 27 -556 R D 11460 10275 M 89 0 R -45 0 R
0 45 R 0 -89 R 0 44 R 45 45 R -89 -89 R 44 44 R -44 45 R 89 -89 R D
11520 10824 M -16 -549 R D 11463 9733 M 88 0 R -44 0 R 0 44 R 0 -89 R 0 45 R
44 44 R -88 -89 R 44 45 R -44 44 R 88 -89 R D 11504 10275 M 3 -542 R D
11494 9237 M 89 0 R -45 0 R 0 44 R 0 -89 R 0 45 R 45 44 R -89 -89 R 44 45 R
-44 44 R 89 -89 R D 11507 9733 M 31 -496 R D 11508 8652 M 89 0 R -45 0 R
0 45 R 0 -89 R 0 44 R 45 45 R -89 -89 R 44 44 R -44 45 R 89 -89 R D
11538 9237 M 14 -585 R D 11579 8128 M 88 0 R -44 0 R 0 44 R 0 -89 R 0 45 R
44 44 R -88 -89 R 44 45 R -44 44 R 88 -89 R D 11552 8652 M 71 -524 R D
11617 7493 M 89 0 R -45 0 R 0 44 R 0 -45 R 0 1 R 45 44 R -45 -45 R D
11660 7492 M 1 1 R -44 44 R 45 -45 R D 11623 8128 M 38 -635 R D
1.000 0.580 0.000 setrgbcolor 11142 25919 M 0 -43 R 0 43 R D 11141 25919 M
-43 -43 R 43 43 R D 11143 25919 M 44 -43 R D 11098 25030 M 89 0 R -45 0 R
0 44 R 0 -88 R 0 44 R 45 44 R -89 -88 R 44 44 R -44 44 R 89 -88 R D
11142 25919 M 0 -889 R D 11081 24326 M 89 0 R -44 0 R 0 45 R 0 -89 R 0 44 R
44 45 R -89 -89 R 45 44 R -45 45 R 89 -89 R D 11142 25030 M -16 -704 R D
11094 23713 M 89 0 R -45 0 R 0 45 R 0 -89 R 0 44 R 45 45 R -89 -89 R 44 44 R
-44 45 R 89 -89 R D 11126 24326 M 12 -613 R D 11094 23146 M 89 0 R -44 0 R
0 45 R 0 -89 R 0 44 R 44 45 R -89 -89 R 45 44 R -45 45 R 89 -89 R D
11138 23713 M 1 -567 R D 11064 22483 M 89 0 R -45 0 R 0 44 R 0 -89 R 0 45 R
45 44 R -89 -89 R 44 45 R -44 44 R 89 -89 R D 11139 23146 M -31 -663 R D
11032 21952 M 89 0 R -45 0 R 0 45 R 0 -89 R 0 44 R 45 45 R -89 -89 R 44 44 R
-44 45 R 89 -89 R D 11108 22483 M -32 -531 R D 11001 21294 M 89 0 R -44 0 R
0 44 R 0 -89 R 0 45 R 44 44 R -89 -89 R 45 45 R -45 44 R 89 -89 R D
11076 21952 M -30 -658 R D 10988 20657 M 88 0 R -44 0 R 0 45 R 0 -89 R
0 44 R 44 45 R -88 -89 R 44 44 R -44 45 R 88 -89 R D 11046 21294 M
-14 -637 R D 10975 20099 M 89 0 R -45 0 R 0 45 R 0 -89 R 0 44 R 45 45 R
-89 -89 R 44 44 R -44 45 R 89 -89 R D 11032 20657 M -13 -558 R D
11008 19504 M 89 0 R -44 0 R 0 45 R 0 -89 R 0 44 R 44 45 R -89 -89 R 45 44 R
-45 45 R 89 -89 R D 11019 20099 M 34 -595 R D 11065 18859 M 89 0 R -44 0 R
0 45 R 0 -89 R 0 44 R 44 45 R -89 -89 R 45 44 R -45 45 R 89 -89 R D
11053 19504 M 57 -645 R D 11131 18348 M 89 0 R -45 0 R 0 45 R 0 -89 R 0 44 R
45 45 R -89 -89 R 44 44 R -44 45 R 89 -89 R D 11110 18859 M 65 -511 R D
11179 17673 M 89 0 R -45 0 R 0 44 R 0 -89 R 0 45 R 45 44 R -89 -89 R 44 45 R
-44 44 R 89 -89 R D 11175 18348 M 48 -675 R D 11199 17075 M 89 0 R -44 0 R
0 45 R 0 -89 R 0 44 R 44 45 R -89 -89 R 45 44 R -45 45 R 89 -89 R D
11223 17673 M 21 -598 R D 11245 16453 M 88 0 R -44 0 R 0 45 R 0 -89 R 0 44 R
44 45 R -88 -89 R 44 44 R -44 45 R 88 -89 R D 11244 17075 M 45 -622 R D
11304 15891 M 89 0 R -44 0 R 0 45 R 0 -89 R 0 44 R 44 45 R -89 -89 R 45 44 R
-45 45 R 89 -89 R D 11289 16453 M 60 -562 R D 11381 15294 M 89 0 R -44 0 R
0 44 R 0 -89 R 0 45 R 44 44 R -89 -89 R 45 45 R -45 44 R 89 -89 R D
11349 15891 M 77 -597 R D 11465 14818 M 89 0 R -45 0 R 0 45 R 0 -89 R 0 44 R
45 45 R -89 -89 R 44 44 R -44 45 R 89 -89 R D 11426 15294 M 83 -476 R D
11562 14131 M 89 0 R -45 0 R 0 45 R 0 -89 R 0 44 R 45 45 R -89 -89 R 44 44 R
-44 45 R 89 -89 R D 11509 14818 M 97 -687 R D 11597 13539 M 89 0 R -44 0 R
0 45 R 0 -89 R 0 44 R 44 45 R -89 -89 R 45 44 R -45 45 R 89 -89 R D
11606 14131 M 36 -592 R D 11643 12944 M 89 0 R -45 0 R 0 44 R 0 -89 R 0 45 R
45 44 R -89 -89 R 44 45 R -44 44 R 89 -89 R D 11642 13539 M 45 -595 R D
11678 12384 M 89 0 R -45 0 R 0 45 R 0 -89 R 0 44 R 45 45 R -89 -89 R 44 44 R
-44 45 R 89 -89 R D 11687 12944 M 35 -560 R D 11790 11756 M 89 0 R -45 0 R
0 45 R 0 -89 R 0 44 R 45 45 R -89 -89 R 44 44 R -44 45 R 89 -89 R D
11722 12384 M 112 -628 R D 11939 11218 M 88 0 R -44 0 R 0 45 R 0 -89 R
0 44 R 44 45 R -88 -89 R 44 44 R -44 45 R 88 -89 R D 11834 11756 M
149 -538 R D 12111 10687 M 89 0 R -45 0 R 0 45 R 0 -89 R 0 44 R 45 45 R
-89 -89 R 44 44 R -44 45 R 89 -89 R D 11983 11218 M 172 -531 R D
12331 10092 M 89 0 R -44 0 R 0 45 R 0 -89 R 0 44 R 44 45 R -89 -89 R 45 44 R
-45 45 R 89 -89 R D 12155 10687 M 221 -595 R D 12542 9531 M 89 0 R -44 0 R
0 44 R 0 -89 R 0 45 R 44 44 R -89 -89 R 45 45 R -45 44 R 89 -89 R D
12376 10092 M 211 -561 R D 1.000 0.133 0.000 setrgbcolor 11142 25919 M
0 -43 R 0 43 R D 11141 25919 M -43 -43 R 43 43 R D 11143 25919 M 44 -43 R D
11098 24474 M 89 0 R -45 0 R 0 44 R 0 -89 R 0 45 R 45 44 R -89 -89 R 44 45 R
-44 44 R 89 -89 R D 11142 25919 M 0 -1445 R D 11120 23792 M 89 0 R -44 0 R
0 45 R 0 -89 R 0 44 R 44 45 R -89 -89 R 45 44 R -45 45 R 89 -89 R D
11142 24474 M 23 -682 R D 11118 23201 M 89 0 R -44 0 R 0 44 R 0 -89 R 0 45 R
44 44 R -89 -89 R 45 45 R -45 44 R 89 -89 R D 11165 23792 M -2 -591 R D
11081 22584 M 88 0 R -44 0 R 0 44 R 0 -89 R 0 45 R 44 44 R -88 -89 R 44 45 R
-44 44 R 88 -89 R D 11163 23201 M -38 -617 R D 11032 21991 M 89 0 R -45 0 R
0 44 R 0 -89 R 0 45 R 45 44 R -89 -89 R 44 45 R -44 44 R 89 -89 R D
11125 22584 M -49 -593 R D 10985 21365 M 89 0 R -44 0 R 0 44 R 0 -89 R
0 45 R 44 44 R -89 -89 R 45 45 R -45 44 R 89 -89 R D 11076 21991 M
-46 -626 R D 10907 20739 M 89 0 R -45 0 R 0 44 R 0 -89 R 0 45 R 45 44 R
-89 -89 R 44 45 R -44 44 R 89 -89 R D 11030 21365 M -79 -626 R D
10797 20149 M 89 0 R -44 0 R 0 44 R 0 -88 R 0 44 R 44 44 R -89 -88 R 45 44 R
-45 44 R 89 -88 R D 10951 20739 M -109 -590 R D 10726 19554 M 88 0 R -44 0 R
0 45 R 0 -89 R 0 44 R 44 45 R -88 -89 R 44 44 R -44 45 R 88 -89 R D
10842 20149 M -72 -595 R D 10673 18939 M 89 0 R -44 0 R 0 45 R 0 -89 R
0 44 R 44 45 R -89 -89 R 45 44 R -45 45 R 89 -89 R D 10770 19554 M
-52 -615 R D 10671 18333 M 89 0 R -44 0 R 0 45 R 0 -89 R 0 44 R 44 45 R
-89 -89 R 45 44 R -45 45 R 89 -89 R D 10718 18939 M -2 -606 R D
10671 17866 M 89 0 R -44 0 R 0 44 R 0 -88 R 0 44 R 44 44 R -89 -88 R 45 44 R
-45 44 R 89 -88 R D 10716 18333 M 0 -467 R D 10662 17150 M 89 0 R -45 0 R
0 44 R 0 -89 R 0 45 R 45 44 R -89 -89 R 44 45 R -44 44 R 89 -89 R D
10716 17866 M -10 -716 R D 10638 16483 M 89 0 R -45 0 R 0 45 R 0 -89 R
0 44 R 45 45 R -89 -89 R 44 44 R -44 45 R 89 -89 R D 10706 17150 M
-24 -667 R D 10668 15899 M 89 0 R -45 0 R 0 44 R 0 -89 R 0 45 R 45 44 R
-89 -89 R 44 45 R -44 44 R 89 -89 R D 10682 16483 M 30 -584 R D
10679 15309 M 88 0 R -44 0 R 0 44 R 0 -89 R 0 45 R 44 44 R -88 -89 R 44 45 R
-44 44 R 88 -89 R D 10712 15899 M 11 -590 R D 10678 14708 M 89 0 R -44 0 R
0 45 R 0 -89 R 0 44 R 44 45 R -89 -89 R 45 44 R -45 45 R 89 -89 R D
10723 15309 M 0 -601 R D 10643 14067 M 89 0 R -45 0 R 0 45 R 0 -89 R 0 44 R
45 45 R -89 -89 R 44 44 R -44 45 R 89 -89 R D 10723 14708 M -36 -641 R D
10613 13521 M 89 0 R -45 0 R 0 44 R 0 -89 R 0 45 R 45 44 R -89 -89 R 44 45 R
-44 44 R 89 -89 R D 10687 14067 M -30 -546 R D 10512 12901 M 89 0 R -44 0 R
0 44 R 0 -89 R 0 45 R 44 44 R -89 -89 R 45 45 R -45 44 R 89 -89 R D
10657 13521 M -100 -620 R D 10467 12309 M 89 0 R -45 0 R 0 44 R 0 -88 R
0 44 R 45 44 R -89 -88 R 44 44 R -44 44 R 89 -88 R D 10557 12901 M
-46 -592 R D 10397 11798 M 88 0 R -44 0 R 0 44 R 0 -88 R 0 44 R 44 44 R
-88 -88 R 44 44 R -44 44 R 88 -88 R D 10511 12309 M -70 -511 R D
10306 11168 M 89 0 R -45 0 R 0 44 R 0 -89 R 0 45 R 45 44 R -89 -89 R 44 45 R
-44 44 R 89 -89 R D 10441 11798 M -91 -630 R D 10202 10634 M 88 0 R -44 0 R
0 45 R 0 -89 R 0 44 R 44 45 R -88 -89 R 44 44 R -44 45 R 88 -89 R D
10350 11168 M -104 -534 R D 10074 10004 M 89 0 R -44 0 R 0 45 R 0 -89 R
0 44 R 44 45 R -89 -89 R 45 44 R -45 45 R 89 -89 R D 10246 10634 M
-127 -630 R D 0.000 0.000 0.000 setrgbcolor 1865 1694 M 0 -344 R D
1882 1694 M 0 -344 R D 1816 1694 M 197 0 R 49 -17 R 16 -16 R 16 -33 R
0 -49 R -16 -33 R -16 -16 R -49 -16 R -131 0 R D 2013 1694 M 32 -17 R
17 -16 R 16 -33 R 0 -49 R -16 -33 R -17 -16 R -32 -16 R D 1816 1350 M
115 0 R D 2225 1694 M 0 -344 R D 2242 1694 M 0 -344 R D 2176 1694 M 197 0 R
49 -17 R 16 -16 R 16 -33 R 0 -33 R -16 -32 R -16 -17 R -49 -16 R -131 0 R D
2373 1694 M 32 -17 R 17 -16 R 16 -33 R 0 -33 R -16 -32 R -17 -17 R -32 -16 R
D 2176 1350 M 115 0 R D 2323 1530 M 33 -16 R 17 -17 R 49 -114 R 16 -17 R
16 0 R 17 17 R D 2356 1514 M 17 -33 R 32 -115 R 17 -16 R 32 0 R 17 33 R
0 16 R D 2667 1694 M -49 -17 R -33 -33 R -16 -32 R -17 -66 R 0 -49 R
17 -65 R 16 -33 R 33 -33 R 49 -16 R 33 0 R 49 16 R 32 33 R 17 33 R 16 65 R
0 49 R -16 66 R -17 32 R -32 33 R -49 17 R -33 0 R -33 -17 R -32 -33 R
-17 -32 R -16 -66 R 0 -49 R 16 -65 R 17 -33 R 32 -33 R 33 -16 R D
2700 1350 M 32 16 R 33 33 R 16 33 R 17 65 R 0 49 R -17 66 R -16 32 R
-33 33 R -32 17 R D 3027 1694 M 0 -279 R -17 -49 R -32 -16 R -33 0 R
-33 16 R -16 33 R 0 33 R 16 16 R 17 -16 R -17 -17 R D 3010 1694 M 0 -279 R
-16 -49 R -16 -16 R D 2961 1694 M 115 0 R D 3190 1694 M 0 -344 R D
3207 1694 M 0 -344 R D 3305 1595 M 0 -130 R D 3141 1694 M 262 0 R 0 -99 R
-16 99 R D 3207 1530 M 98 0 R D 3141 1350 M 262 0 R 0 98 R -16 -98 R D
3730 1644 M 17 -49 R 0 99 R -17 -50 R -32 33 R -50 17 R -32 0 R -49 -17 R
-33 -33 R -16 -32 R -17 -49 R 0 -82 R 17 -49 R 16 -33 R 33 -33 R 49 -16 R
32 0 R 50 16 R 32 33 R 17 33 R D 3616 1694 M -33 -17 R -33 -33 R -16 -32 R
-16 -49 R 0 -82 R 16 -49 R 16 -33 R 33 -33 R 33 -16 R D 3943 1694 M 0 -344 R
D 3959 1694 M 0 -344 R D 3845 1694 M -17 -99 R 0 99 R 246 0 R 0 -99 R
-17 99 R D 3894 1350 M 114 0 R D 4188 1694 M 0 -344 R D 4205 1694 M 0 -344 R
D 4139 1694 M 115 0 R D 4139 1350 M 115 0 R D 4450 1694 M -49 -17 R
-33 -33 R -16 -32 R -17 -66 R 0 -49 R 17 -65 R 16 -33 R 33 -33 R 49 -16 R
33 0 R 49 16 R 32 33 R 17 33 R 16 65 R 0 49 R -16 66 R -17 32 R -32 33 R
-49 17 R -33 0 R -33 -17 R -32 -33 R -17 -32 R -16 -66 R 0 -49 R 16 -65 R
17 -33 R 32 -33 R 33 -16 R D 4483 1350 M 32 16 R 33 33 R 16 33 R 17 65 R
0 49 R -17 66 R -16 32 R -33 33 R -32 17 R D 4728 1694 M 0 -344 R D
4744 1694 M 197 -311 R D 4744 1661 M 197 -311 R 0 344 R D 4679 1694 M 65 0 R
D 4892 1694 M 98 0 R D 4679 1350 M 98 0 R D 5448 1694 M -49 -17 R -33 -33 R
-16 -32 R -17 -66 R 0 -49 R 17 -65 R 16 -33 R 33 -33 R 49 -16 R 33 0 R
49 16 R 32 33 R 17 33 R 16 65 R 0 49 R -16 66 R -17 32 R -32 33 R -49 17 R
-33 0 R -33 -17 R -33 -33 R -16 -32 R -16 -66 R 0 -49 R 16 -65 R 16 -33 R
33 -33 R 33 -16 R D 5481 1350 M 32 16 R 33 33 R 16 33 R 17 65 R 0 49 R
-17 66 R -16 32 R -33 33 R -32 17 R D 5726 1694 M 0 -344 R D 5742 1694 M
0 -344 R D 5840 1595 M 0 -130 R D 5677 1694 M 262 0 R 0 -99 R -17 99 R D
5742 1530 M 98 0 R D 5677 1350 M 114 0 R D 6380 1694 M 0 -344 R D
6397 1694 M 0 -344 R D 6282 1694 M -16 -99 R 0 99 R 245 0 R 0 -99 R -16 99 R
D 6331 1350 M 115 0 R D 6626 1694 M 0 -344 R D 6642 1694 M 0 -344 R D
6577 1694 M 196 0 R 49 -17 R 16 -16 R 17 -33 R 0 -33 R -17 -32 R -16 -17 R
-49 -16 R -131 0 R D 6773 1694 M 33 -17 R 16 -16 R 16 -33 R 0 -33 R
-16 -32 R -16 -17 R -33 -16 R D 6577 1350 M 114 0 R D 6724 1530 M 32 -16 R
17 -17 R 49 -114 R 16 -17 R 17 0 R 16 17 R D 6756 1514 M 17 -33 R 33 -115 R
16 -16 R 33 0 R 16 33 R 0 16 R D 7067 1694 M -114 -344 R D 7067 1694 M
115 -344 R D 7067 1644 M 98 -294 R D 6985 1448 M 148 0 R D 6920 1350 M
98 0 R D 7116 1350 M 98 0 R D 7394 1694 M 0 -279 R -16 -49 R -33 -16 R
-32 0 R -33 16 R -16 33 R 0 33 R 16 16 R 16 -16 R -16 -17 R D 7378 1694 M
0 -279 R -16 -49 R -17 -16 R D 7329 1694 M 114 0 R D 7558 1694 M 0 -344 R D
7574 1694 M 0 -344 R D 7672 1595 M 0 -130 R D 7509 1694 M 262 0 R 0 -99 R
-17 99 R D 7574 1530 M 98 0 R D 7509 1350 M 262 0 R 0 98 R -17 -98 R D
8098 1644 M 16 -49 R 0 99 R -16 -50 R -33 33 R -49 17 R -33 0 R -49 -17 R
-33 -33 R -16 -32 R -16 -49 R 0 -82 R 16 -49 R 16 -33 R 33 -33 R 49 -16 R
33 0 R 49 16 R 33 33 R 16 33 R D 7983 1694 M -32 -17 R -33 -33 R -17 -32 R
-16 -49 R 0 -82 R 16 -49 R 17 -33 R 33 -33 R 32 -16 R D 8310 1694 M 0 -344 R
D 8327 1694 M 0 -344 R D 8212 1694 M -16 -99 R 0 99 R 245 0 R 0 -99 R
-16 99 R D 8261 1350 M 115 0 R D 8638 1694 M -49 -17 R -33 -33 R -17 -32 R
-16 -66 R 0 -49 R 16 -65 R 17 -33 R 33 -33 R 49 -16 R 32 0 R 49 16 R 33 33 R
16 33 R 17 65 R 0 49 R -17 66 R -16 32 R -33 33 R -49 17 R -32 0 R -33 -17 R
-33 -33 R -16 -32 R -17 -66 R 0 -49 R 17 -65 R 16 -33 R 33 -33 R 33 -16 R D
8670 1350 M 33 16 R 33 33 R 16 33 R 16 65 R 0 49 R -16 66 R -16 32 R
-33 33 R -33 17 R D 8916 1694 M 0 -344 R D 8932 1694 M 0 -344 R D
8867 1694 M 196 0 R 49 -17 R 16 -16 R 17 -33 R 0 -33 R -17 -32 R -16 -17 R
-49 -16 R -131 0 R D 9063 1694 M 33 -17 R 16 -16 R 16 -33 R 0 -33 R
-16 -32 R -16 -17 R -33 -16 R D 8867 1350 M 114 0 R D 9014 1530 M 33 -16 R
16 -17 R 49 -114 R 16 -17 R 17 0 R 16 17 R D 9047 1514 M 16 -33 R 33 -115 R
16 -16 R 33 0 R 16 33 R 0 16 R D 9276 1694 M 0 -344 R D 9292 1694 M 0 -344 R
D 9226 1694 M 115 0 R D 9226 1350 M 115 0 R D 9455 1694 M 0 -344 R D
9472 1694 M 0 -344 R D 9570 1595 M 0 -130 R D 9406 1694 M 262 0 R 0 -99 R
-16 99 R D 9472 1530 M 98 0 R D 9406 1350 M 262 0 R 0 98 R -16 -98 R D
9979 1644 M 16 50 R 0 -99 R -16 49 R -33 33 R -49 17 R -49 0 R -49 -17 R
-33 -33 R 0 -32 R 17 -33 R 16 -16 R 33 -17 R 98 -32 R 33 -17 R 32 -32 R D
9766 1612 M 33 -33 R 33 -16 R 98 -33 R 33 -16 R 16 -17 R 16 -32 R 0 -66 R
-32 -33 R -49 -16 R -50 0 R -49 16 R -32 33 R -17 49 R 0 -98 R 17 49 R D
10928 1628 M 32 16 R 49 50 R 0 -344 R D 10993 1677 M 0 -327 R D 10928 1350 M
147 0 R D 11304 1694 M -49 -17 R -33 -49 R -16 -82 R 0 -49 R 16 -82 R
33 -49 R 49 -16 R 33 0 R 49 16 R 32 49 R 17 82 R 0 49 R -17 82 R -32 49 R
-49 17 R -33 0 R -33 -17 R -16 -16 R -16 -33 R -17 -82 R 0 -49 R 17 -82 R
16 -32 R 16 -17 R 33 -16 R D 11337 1350 M 32 16 R 17 17 R 16 32 R 16 82 R
0 49 R -16 82 R -16 33 R -17 16 R -32 17 R D 11631 1694 M -49 -17 R
-33 -49 R -16 -82 R 0 -49 R 16 -82 R 33 -49 R 49 -16 R 33 0 R 49 16 R
33 49 R 16 82 R 0 49 R -16 82 R -33 49 R -49 17 R -33 0 R -33 -17 R
-16 -16 R -16 -33 R -17 -82 R 0 -49 R 17 -82 R 16 -32 R 16 -17 R 33 -16 R D
11664 1350 M 33 16 R 16 17 R 16 32 R 17 82 R 0 49 R -17 82 R -16 33 R
-16 16 R -33 17 R D 11958 1694 M -49 -17 R -33 -49 R -16 -82 R 0 -49 R
16 -82 R 33 -49 R 49 -16 R 33 0 R 49 16 R 33 49 R 16 82 R 0 49 R -16 82 R
-33 49 R -49 17 R -33 0 R -32 -17 R -17 -16 R -16 -33 R -17 -82 R 0 -49 R
17 -82 R 16 -32 R 17 -17 R 32 -16 R D 11991 1350 M 33 16 R 16 17 R 16 32 R
17 82 R 0 49 R -17 82 R -16 33 R -16 16 R -33 17 R D 12465 1481 M 197 0 R
0 33 R -17 32 R -16 17 R -33 16 R -49 0 R -49 -16 R -33 -33 R -16 -49 R
0 -33 R 16 -49 R 33 -33 R 49 -16 R 33 0 R 49 16 R 33 33 R D 12645 1481 M
0 49 R -16 33 R D 12547 1579 M -33 -16 R -32 -33 R -17 -49 R 0 -33 R
17 -49 R 32 -33 R 33 -16 R D 12760 1694 M 114 -344 R D 12776 1694 M
98 -295 R D 12989 1694 M -115 -344 R D 12727 1694 M 98 0 R D 12923 1694 M
99 0 R D 13365 1694 M 65 -344 R D 13381 1694 M 49 -262 R D 13496 1694 M
-66 -344 R D 13496 1694 M 65 -344 R D 13512 1694 M 49 -262 R D 13627 1694 M
-66 -344 R D 13316 1694 M 114 0 R D 13578 1694 M 98 0 R D 14019 1497 M
295 0 R D 14445 1644 M 261 -147 R -261 -147 R D 15312 1644 M 16 -49 R 0 99 R
-16 -50 R -33 33 R -49 17 R -33 0 R -49 -17 R -33 -33 R -16 -32 R -16 -49 R
0 -82 R 16 -49 R 16 -33 R 33 -33 R 49 -16 R 33 0 R 49 16 R 33 33 R 16 33 R D
15197 1694 M -33 -17 R -32 -33 R -17 -32 R -16 -49 R 0 -82 R 16 -49 R
17 -33 R 32 -33 R 33 -16 R D 1856 834 M 0 -294 R D 1870 834 M 0 -294 R D
1814 834 M 168 0 R 42 -14 R 14 -14 R 14 -28 R 0 -42 R -14 -28 R -14 -14 R
-42 -14 R -112 0 R D 1982 834 M 28 -14 R 14 -14 R 14 -28 R 0 -42 R -14 -28 R
-14 -14 R -28 -14 R D 1814 540 M 98 0 R D 2165 834 M 0 -294 R D 2179 834 M
0 -294 R D 2122 834 M 169 0 R 42 -14 R 14 -14 R 14 -28 R 0 -28 R -14 -28 R
-14 -14 R -42 -14 R -112 0 R D 2291 834 M 28 -14 R 14 -14 R 14 -28 R 0 -28 R
-14 -28 R -14 -14 R -28 -14 R D 2122 540 M 99 0 R D 2249 694 M 28 -14 R
14 -14 R 42 -98 R 14 -14 R 14 0 R 14 14 R D 2277 680 M 14 -28 R 28 -98 R
14 -14 R 28 0 R 14 28 R 0 14 R D 2543 834 M -42 -14 R -28 -28 R -14 -28 R
-14 -56 R 0 -42 R 14 -56 R 14 -28 R 28 -28 R 42 -14 R 28 0 R 42 14 R 28 28 R
14 28 R 14 56 R 0 42 R -14 56 R -14 28 R -28 28 R -42 14 R -28 0 R -28 -14 R
-28 -28 R -14 -28 R -14 -56 R 0 -42 R 14 -56 R 14 -28 R 28 -28 R 28 -14 R D
2571 540 M 28 14 R 28 28 R 14 28 R 14 56 R 0 42 R -14 56 R -14 28 R -28 28 R
-28 14 R D 2852 834 M 0 -238 R -14 -42 R -28 -14 R -29 0 R -28 14 R -14 28 R
0 28 R 14 14 R 14 -14 R -14 -14 R D 2838 834 M 0 -238 R -14 -42 R -14 -14 R
D 2795 834 M 99 0 R D 2992 834 M 0 -294 R D 3006 834 M 0 -294 R D 3090 750 M
0 -112 R D 2950 834 M 224 0 R 0 -84 R -14 84 R D 3006 694 M 84 0 R D
2950 540 M 224 0 R 0 84 R -14 -84 R D 3454 792 M 15 -42 R 0 84 R -15 -42 R
-28 28 R -42 14 R -28 0 R -42 -14 R -28 -28 R -14 -28 R -14 -42 R 0 -70 R
14 -42 R 14 -28 R 28 -28 R 42 -14 R 28 0 R 42 14 R 28 28 R 15 28 R D
3356 834 M -28 -14 R -28 -28 R -14 -28 R -14 -42 R 0 -70 R 14 -42 R 14 -28 R
28 -28 R 28 -14 R D 3637 834 M 0 -294 R D 3651 834 M 0 -294 R D 3553 834 M
-14 -84 R 0 84 R 210 0 R 0 -84 R -14 84 R D 3595 540 M 98 0 R D 3847 834 M
0 -294 R D 3861 834 M 0 -294 R D 3805 834 M 98 0 R D 3805 540 M 98 0 R D
4001 834 M 0 -294 R D 4015 834 M 0 -294 R D 3959 834 M 98 0 R D 3959 540 M
211 0 R 0 84 R -14 -84 R D 4254 834 M 0 -294 R D 4268 834 M 0 -294 R D
4352 750 M 0 -112 R D 4212 834 M 224 0 R 0 -84 R -14 84 R D 4268 694 M
84 0 R D 4212 540 M 224 0 R 0 84 R -14 -84 R D 4702 792 M 14 42 R 0 -84 R
-14 42 R -28 28 R -42 14 R -42 0 R -42 -14 R -28 -28 R 0 -28 R 14 -28 R
14 -14 R 28 -14 R 84 -28 R 28 -14 R 28 -28 R D 4520 764 M 28 -28 R 28 -14 R
84 -28 R 28 -14 R 14 -14 R 14 -28 R 0 -56 R -28 -28 R -42 -14 R -42 0 R
-42 14 R -28 28 R -14 42 R 0 -84 R 14 42 R D 11840 168 M 10 28 R 0 -56 R
-10 28 R -18 19 R -29 9 R -28 0 R -28 -9 R -18 -19 R 0 -18 R 9 -19 R 9 -9 R
19 -10 R 56 -19 R 19 -9 R 19 -19 R D 11719 150 M 18 -19 R 19 -9 R 56 -19 R
19 -10 R 9 -9 R 10 -19 R 0 -37 R -19 -19 R -28 -9 R -28 0 R -28 9 R -19 19 R
-9 28 R 0 -56 R 9 28 R D 11924 196 M 0 -196 R D 11934 196 M 0 -196 R D
11896 196 M 94 0 R 28 -9 R 19 -19 R 9 -18 R 9 -28 R 0 -47 R -9 -28 R
-9 -19 R -19 -19 R -28 -9 R -94 0 R D 11990 196 M 18 -9 R 19 -19 R 10 -18 R
9 -28 R 0 -47 R -9 -28 R -10 -19 R -19 -19 R -18 -9 R D 12167 196 M 0 -196 R
D 12177 196 M 0 -196 R D 12111 196 M -9 -56 R 0 56 R 140 0 R 0 -56 R -9 56 R
D 12139 0 M 66 0 R D 12308 131 M 0 -131 R D 12317 131 M 0 -131 R D
12317 75 M 9 28 R 19 19 R 19 9 R 28 0 R 9 -9 R 0 -10 R -9 -9 R -10 9 R
10 10 R D 12280 131 M 37 0 R D 12280 0 M 65 0 R D 12466 196 M -9 -9 R 9 -9 R
10 9 R -10 9 R D 12466 131 M 0 -131 R D 12476 131 M 0 -131 R D 12438 131 M
38 0 R D 12438 0 M 66 0 R D 12569 131 M 0 -131 R D 12579 131 M 0 -131 R D
12579 103 M 18 19 R 28 9 R 19 0 R 28 -9 R 9 -19 R 0 -103 R D 12644 131 M
19 -9 R 9 -19 R 0 -103 R D 12681 103 M 19 19 R 28 9 R 19 0 R 28 -9 R 9 -19 R
0 -103 R D 12747 131 M 19 -9 R 9 -19 R 0 -103 R D 12541 131 M 38 0 R D
12541 0 M 66 0 R D 12644 0 M 66 0 R D 12747 0 M 65 0 R D 12981 168 M 9 28 R
0 -56 R -9 28 R -19 19 R -28 9 R -28 0 R -28 -9 R -19 -19 R 0 -18 R 9 -19 R
10 -9 R 18 -10 R 57 -19 R 18 -9 R 19 -19 R D 12859 150 M 19 -19 R 18 -9 R
57 -19 R 18 -10 R 10 -9 R 9 -19 R 0 -37 R -19 -19 R -28 -9 R -28 0 R -28 9 R
-19 19 R -9 28 R 0 -56 R 9 28 R D 13065 196 M 0 -196 R D 13074 196 M
0 -196 R D 13037 196 M 112 0 R 28 -9 R 9 -9 R 10 -19 R 0 -28 R -10 -19 R
-9 -9 R -28 -10 R -75 0 R D 13149 196 M 19 -9 R 9 -9 R 9 -19 R 0 -28 R
-9 -19 R -9 -9 R -19 -10 R D 13037 0 M 65 0 R D 13270 131 M -9 -9 R 9 -10 R
10 10 R -10 9 R D 13270 19 M -9 -10 R 9 -9 R 10 9 R -10 10 R D 13495 196 M
65 -196 R D 13504 196 M 56 -168 R D 13626 196 M -66 -196 R D 13476 196 M
56 0 R D 13588 196 M 56 0 R D 13700 196 M 0 -196 R D 13710 196 M 0 -196 R D
13766 140 M 0 -75 R D 13672 196 M 150 0 R 0 -56 R -9 56 R D 13710 103 M
56 0 R D 13672 0 M 150 0 R 0 56 R -9 -56 R D 13897 196 M 0 -196 R D
13906 196 M 0 -196 R D 13869 196 M 112 0 R 28 -9 R 9 -9 R 9 -19 R 0 -19 R
-9 -18 R -9 -10 R -28 -9 R -75 0 R D 13981 196 M 18 -9 R 10 -9 R 9 -19 R
0 -19 R -9 -18 R -10 -10 R -18 -9 R D 13869 0 M 65 0 R D 13953 103 M
18 -10 R 10 -9 R 28 -65 R 9 -10 R 9 0 R 10 10 R D 13971 93 M 10 -18 R
18 -66 R 10 -9 R 18 0 R 10 19 R 0 9 R D 14205 168 M 9 28 R 0 -56 R -9 28 R
-19 19 R -28 9 R -28 0 R -28 -9 R -18 -19 R 0 -18 R 9 -19 R 9 -9 R 19 -10 R
56 -19 R 19 -9 R 18 -19 R D 14084 150 M 18 -19 R 19 -9 R 56 -19 R 19 -10 R
9 -9 R 9 -19 R 0 -37 R -18 -19 R -28 -9 R -28 0 R -28 9 R -19 19 R -9 28 R
0 -56 R 9 28 R D 14289 196 M 0 -196 R D 14299 196 M 0 -196 R D 14261 196 M
66 0 R D 14261 0 M 66 0 R D 14439 196 M -28 -9 R -19 -19 R -9 -18 R
-10 -38 R 0 -28 R 10 -37 R 9 -19 R 19 -19 R 28 -9 R 18 0 R 29 9 R 18 19 R
10 19 R 9 37 R 0 28 R -9 38 R -10 18 R -18 19 R -29 9 R -18 0 R -19 -9 R
-19 -19 R -9 -18 R -9 -38 R 0 -28 R 9 -37 R 9 -19 R 19 -19 R 19 -9 R D
14457 0 M 19 9 R 19 19 R 9 19 R 10 37 R 0 28 R -10 38 R -9 18 R -19 19 R
-19 9 R D 14598 196 M 0 -196 R D 14607 196 M 112 -177 R D 14607 178 M
112 -178 R 0 196 R D 14570 196 M 37 0 R D 14691 196 M 56 0 R D 14570 0 M
56 0 R D 15028 178 M 0 -178 R D 15037 196 M 0 -196 R D 15037 196 M
-103 -140 R 150 0 R D 15000 0 M 65 0 R D 15149 19 M -9 -10 R 9 -9 R 10 9 R
-10 10 R D 15252 159 M 19 9 R 28 28 R 0 -196 R D 15289 187 M 0 -187 R D
15252 0 M 84 0 R D 15495 178 M 0 -178 R D 15504 196 M 0 -196 R D 15504 196 M
-102 -140 R 149 0 R D 15467 0 M 65 0 R D 16205 159 M 10 -9 R -10 -10 R
-9 10 R 0 9 R 9 19 R 10 9 R 28 9 R 37 0 R 28 -9 R 10 -9 R 9 -19 R 0 -19 R
-9 -18 R -28 -19 R -47 -19 R -19 -9 R -19 -19 R -9 -28 R 0 -28 R D
16280 196 M 19 -9 R 9 -9 R 10 -19 R 0 -19 R -10 -18 R -28 -19 R -37 -19 R D
16196 19 M 9 9 R 19 0 R 47 -19 R 28 0 R 19 10 R 9 9 R D 16224 28 M 47 -28 R
37 0 R 10 9 R 9 19 R 0 19 R D 16467 178 M 0 -178 R D 16477 196 M 0 -196 R D
16477 196 M -103 -140 R 149 0 R D 16439 0 M 66 0 R D 16589 19 M -10 -10 R
10 -9 R 9 9 R -9 10 R D 16720 196 M -29 -9 R -18 -28 R -10 -47 R 0 -28 R
10 -47 R 18 -28 R 29 -9 R 18 0 R 28 9 R 19 28 R 9 47 R 0 28 R -9 47 R
-19 28 R -28 9 R -18 0 R -19 -9 R -10 -9 R -9 -19 R -9 -47 R 0 -28 R 9 -47 R
9 -18 R 10 -10 R 19 -9 R D 16738 0 M 19 9 R 9 10 R 10 18 R 9 47 R 0 28 R
-9 47 R -10 19 R -9 9 R -19 9 R D 16878 159 M 19 9 R 28 28 R 0 -196 R D
16916 187 M 0 -187 R D 16878 0 M 85 0 R D 17056 19 M -9 -10 R 9 -9 R 9 9 R
-9 10 R D 17140 159 M 10 -9 R -10 -10 R -9 10 R 0 9 R 9 19 R 10 9 R 28 9 R
37 0 R 28 -9 R 9 -9 R 10 -19 R 0 -19 R -10 -18 R -28 -19 R -46 -19 R
-19 -9 R -19 -19 R -9 -28 R 0 -28 R D 17215 196 M 19 -9 R 9 -9 R 9 -19 R
0 -19 R -9 -18 R -28 -19 R -37 -19 R D 17131 19 M 9 9 R 19 0 R 47 -19 R
28 0 R 18 10 R 10 9 R D 17159 28 M 47 -28 R 37 0 R 9 9 R 10 19 R 0 19 R D
17374 196 M -28 -9 R -19 -28 R -9 -47 R 0 -28 R 9 -47 R 19 -28 R 28 -9 R
19 0 R 28 9 R 18 28 R 10 47 R 0 28 R -10 47 R -18 28 R -28 9 R -19 0 R
-19 -9 R -9 -9 R -10 -19 R -9 -47 R 0 -28 R 9 -47 R 10 -18 R 9 -10 R 19 -9 R
D 17393 0 M 18 9 R 10 10 R 9 18 R 9 47 R 0 28 R -9 47 R -9 19 R -10 9 R
-18 9 R D 17561 196 M -28 -9 R -19 -28 R -9 -47 R 0 -28 R 9 -47 R 19 -28 R
28 -9 R 18 0 R 29 9 R 18 28 R 10 47 R 0 28 R -10 47 R -18 28 R -29 9 R
-18 0 R -19 -9 R -9 -9 R -10 -19 R -9 -47 R 0 -28 R 9 -47 R 10 -18 R 9 -10 R
19 -9 R D 17579 0 M 19 9 R 10 10 R 9 18 R 9 47 R 0 28 R -9 47 R -9 19 R
-10 9 R -19 9 R D 17692 196 M 0 -56 R D 17692 159 M 9 19 R 19 18 R 18 0 R
47 -28 R 19 0 R 9 10 R 10 18 R D 17701 178 M 19 9 R 18 0 R 47 -19 R D
17823 196 M 0 -28 R -10 -28 R -37 -47 R -10 -18 R -9 -28 R 0 -47 R D
17813 140 M -47 -47 R -9 -18 R -9 -28 R 0 -47 R D
%%PageTrailer
end
%%PageResources: font Helvetica
%%Trailer
showpage
%%Pages: 1
%%DocumentNeededResources: font Helvetica
%%EOF
