SDTrimSP: VERSION 4.14    24.01.2007
  1000 eV W -> C                                                                
 0   maxnumber history (transm_sputtered-recoil)     
 ende
 0   number history from SDTrimSP
