%!PS-Adobe-3.0 EPSF-3.0
%%BoundingBox: 0 0 510 765
%%Title: Graphics produced by IDL
%%For: aam@graph03.ipp-hgw.mpg.de, 
%%      /afs/ipp-garching.mpg.de/home/a/aam/TRIDYN/SDTrimSP/case/Ta2O5_1
%%Creator: IDL Version 6.1 (linux x86 m32)
%%CreationDate: Tue Mar 28 13:16:09 2006
%%DocumentData: Clean7bit
%%Requirements: color
%%LanguageLevel: 1
%%PageOrder: Ascend
%%Pages: (atend)
%%DocumentNeededResources: (atend)
%%EndComments
%%BeginProlog
%+ prolog.ps -- Prolog for IDL generated PostScript files
%+ Copyright (c) 1988-2004 Research Systems, Inc. All Rights Reserved.
%v 5
/$IDL_DICT 40 dict def $IDL_DICT begin /bdef { bind def } bind def /C
{currentpoint newpath moveto} bdef /CP {currentpoint} bdef /D {currentpoint
stroke moveto} bdef /F {closepath fill} bdef /K { setgray } bdef /M {moveto}
bdef /N {rmoveto} bdef /P {lineto} bdef /R {rlineto} bdef /S {gsave show
grestore} bdef /X {currentpoint pop} bdef /Z {gsave currentpoint lineto 20
setlinewidth 1 setlinecap stroke grestore} bdef /L0 {[] 0 setdash} bdef /L1
{[40 100] 0 setdash} bdef /L2 {[200 200] 0 setdash} bdef /L3 {[200 100 50
100] 0 setdash} bdef /L4 {[300 100 50 100 50 100 50 100] 0 setdash} bdef /L5
{[400 200] 0 setdash} bdef /STDFONT { findfont exch scalefont setfont } bdef
/ISOFONT { findfont dup length dict begin { 1 index /FID ne {def} {pop pop}
ifelse } forall /Encoding ISOLatin1Encoding def currentdict end /idltmpfont
exch definefont exch scalefont setfont } bdef /ISOBULLET { gsave /Helvetica
findfont exch scalefont setfont (\267) show currentpoint grestore moveto}
bdef /MITERLIMIT { 2.5 setmiterlimit } bdef end
%%EndProlog
%%Page: 0 1
%%PageRequirements: color
%%PageResources: (atend)
%%PageOrientation: Portrait
%%PageBoundingBox: 0 0 510 765
%%BeginPageSetup
$IDL_DICT begin 0.0283465 dup scale MITERLIMIT
%%IncludeResource: font Helvetica
423.333 /Helvetica STDFONT
%%EndPageSetup
 3000 3000 translate
0.90 0.90 scale
10 setlinewidth L0 0.000 0.000 0.000 setrgbcolor 9617 26394 M 14 44 R
0 -88 R -14 44 R -30 29 R -43 15 R -44 0 R -44 -15 R -29 -29 R 0 -29 R
14 -29 R 15 -15 R 29 -15 R 88 -29 R 29 -14 R 29 -30 R D 9427 26365 M
29 -29 R 29 -15 R 88 -29 R 29 -15 R 15 -14 R 14 -30 R 0 -58 R -29 -29 R
-44 -15 R -44 0 R -44 15 R -29 29 R -14 44 R 0 -88 R 14 44 R D 9806 26438 M
0 -307 R D 9821 26438 M 0 -307 R D 9719 26438 M -15 -88 R 0 88 R 219 0 R
0 -88 R -14 88 R D 9763 26131 M 102 0 R D 10099 26438 M -44 -15 R -30 -29 R
-14 -29 R -15 -59 R 0 -43 R 15 -59 R 14 -29 R 30 -29 R 44 -15 R 29 0 R
44 15 R 29 29 R 14 29 R 15 59 R 0 43 R -15 59 R -14 29 R -29 29 R -44 15 R
-29 0 R -30 -15 R -29 -29 R -15 -29 R -14 -59 R 0 -43 R 14 -59 R 15 -29 R
29 -29 R 30 -15 R D 10128 26131 M 29 15 R 29 29 R 15 29 R 14 59 R 0 43 R
-14 59 R -15 29 R -29 29 R -29 15 R D 10347 26438 M 0 -307 R D 10361 26438 M
0 -307 R D 10303 26438 M 175 0 R 44 -15 R 15 -14 R 14 -30 R 0 -43 R
-14 -30 R -15 -14 R -44 -15 R -117 0 R D 10478 26438 M 29 -15 R 15 -14 R
15 -30 R 0 -43 R -15 -30 R -15 -14 R -29 -15 R D 10303 26131 M 102 0 R D
10668 26438 M 0 -307 R D 10683 26438 M 0 -307 R D 10624 26438 M 176 0 R
43 -15 R 15 -14 R 15 -30 R 0 -43 R -15 -30 R -15 -14 R -43 -15 R -117 0 R D
10800 26438 M 29 -15 R 14 -14 R 15 -30 R 0 -43 R -15 -30 R -14 -14 R
-29 -15 R D 10624 26131 M 103 0 R D 10989 26160 M -14 -14 R 14 -15 R 15 15 R
-15 14 R D 11296 26394 M 15 44 R 0 -88 R -15 44 R -29 29 R -44 15 R -44 0 R
-44 -15 R -29 -29 R 0 -29 R 15 -29 R 14 -15 R 30 -15 R 87 -29 R 30 -14 R
29 -30 R D 11106 26365 M 29 -29 R 30 -15 R 87 -29 R 30 -15 R 14 -14 R
15 -30 R 0 -58 R -29 -29 R -44 -15 R -44 0 R -44 15 R -29 29 R -15 44 R
0 -88 R 15 44 R D 11428 26438 M 0 -307 R D 11442 26438 M 0 -307 R D
11384 26438 M 175 0 R 44 -15 R 14 -14 R 15 -30 R 0 -43 R -15 -30 R -14 -14 R
-44 -15 R -117 0 R D 11559 26438 M 29 -15 R 15 -14 R 14 -30 R 0 -43 R
-14 -30 R -15 -14 R -29 -15 R D 11384 26131 M 102 0 R D 11749 26438 M
0 -219 R 15 -44 R 29 -29 R 44 -15 R 29 0 R 44 15 R 29 29 R 14 44 R 0 219 R D
11764 26438 M 0 -219 R 14 -44 R 29 -29 R 30 -15 R D 11705 26438 M 102 0 R D
11910 26438 M 87 0 R D 12158 26438 M 0 -307 R D 12172 26438 M 0 -307 R D
12070 26438 M -14 -88 R 0 88 R 219 0 R 0 -88 R -15 88 R D 12114 26131 M
102 0 R D 12435 26438 M 0 -307 R D 12450 26438 M 0 -307 R D 12348 26438 M
-15 -88 R 0 88 R 219 0 R 0 -88 R -14 88 R D 12392 26131 M 102 0 R D
12654 26438 M 0 -307 R D 12669 26438 M 0 -307 R D 12757 26350 M 0 -117 R D
12611 26438 M 233 0 R 0 -88 R -14 88 R D 12669 26292 M 88 0 R D
12611 26131 M 233 0 R 0 88 R -14 -88 R D 12961 26438 M 0 -307 R D
12976 26438 M 0 -307 R D 12917 26438 M 176 0 R 43 -15 R 15 -14 R 15 -30 R
0 -29 R -15 -29 R -15 -15 R -43 -14 R -117 0 R D 13093 26438 M 29 -15 R
14 -14 R 15 -30 R 0 -29 R -15 -29 R -14 -15 R -29 -14 R D 12917 26131 M
103 0 R D 13049 26292 M 29 -15 R 15 -14 R 43 -103 R 15 -14 R 15 0 R 14 14 R
D 13078 26277 M 15 -29 R 29 -102 R 14 -15 R 30 0 R 14 29 R 0 15 R D
5161 16092 M 12299 0 R D 5161 16092 M 0 197 R D 5287 16092 M 0 197 R D
4936 15669 M 210 0 R D 5333 15786 M 0 -222 R D 5345 15809 M 0 -245 R D
5345 15809 M -128 -175 R 186 0 R D 5298 15564 M 82 0 R D 5532 15809 M
-35 -11 R -23 -35 R -12 -59 R 0 -35 R 12 -58 R 23 -35 R 35 -12 R 23 0 R
35 12 R 24 35 R 11 58 R 0 35 R -11 59 R -24 35 R -35 11 R -23 0 R -23 -11 R
-12 -12 R -12 -23 R -11 -59 R 0 -35 R 11 -58 R 12 -24 R 12 -11 R 23 -12 R D
5555 15564 M 24 12 R 11 11 R 12 24 R 12 58 R 0 35 R -12 59 R -12 23 R
-11 12 R -24 11 R D 11239 16092 M 0 197 R D 10889 15669 M 210 0 R D
11192 15763 M 12 -12 R -12 -12 R -11 12 R 0 12 R 11 23 R 12 12 R 35 11 R
47 0 R 35 -11 R 12 -12 R 11 -23 R 0 -24 R -11 -23 R -35 -23 R -59 -24 R
-23 -12 R -24 -23 R -11 -35 R 0 -35 R D 11286 15809 M 23 -11 R 12 -12 R
12 -23 R 0 -24 R -12 -23 R -35 -23 R -47 -24 R D 11181 15587 M 11 12 R
24 0 R 58 -23 R 35 0 R 24 11 R 11 12 R D 11216 15599 M 58 -35 R 47 0 R
12 12 R 11 23 R 0 23 R D 11485 15809 M -35 -11 R -24 -35 R -12 -59 R 0 -35 R
12 -58 R 24 -35 R 35 -12 R 23 0 R 35 12 R 23 35 R 12 58 R 0 35 R -12 59 R
-23 35 R -35 11 R -23 0 R -24 -11 R -11 -12 R -12 -23 R -12 -59 R 0 -35 R
12 -58 R 12 -24 R 11 -11 R 24 -12 R D 11508 15564 M 23 12 R 12 11 R 12 24 R
11 58 R 0 35 R -11 59 R -12 23 R -12 12 R -23 11 R D 17192 16092 M 0 197 R D
17262 15809 M -35 -11 R -24 -35 R -11 -59 R 0 -35 R 11 -58 R 24 -35 R
35 -12 R 23 0 R 35 12 R 24 35 R 11 58 R 0 35 R -11 59 R -24 35 R -35 11 R
-23 0 R -24 -11 R -11 -12 R -12 -23 R -12 -59 R 0 -35 R 12 -58 R 12 -24 R
11 -11 R 24 -12 R D 17285 15564 M 24 12 R 11 11 R 12 24 R 12 58 R 0 35 R
-12 59 R -12 23 R -11 12 R -24 11 R D 17460 16092 M 0 197 R D 10767 15270 M
71 -164 R D 10779 15270 M 59 -140 R D 10908 15270 M -70 -164 R -24 -58 R
-23 -23 R -24 -12 R -11 0 R -12 12 R 12 11 R 11 -11 R D 10744 15270 M 70 0 R
D 10861 15270 M 70 0 R D 11176 15399 M 0 -386 R D 11188 15399 M 0 -386 R D
11176 15399 M 82 0 R D 11176 15013 M 82 0 R D 11410 15352 M -82 -246 R D
11410 15352 M 82 -246 R D 11410 15317 M 70 -211 R D 11352 15177 M 105 0 R D
11305 15106 M 70 0 R D 11445 15106 M 70 0 R D 11632 15399 M 0 -386 R D
11644 15399 M 0 -386 R D 11562 15399 M 82 0 R D 11562 15013 M 82 0 R D
5161 25920 M 12299 0 R D 5161 25920 M 0 -197 R D 5287 25920 M 0 -197 R D
11239 25920 M 0 -197 R D 17192 25920 M 0 -197 R D 17460 25920 M 0 -197 R D
5161 16092 M 0 9828 R 246 0 R D 5161 24305 M 246 0 R D 4910 24409 M
-35 -11 R -23 -35 R -12 -59 R 0 -35 R 12 -58 R 23 -35 R 35 -12 R 24 0 R
35 12 R 23 35 R 12 58 R 0 35 R -12 59 R -23 35 R -35 11 R -24 0 R -23 -11 R
-12 -12 R -11 -23 R -12 -59 R 0 -35 R 12 -58 R 11 -24 R 12 -11 R 23 -12 R D
4934 24164 M 23 12 R 12 11 R 11 24 R 12 58 R 0 35 R -12 59 R -11 23 R
-12 12 R -23 11 R D 5161 21329 M 246 0 R D 4642 21386 M 23 12 R 35 35 R
0 -245 R D 4688 21421 M 0 -233 R D 4642 21188 M 105 0 R D 4910 21433 M
-35 -12 R -23 -35 R -12 -58 R 0 -35 R 12 -58 R 23 -36 R 35 -11 R 24 0 R
35 11 R 23 36 R 12 58 R 0 35 R -12 58 R -23 35 R -35 12 R -24 0 R -23 -12 R
-12 -11 R -11 -24 R -12 -58 R 0 -35 R 12 -58 R 11 -24 R 12 -12 R 23 -11 R D
4934 21188 M 23 11 R 12 12 R 11 24 R 12 58 R 0 35 R -12 58 R -11 24 R
-12 11 R -23 12 R D 5161 18352 M 246 0 R D 4618 18410 M 12 -12 R -12 -11 R
-12 11 R 0 12 R 12 24 R 12 11 R 35 12 R 47 0 R 35 -12 R 11 -11 R 12 -24 R
0 -23 R -12 -24 R -35 -23 R -58 -23 R -23 -12 R -24 -23 R -12 -35 R 0 -35 R
D 4712 18457 M 23 -12 R 12 -11 R 11 -24 R 0 -23 R -11 -24 R -35 -23 R
-47 -23 R D 4606 18235 M 12 12 R 24 0 R 58 -24 R 35 0 R 23 12 R 12 12 R D
4642 18247 M 58 -35 R 47 0 R 11 11 R 12 24 R 0 23 R D 4910 18457 M -35 -12 R
-23 -35 R -12 -58 R 0 -35 R 12 -59 R 23 -35 R 35 -11 R 24 0 R 35 11 R
23 35 R 12 59 R 0 35 R -12 58 R -23 35 R -35 12 R -24 0 R -23 -12 R
-12 -11 R -11 -24 R -12 -58 R 0 -35 R 12 -59 R 11 -23 R 12 -12 R 23 -11 R D
4934 18212 M 23 11 R 12 12 R 11 23 R 12 59 R 0 35 R -12 58 R -11 24 R
-12 11 R -23 12 R D 5161 16092 M 246 0 R D 4087 20457 M 163 128 R D
4087 20469 M 163 128 R D 4087 20597 M 163 -140 R D 4087 20433 M 0 71 R D
4087 20550 M 0 70 R D 4250 20433 M 0 71 R D 4250 20550 M 0 70 R D
3958 20877 M 386 0 R D 3958 20889 M 386 0 R D 3958 20877 M 0 82 R D
4344 20877 M 0 82 R D 4005 21111 M 245 -82 R D 4005 21111 M 245 82 R D
4040 21111 M 210 70 R D 4180 21053 M 0 105 R D 4250 21006 M 0 70 R D
4250 21146 M 0 70 R D 3958 21333 M 386 0 R D 3958 21345 M 386 0 R D
3958 21263 M 0 82 R D 4344 21263 M 0 82 R D 17460 16092 M 0 9828 R -246 0 R
D 17460 24305 M -246 0 R D 17460 21329 M -246 0 R D 17460 18352 M -246 0 R D
17460 16092 M -246 0 R D L1 5161 24305 M 12299 0 R D L0
0.141 0.000 0.961 setrgbcolor 17193 23043 M 89 0 R -45 0 R 0 44 R 0 -89 R
0 45 R 45 44 R -89 -89 R 44 45 R -44 44 R 89 -89 R D 17416 22977 M 44 0 R
0 44 R 0 -89 R 0 45 R D 17460 22976 M -44 -44 R 44 45 R -44 44 R 44 -45 R D
17237 23043 M 223 -66 R D 17316 22939 M 88 0 R -44 0 R 0 44 R 0 -89 R 0 45 R
44 44 R -88 -89 R 44 45 R -44 44 R 88 -89 R D 17460 22977 M -100 -38 R D
17128 22786 M 89 0 R -44 0 R 0 44 R 0 -88 R 0 44 R 44 44 R -89 -88 R 45 44 R
-45 44 R 89 -88 R D 17360 22939 M -187 -153 R D
0.000 0.282 1.000 setrgbcolor 16868 21646 M 89 0 R -44 0 R 0 45 R 0 -89 R
0 44 R 44 45 R -89 -89 R 45 44 R -45 45 R 89 -89 R D 16943 21369 M 89 0 R
-45 0 R 0 45 R 0 -89 R 0 44 R 45 45 R -89 -89 R 44 44 R -44 45 R 89 -89 R D
16913 21646 M 74 -277 R D 17191 20768 M 88 0 R -44 0 R 0 44 R 0 -89 R 0 45 R
44 44 R -88 -89 R 44 45 R -44 44 R 88 -89 R D 16987 21369 M 248 -601 R D
17348 20258 M 89 0 R -44 0 R 0 44 R 0 -89 R 0 45 R 44 44 R -89 -89 R 45 45 R
-45 44 R 89 -89 R D 17235 20768 M 158 -510 R D 0.000 0.733 1.000 setrgbcolor
16057 22079 M 89 0 R -45 0 R 0 44 R 0 -88 R 0 44 R 45 44 R -89 -88 R 44 44 R
-44 44 R 89 -88 R D 16246 22468 M 88 0 R -44 0 R 0 44 R 0 -88 R 0 44 R
44 44 R -88 -88 R 44 44 R -44 44 R 88 -88 R D 16101 22079 M 189 389 R D
16491 23051 M 89 0 R -44 0 R 0 44 R 0 -89 R 0 45 R 44 44 R -89 -89 R 45 45 R
-45 44 R 89 -89 R D 16290 22468 M 246 583 R D 16833 23276 M 89 0 R -45 0 R
0 44 R 0 -89 R 0 45 R 45 44 R -89 -89 R 44 45 R -44 44 R 89 -89 R D
16536 23051 M 341 225 R D 0.000 1.000 0.796 setrgbcolor 12994 21237 M 88 0 R
-44 0 R 0 45 R 0 -89 R 0 44 R 44 45 R -88 -89 R 44 44 R -44 45 R 88 -89 R D
12859 21003 M 88 0 R -44 0 R 0 44 R 0 -89 R 0 45 R 44 44 R -88 -89 R 44 45 R
-44 44 R 88 -89 R D 13038 21237 M -135 -234 R D
0.000 1.000 0.349 setrgbcolor 10504 21015 M 88 0 R -44 0 R 0 45 R 0 -89 R
0 44 R 44 45 R -88 -89 R 44 44 R -44 45 R 88 -89 R D 10220 21442 M 89 0 R
-44 0 R 0 45 R 0 -89 R 0 44 R 44 45 R -89 -89 R 45 44 R -45 45 R 89 -89 R D
10548 21015 M -283 427 R D 10056 21938 M 89 0 R -44 0 R 0 44 R 0 -89 R
0 45 R 44 44 R -89 -89 R 45 45 R -45 44 R 89 -89 R D 10265 21442 M
-164 496 R D 0.082 1.000 0.000 setrgbcolor 10214 19782 M 89 0 R -45 0 R
0 44 R 0 -89 R 0 45 R 45 44 R -89 -89 R 44 45 R -44 44 R 89 -89 R D
10290 19586 M 88 0 R -44 0 R 0 45 R 0 -89 R 0 44 R 44 45 R -88 -89 R 44 44 R
-44 45 R 88 -89 R D 10258 19782 M 76 -196 R D 10512 19097 M 89 0 R -44 0 R
0 44 R 0 -88 R 0 44 R 44 44 R -89 -88 R 45 44 R -45 44 R 89 -88 R D
10334 19586 M 223 -489 R D 0.529 1.000 0.000 setrgbcolor 9073 20625 M 89 0 R
-45 0 R 0 44 R 0 -89 R 0 45 R 45 44 R -89 -89 R 44 45 R -44 44 R 89 -89 R D
9102 21000 M 88 0 R -44 0 R 0 44 R 0 -88 R 0 44 R 44 44 R -88 -88 R 44 44 R
-44 44 R 88 -88 R D 9117 20625 M 29 375 R D 0.980 1.000 0.000 setrgbcolor
6203 20548 M 89 0 R -45 0 R 0 44 R 0 -88 R 0 44 R 45 44 R -89 -88 R 44 44 R
-44 44 R 89 -88 R D 5906 21003 M 89 0 R -44 0 R 0 44 R 0 -88 R 0 44 R
44 44 R -89 -88 R 45 44 R -45 44 R 89 -88 R D 6247 20548 M -296 455 R D
5909 21673 M 88 0 R -44 0 R 0 44 R 0 -89 R 0 45 R 44 44 R -88 -89 R 44 45 R
-44 44 R 88 -89 R D 5951 21003 M 2 670 R D 5866 22231 M 88 0 R -44 0 R
0 44 R 0 -89 R 0 45 R 44 44 R -88 -89 R 44 45 R -44 44 R 88 -89 R D
5953 21673 M -43 558 R D 5915 22885 M 89 0 R -45 0 R 0 44 R 0 -88 R 0 44 R
45 44 R -89 -88 R 44 44 R -44 44 R 89 -88 R D 5910 22231 M 49 654 R D
6078 23463 M 89 0 R -45 0 R 0 44 R 0 -88 R 0 44 R 45 44 R -89 -88 R 44 44 R
-44 44 R 89 -88 R D 5959 22885 M 163 578 R D 1.000 0.580 0.000 setrgbcolor
5777 19278 M 89 0 R -45 0 R 0 45 R 0 -89 R 0 44 R 45 45 R -89 -89 R 44 44 R
-44 45 R 89 -89 R D 5336 19102 M 89 0 R -45 0 R 0 45 R 0 -89 R 0 44 R
45 45 R -89 -89 R 44 44 R -44 45 R 89 -89 R D 5821 19278 M -441 -176 R D
5161 18549 M 45 0 R -45 0 R 0 44 R 0 -88 R 0 44 R 45 44 R -45 -45 R D
5161 18549 M 45 -44 R D 5380 19102 M -219 -553 R D
1.000 0.133 0.000 setrgbcolor 6284 18790 M 89 0 R -45 0 R 0 44 R 0 -89 R
0 45 R 45 44 R -89 -89 R 44 45 R -44 44 R 89 -89 R D 6641 18687 M 89 0 R
-44 0 R 0 44 R 0 -88 R 0 44 R 44 44 R -89 -88 R 45 44 R -45 44 R 89 -88 R D
6328 18790 M 358 -103 R D 0.000 0.000 0.000 setrgbcolor 7881 14153 M
0 -307 R D 7896 14153 M 0 -307 R D 7837 14153 M 175 0 R 44 -15 R 15 -14 R
14 -30 R 0 -29 R -14 -29 R -15 -15 R -44 -14 R D 8012 14153 M 30 -15 R
14 -14 R 15 -30 R 0 -29 R -15 -29 R -14 -15 R -30 -14 R -116 0 R D
8012 14007 M 44 -15 R 15 -14 R 14 -30 R 0 -43 R -14 -30 R -15 -14 R
-44 -15 R -175 0 R D 8012 14007 M 30 -15 R 14 -14 R 15 -30 R 0 -43 R
-15 -30 R -14 -14 R -30 -15 R D 8275 14153 M -102 -307 R D 8275 14153 M
103 -307 R D 8275 14109 M 88 -263 R D 8202 13934 M 132 0 R D 8144 13846 M
87 0 R D 8319 13846 M 88 0 R D 8670 14109 M 14 -44 R 0 88 R -14 -44 R
-30 29 R -43 15 R -30 0 R -43 -15 R -30 -29 R -14 -29 R -15 -44 R 0 -73 R
15 -44 R 14 -29 R 30 -29 R 43 -15 R 30 0 R 43 15 R 30 29 R 14 29 R D
8567 14153 M -29 -15 R -29 -29 R -15 -29 R -14 -44 R 0 -73 R 14 -44 R
15 -29 R 29 -29 R 29 -15 R D 8801 14153 M 0 -307 R D 8816 14153 M 0 -307 R D
9006 14153 M -190 -190 R D 8889 14021 M 117 -175 R D 8874 14021 M 117 -175 R
D 8757 14153 M 102 0 R D 8947 14153 M 88 0 R D 8757 13846 M 102 0 R D
8947 13846 M 88 0 R D 9108 14153 M 58 -307 R D 9122 14153 M 44 -234 R D
9225 14153 M -59 -307 R D 9225 14153 M 58 -307 R D 9239 14153 M 44 -234 R D
9341 14153 M -58 -307 R D 9064 14153 M 102 0 R D 9298 14153 M 87 0 R D
9473 13875 M -15 -14 R 15 -15 R 15 15 R -15 14 R D 9780 14109 M 14 44 R
0 -88 R -14 44 R -30 29 R -43 15 R -44 0 R -44 -15 R -29 -29 R 0 -29 R
14 -29 R 15 -15 R 29 -15 R 88 -29 R 29 -14 R 29 -30 R D 9590 14080 M
29 -29 R 29 -15 R 88 -29 R 29 -15 R 15 -14 R 14 -30 R 0 -58 R -29 -29 R
-44 -15 R -44 0 R -43 15 R -30 29 R -14 44 R 0 -88 R 14 44 R D 9911 14153 M
0 -307 R D 9926 14153 M 0 -307 R D 9867 14153 M 176 0 R 43 -15 R 15 -14 R
15 -30 R 0 -43 R -15 -30 R -15 -14 R -43 -15 R -117 0 R D 10043 14153 M
29 -15 R 14 -14 R 15 -30 R 0 -43 R -15 -30 R -14 -14 R -29 -15 R D
9867 13846 M 102 0 R D 10232 14153 M 0 -219 R 15 -44 R 29 -29 R 44 -15 R
29 0 R 44 15 R 29 29 R 15 44 R 0 219 R D 10247 14153 M 0 -219 R 15 -44 R
29 -29 R 29 -15 R D 10189 14153 M 102 0 R D 10393 14153 M 88 0 R D
10641 14153 M 0 -307 R D 10656 14153 M 0 -307 R D 10554 14153 M -15 -88 R
0 88 R 219 0 R 0 -88 R -14 88 R D 10598 13846 M 102 0 R D 10919 14153 M
0 -307 R D 10933 14153 M 0 -307 R D 10831 14153 M -14 -88 R 0 88 R 219 0 R
0 -88 R -15 88 R D 10875 13846 M 102 0 R D 11138 14153 M 0 -307 R D
11153 14153 M 0 -307 R D 11240 14065 M 0 -117 R D 11094 14153 M 234 0 R
0 -88 R -15 88 R D 11153 14007 M 87 0 R D 11094 13846 M 234 0 R 0 88 R
-15 -88 R D 11445 14153 M 0 -307 R D 11459 14153 M 0 -307 R D 11401 14153 M
175 0 R 44 -15 R 14 -14 R 15 -30 R 0 -29 R -15 -29 R -14 -15 R -44 -14 R
-117 0 R D 11576 14153 M 29 -15 R 15 -14 R 14 -30 R 0 -29 R -14 -29 R
-15 -15 R -29 -14 R D 11401 13846 M 102 0 R D 11532 14007 M 29 -15 R
15 -14 R 44 -103 R 14 -14 R 15 0 R 15 14 R D 11561 13992 M 15 -29 R
29 -102 R 15 -15 R 29 0 R 15 29 R 0 15 R D 2070 9248 M 15390 0 R D
2070 9248 M 0 88 R D 4466 9248 M 0 88 R D 4116 8826 M 210 0 R D 4513 8942 M
0 -222 R D 4525 8966 M 0 -246 R D 4525 8966 M -129 -175 R 187 0 R D
4478 8720 M 82 0 R D 4712 8966 M -35 -12 R -24 -35 R -11 -58 R 0 -35 R
11 -59 R 24 -35 R 35 -12 R 23 0 R 35 12 R 23 35 R 12 59 R 0 35 R -12 58 R
-23 35 R -35 12 R -23 0 R -24 -12 R -11 -12 R -12 -23 R -12 -58 R 0 -35 R
12 -59 R 12 -23 R 11 -12 R 24 -12 R D 4735 8720 M 23 12 R 12 12 R 12 23 R
11 59 R 0 35 R -11 58 R -12 23 R -12 12 R -23 12 R D 8683 9248 M 0 88 R D
8333 8826 M 210 0 R D 8636 8919 M 12 -12 R -12 -11 R -11 11 R 0 12 R 11 23 R
12 12 R 35 12 R 47 0 R 35 -12 R 12 -12 R 11 -23 R 0 -23 R -11 -24 R
-35 -23 R -59 -23 R -23 -12 R -24 -23 R -11 -36 R 0 -35 R D 8730 8966 M
23 -12 R 12 -12 R 12 -23 R 0 -23 R -12 -24 R -35 -23 R -47 -23 R D
8625 8744 M 11 11 R 24 0 R 58 -23 R 35 0 R 24 12 R 11 11 R D 8660 8755 M
58 -35 R 47 0 R 12 12 R 11 23 R 0 24 R D 8929 8966 M -35 -12 R -24 -35 R
-12 -58 R 0 -35 R 12 -59 R 24 -35 R 35 -12 R 23 0 R 35 12 R 23 35 R 12 59 R
0 35 R -12 58 R -23 35 R -35 12 R -23 0 R -24 -12 R -11 -12 R -12 -23 R
-12 -58 R 0 -35 R 12 -59 R 12 -23 R 11 -12 R 24 -12 R D 8952 8720 M 23 12 R
12 12 R 12 23 R 11 59 R 0 35 R -11 58 R -12 23 R -12 12 R -23 12 R D
12900 9248 M 0 88 R D 12970 8966 M -35 -12 R -23 -35 R -12 -58 R 0 -35 R
12 -59 R 23 -35 R 35 -12 R 24 0 R 35 12 R 23 35 R 12 59 R 0 35 R -12 58 R
-23 35 R -35 12 R -24 0 R -23 -12 R -12 -12 R -12 -23 R -11 -58 R 0 -35 R
11 -59 R 12 -23 R 12 -12 R 23 -12 R D 12994 8720 M 23 12 R 12 12 R 11 23 R
12 59 R 0 35 R -12 58 R -11 23 R -12 12 R -23 12 R D 17117 9248 M 0 88 R D
16918 8919 M 12 -12 R -12 -11 R -11 11 R 0 12 R 11 23 R 12 12 R 35 12 R
47 0 R 35 -12 R 12 -12 R 11 -23 R 0 -23 R -11 -24 R -35 -23 R -59 -23 R
-23 -12 R -24 -23 R -11 -36 R 0 -35 R D 17012 8966 M 23 -12 R 12 -12 R
12 -23 R 0 -23 R -12 -24 R -35 -23 R -47 -23 R D 16907 8744 M 11 11 R 24 0 R
58 -23 R 35 0 R 24 12 R 11 11 R D 16942 8755 M 58 -35 R 47 0 R 12 12 R
11 23 R 0 24 R D 17210 8966 M -35 -12 R -23 -35 R -12 -58 R 0 -35 R 12 -59 R
23 -35 R 35 -12 R 24 0 R 35 12 R 23 35 R 12 59 R 0 35 R -12 58 R -23 35 R
-35 12 R -24 0 R -23 -12 R -12 -12 R -11 -23 R -12 -58 R 0 -35 R 12 -59 R
11 -23 R 12 -12 R 23 -12 R D 17234 8720 M 23 12 R 12 12 R 12 23 R 11 59 R
0 35 R -11 58 R -12 23 R -12 12 R -23 12 R D 17460 9248 M 0 88 R D
9222 8426 M 70 -163 R D 9233 8426 M 59 -140 R D 9362 8426 M -70 -163 R
-24 -59 R -23 -23 R -23 -12 R -12 0 R -12 12 R 12 12 R 12 -12 R D
9198 8426 M 70 0 R D 9315 8426 M 70 0 R D 9631 8555 M 0 -386 R D 9642 8555 M
0 -386 R D 9631 8555 M 81 0 R D 9631 8169 M 81 0 R D 9864 8508 M -81 -245 R
D 9864 8508 M 82 -245 R D 9864 8473 M 70 -210 R D 9806 8333 M 105 0 R D
9759 8263 M 70 0 R D 9899 8263 M 70 0 R D 10086 8555 M 0 -386 R D
10098 8555 M 0 -386 R D 10016 8555 M 82 0 R D 10016 8169 M 82 0 R D
2070 13635 M 15390 0 R D 2070 13635 M 0 -88 R D 4466 13635 M 0 -88 R D
8683 13635 M 0 -88 R D 12900 13635 M 0 -88 R D 17117 13635 M 0 -88 R D
17460 13635 M 0 -88 R D 2070 9248 M 0 4387 R 308 0 R D 2070 13346 M 308 0 R
D 1223 13311 M 210 0 R D 1550 13404 M 23 12 R 35 35 R 0 -245 R D
1597 13439 M 0 -233 R D 1550 13206 M 105 0 R D 1819 13451 M -35 -12 R
-24 -35 R -11 -58 R 0 -35 R 11 -59 R 24 -35 R 35 -11 R 23 0 R 35 11 R
24 35 R 11 59 R 0 35 R -11 58 R -24 35 R -35 12 R -23 0 R -24 -12 R
-11 -11 R -12 -24 R -12 -58 R 0 -35 R 12 -59 R 12 -23 R 11 -12 R 24 -11 R D
1842 13206 M 24 11 R 11 12 R 12 23 R 12 59 R 0 35 R -12 58 R -12 24 R
-11 11 R -24 12 R D 2070 12292 M 308 0 R D 1457 12257 M 210 0 R D
1772 12397 M -23 -117 R 23 23 R 35 12 R 35 0 R 35 -12 R 24 -23 R 11 -35 R
0 -23 R -11 -36 R -24 -23 R -35 -12 R -35 0 R -35 12 R -12 12 R -11 23 R
0 12 R 11 12 R 12 -12 R -12 -12 R D 1842 12315 M 24 -12 R 23 -23 R 12 -35 R
0 -23 R -12 -36 R -23 -23 R -24 -12 R D 1772 12397 M 117 0 R D 1772 12385 M
58 0 R 59 12 R D 2070 11238 M 308 0 R D 1819 11343 M -35 -12 R -24 -35 R
-11 -59 R 0 -35 R 11 -58 R 24 -35 R 35 -12 R 23 0 R 35 12 R 24 35 R 11 58 R
0 35 R -11 59 R -24 35 R -35 12 R -23 0 R -24 -12 R -11 -12 R -12 -23 R
-12 -59 R 0 -35 R 12 -58 R 12 -23 R 11 -12 R 24 -12 R D 1842 11097 M 24 12 R
11 12 R 12 23 R 12 58 R 0 35 R -12 59 R -12 23 R -11 12 R -24 12 R D
2070 10184 M 308 0 R D 1772 10288 M -23 -117 R 23 24 R 35 12 R 35 0 R
35 -12 R 24 -24 R 11 -35 R 0 -23 R -11 -35 R -24 -23 R -35 -12 R -35 0 R
-35 12 R -12 11 R -11 24 R 0 11 R 11 12 R 12 -12 R -12 -11 R D 1842 10207 M
24 -12 R 23 -24 R 12 -35 R 0 -23 R -12 -35 R -23 -23 R -24 -12 R D
1772 10288 M 117 0 R D 1772 10277 M 58 0 R 59 11 R D 2070 9248 M 308 0 R D
691 10893 M 164 128 R D 691 10904 M 164 129 R D 691 11033 M 164 -140 R D
691 10869 M 0 70 R D 691 10986 M 0 70 R D 855 10869 M 0 70 R D 855 10986 M
0 70 R D 563 11313 M 385 0 R D 563 11325 M 385 0 R D 563 11313 M 0 82 R D
948 11313 M 0 82 R D 609 11547 M 246 -82 R D 609 11547 M 246 82 R D
645 11547 M 210 70 R D 785 11488 M 0 106 R D 855 11442 M 0 70 R D
855 11582 M 0 70 R D 563 11769 M 385 0 R D 563 11781 M 385 0 R D 563 11699 M
0 82 R D 948 11699 M 0 82 R D 17460 9248 M 0 4387 R -308 0 R D 17460 13346 M
-308 0 R D 17460 12292 M -308 0 R D 17460 11238 M -308 0 R D 17460 10184 M
-308 0 R D 17460 9248 M -308 0 R D L1 2069 11238 M 15391 0 R D L0
0.141 0.000 0.961 setrgbcolor 12786 10454 M 88 0 R -44 0 R 0 45 R 0 -89 R
0 44 R 44 45 R -88 -89 R 44 44 R -44 45 R 88 -89 R D 12423 10345 M 89 0 R
-45 0 R 0 44 R 0 -88 R 0 44 R 45 44 R -89 -88 R 44 44 R -44 44 R 89 -88 R D
12830 10454 M -363 -109 R D 12101 10666 M 89 0 R -45 0 R 0 44 R 0 -89 R
0 45 R 45 44 R -89 -89 R 44 45 R -44 44 R 89 -89 R D 12467 10345 M
-322 321 R D 11804 10997 M 89 0 R -45 0 R 0 45 R 0 -89 R 0 44 R 45 45 R
-89 -89 R 44 44 R -44 45 R 89 -89 R D 12145 10666 M -297 331 R D
12183 12341 M 88 0 R -44 0 R 0 44 R 0 -88 R 0 44 R 44 44 R -88 -88 R 44 44 R
-44 44 R 88 -88 R D 11848 10997 M 379 1344 R D 0.000 0.282 1.000 setrgbcolor
12806 11206 M 88 0 R -44 0 R 0 44 R 0 -88 R 0 44 R 44 44 R -88 -88 R 44 44 R
-44 44 R 88 -88 R D 12458 11056 M 89 0 R -44 0 R 0 44 R 0 -89 R 0 45 R
44 44 R -89 -89 R 45 45 R -45 44 R 89 -89 R D 12850 11206 M -347 -150 R D
12369 10832 M 88 0 R -44 0 R 0 45 R 0 -89 R 0 44 R 44 45 R -88 -89 R 44 44 R
-44 45 R 88 -89 R D 12503 11056 M -90 -224 R D 12523 10943 M 89 0 R -45 0 R
0 44 R 0 -89 R 0 45 R 45 44 R -89 -89 R 44 45 R -44 44 R 89 -89 R D
12413 10832 M 154 111 R D 12475 11135 M 89 0 R -45 0 R 0 45 R 0 -89 R 0 44 R
45 45 R -89 -89 R 44 44 R -44 45 R 89 -89 R D 12567 10943 M -48 192 R D
12465 11283 M 89 0 R -45 0 R 0 44 R 0 -89 R 0 45 R 45 44 R -89 -89 R 44 45 R
-44 44 R 89 -89 R D 12519 11135 M -10 148 R D 12496 12461 M 89 0 R -45 0 R
0 44 R 0 -89 R 0 45 R 45 44 R -89 -89 R 44 45 R -44 44 R 89 -89 R D
12509 11283 M 31 1178 R D 0.000 0.733 1.000 setrgbcolor 14954 10446 M 88 0 R
-44 0 R 0 44 R 0 -89 R 0 45 R 44 44 R -88 -89 R 44 45 R -44 44 R 88 -89 R D
15074 10747 M 88 0 R -44 0 R 0 45 R 0 -89 R 0 44 R 44 45 R -88 -89 R 44 44 R
-44 45 R 88 -89 R D 14998 10446 M 120 301 R D 15418 11020 M 89 0 R -44 0 R
0 44 R 0 -89 R 0 45 R 44 44 R -89 -89 R 45 45 R -45 44 R 89 -89 R D
15118 10747 M 345 273 R D 15603 11367 M 89 0 R -44 0 R 0 45 R 0 -89 R 0 44 R
44 45 R -89 -89 R 45 44 R -45 45 R 89 -89 R D 15463 11020 M 185 347 R D
15807 12108 M 89 0 R -44 0 R 0 44 R 0 -88 R 0 44 R 44 44 R -89 -88 R 45 44 R
-45 44 R 89 -88 R D 15648 11367 M 204 741 R D 0.000 1.000 0.796 setrgbcolor
15982 11201 M 89 0 R -45 0 R 0 44 R 0 -89 R 0 45 R 45 44 R -89 -89 R 44 45 R
-44 44 R 89 -89 R D 16186 12174 M 89 0 R -44 0 R 0 45 R 0 -89 R 0 44 R
44 45 R -89 -89 R 45 44 R -45 45 R 89 -89 R D 16026 11201 M 205 973 R D
0.000 1.000 0.349 setrgbcolor 10552 11092 M 89 0 R -44 0 R 0 44 R 0 -88 R
0 44 R 44 44 R -89 -88 R 45 44 R -45 44 R 89 -88 R D 10905 11298 M 89 0 R
-44 0 R 0 45 R 0 -89 R 0 44 R 44 45 R -89 -89 R 45 44 R -45 45 R 89 -89 R D
10597 11092 M 353 206 R D 11764 12148 M 89 0 R -44 0 R 0 45 R 0 -89 R 0 44 R
44 45 R -89 -89 R 45 44 R -45 45 R 89 -89 R D 10950 11298 M 859 850 R D
0.082 1.000 0.000 setrgbcolor 14856 11126 M 88 0 R -44 0 R 0 44 R 0 -88 R
0 44 R 44 44 R -88 -88 R 44 44 R -44 44 R 88 -88 R D 14289 12538 M 89 0 R
-44 0 R 0 45 R 0 -89 R 0 44 R 44 45 R -89 -89 R 45 44 R -45 45 R 89 -89 R D
14900 11126 M -566 1412 R D 0.529 1.000 0.000 setrgbcolor 2315 10701 M
89 0 R -44 0 R 0 44 R 0 -89 R 0 45 R 44 44 R -89 -89 R 45 45 R -45 44 R
89 -89 R D 2069 10931 M 45 0 R -44 0 R 0 45 R 0 -89 R 0 44 R 44 45 R
-45 -46 R 1 1 R -1 1 R 45 -45 R D 2360 10701 M -290 230 R D 2263 11147 M
89 0 R -44 0 R 0 45 R 0 -89 R 0 44 R 44 45 R -89 -89 R 45 44 R -45 45 R
89 -89 R D 2070 10931 M 238 216 R D 3281 12291 M 88 0 R -44 0 R 0 45 R
0 -89 R 0 44 R 44 45 R -88 -89 R 44 44 R -44 45 R 88 -89 R D 2308 11147 M
1017 1144 R D 0.980 1.000 0.000 setrgbcolor 3954 11129 M 89 0 R -45 0 R
0 44 R 0 -88 R 0 44 R 45 44 R -89 -88 R 44 44 R -44 44 R 89 -88 R D
4347 11262 M 89 0 R -45 0 R 0 44 R 0 -88 R 0 44 R 45 44 R -89 -88 R 44 44 R
-44 44 R 89 -88 R D 3998 11129 M 393 133 R D 5190 12447 M 89 0 R -45 0 R
0 44 R 0 -89 R 0 45 R 45 44 R -89 -89 R 44 45 R -44 44 R 89 -89 R D
4391 11262 M 843 1185 R D 1.000 0.580 0.000 setrgbcolor 17416 11003 M 44 0 R
0 44 R 0 -89 R 0 45 R D 17460 11002 M -44 -44 R 44 45 R -44 44 R 44 -45 R D
17095 11355 M 89 0 R -44 0 R 0 44 R 0 -89 R 0 45 R 44 44 R -89 -89 R 45 45 R
-45 44 R 89 -89 R D 17460 11003 M -320 352 R D 16649 12259 M 89 0 R -44 0 R
0 45 R 0 -89 R 0 44 R 44 45 R -89 -89 R 45 44 R -45 45 R 89 -89 R D
17140 11355 M -446 904 R D 1.000 0.133 0.000 setrgbcolor 15931 10345 M
89 0 R -45 0 R 0 45 R 0 -89 R 0 44 R 45 45 R -89 -89 R 44 44 R -44 45 R
89 -89 R D 15948 10717 M 89 0 R -44 0 R 0 45 R 0 -89 R 0 44 R 44 45 R
-89 -89 R 45 44 R -45 45 R 89 -89 R D 15975 10345 M 18 372 R D 15643 12314 M
89 0 R -45 0 R 0 44 R 0 -88 R 0 44 R 45 44 R -89 -88 R 44 44 R -44 44 R
89 -88 R D 15993 10717 M -306 1597 R D 0.000 0.000 0.000 setrgbcolor
1865 1694 M 0 -344 R D 1882 1694 M 0 -344 R D 1816 1694 M 197 0 R 49 -17 R
16 -16 R 16 -33 R 0 -49 R -16 -33 R -16 -16 R -49 -16 R -131 0 R D
2013 1694 M 32 -17 R 17 -16 R 16 -33 R 0 -49 R -16 -33 R -17 -16 R -32 -16 R
D 1816 1350 M 115 0 R D 2225 1694 M 0 -344 R D 2242 1694 M 0 -344 R D
2176 1694 M 197 0 R 49 -17 R 16 -16 R 16 -33 R 0 -33 R -16 -32 R -16 -17 R
-49 -16 R -131 0 R D 2373 1694 M 32 -17 R 17 -16 R 16 -33 R 0 -33 R
-16 -32 R -17 -17 R -32 -16 R D 2176 1350 M 115 0 R D 2323 1530 M 33 -16 R
17 -17 R 49 -114 R 16 -17 R 16 0 R 17 17 R D 2356 1514 M 17 -33 R 32 -115 R
17 -16 R 32 0 R 17 33 R 0 16 R D 2667 1694 M -49 -17 R -33 -33 R -16 -32 R
-17 -66 R 0 -49 R 17 -65 R 16 -33 R 33 -33 R 49 -16 R 33 0 R 49 16 R 32 33 R
17 33 R 16 65 R 0 49 R -16 66 R -17 32 R -32 33 R -49 17 R -33 0 R -33 -17 R
-32 -33 R -17 -32 R -16 -66 R 0 -49 R 16 -65 R 17 -33 R 32 -33 R 33 -16 R D
2700 1350 M 32 16 R 33 33 R 16 33 R 17 65 R 0 49 R -17 66 R -16 32 R
-33 33 R -32 17 R D 3027 1694 M 0 -279 R -17 -49 R -32 -16 R -33 0 R
-33 16 R -16 33 R 0 33 R 16 16 R 17 -16 R -17 -17 R D 3010 1694 M 0 -279 R
-16 -49 R -16 -16 R D 2961 1694 M 115 0 R D 3190 1694 M 0 -344 R D
3207 1694 M 0 -344 R D 3305 1595 M 0 -130 R D 3141 1694 M 262 0 R 0 -99 R
-16 99 R D 3207 1530 M 98 0 R D 3141 1350 M 262 0 R 0 98 R -16 -98 R D
3730 1644 M 17 -49 R 0 99 R -17 -50 R -32 33 R -50 17 R -32 0 R -49 -17 R
-33 -33 R -16 -32 R -17 -49 R 0 -82 R 17 -49 R 16 -33 R 33 -33 R 49 -16 R
32 0 R 50 16 R 32 33 R 17 33 R D 3616 1694 M -33 -17 R -33 -33 R -16 -32 R
-16 -49 R 0 -82 R 16 -49 R 16 -33 R 33 -33 R 33 -16 R D 3943 1694 M 0 -344 R
D 3959 1694 M 0 -344 R D 3845 1694 M -17 -99 R 0 99 R 246 0 R 0 -99 R
-17 99 R D 3894 1350 M 114 0 R D 4188 1694 M 0 -344 R D 4205 1694 M 0 -344 R
D 4139 1694 M 115 0 R D 4139 1350 M 115 0 R D 4450 1694 M -49 -17 R
-33 -33 R -16 -32 R -17 -66 R 0 -49 R 17 -65 R 16 -33 R 33 -33 R 49 -16 R
33 0 R 49 16 R 32 33 R 17 33 R 16 65 R 0 49 R -16 66 R -17 32 R -32 33 R
-49 17 R -33 0 R -33 -17 R -32 -33 R -17 -32 R -16 -66 R 0 -49 R 16 -65 R
17 -33 R 32 -33 R 33 -16 R D 4483 1350 M 32 16 R 33 33 R 16 33 R 17 65 R
0 49 R -17 66 R -16 32 R -33 33 R -32 17 R D 4728 1694 M 0 -344 R D
4744 1694 M 197 -311 R D 4744 1661 M 197 -311 R 0 344 R D 4679 1694 M 65 0 R
D 4892 1694 M 98 0 R D 4679 1350 M 98 0 R D 5448 1694 M -49 -17 R -33 -33 R
-16 -32 R -17 -66 R 0 -49 R 17 -65 R 16 -33 R 33 -33 R 49 -16 R 33 0 R
49 16 R 32 33 R 17 33 R 16 65 R 0 49 R -16 66 R -17 32 R -32 33 R -49 17 R
-33 0 R -33 -17 R -33 -33 R -16 -32 R -16 -66 R 0 -49 R 16 -65 R 16 -33 R
33 -33 R 33 -16 R D 5481 1350 M 32 16 R 33 33 R 16 33 R 17 65 R 0 49 R
-17 66 R -16 32 R -33 33 R -32 17 R D 5726 1694 M 0 -344 R D 5742 1694 M
0 -344 R D 5840 1595 M 0 -130 R D 5677 1694 M 262 0 R 0 -99 R -17 99 R D
5742 1530 M 98 0 R D 5677 1350 M 114 0 R D 6380 1694 M 0 -344 R D
6397 1694 M 0 -344 R D 6282 1694 M -16 -99 R 0 99 R 245 0 R 0 -99 R -16 99 R
D 6331 1350 M 115 0 R D 6626 1694 M 0 -344 R D 6642 1694 M 0 -344 R D
6577 1694 M 196 0 R 49 -17 R 16 -16 R 17 -33 R 0 -33 R -17 -32 R -16 -17 R
-49 -16 R -131 0 R D 6773 1694 M 33 -17 R 16 -16 R 16 -33 R 0 -33 R
-16 -32 R -16 -17 R -33 -16 R D 6577 1350 M 114 0 R D 6724 1530 M 32 -16 R
17 -17 R 49 -114 R 16 -17 R 17 0 R 16 17 R D 6756 1514 M 17 -33 R 33 -115 R
16 -16 R 33 0 R 16 33 R 0 16 R D 7067 1694 M -114 -344 R D 7067 1694 M
115 -344 R D 7067 1644 M 98 -294 R D 6985 1448 M 148 0 R D 6920 1350 M
98 0 R D 7116 1350 M 98 0 R D 7394 1694 M 0 -279 R -16 -49 R -33 -16 R
-32 0 R -33 16 R -16 33 R 0 33 R 16 16 R 16 -16 R -16 -17 R D 7378 1694 M
0 -279 R -16 -49 R -17 -16 R D 7329 1694 M 114 0 R D 7558 1694 M 0 -344 R D
7574 1694 M 0 -344 R D 7672 1595 M 0 -130 R D 7509 1694 M 262 0 R 0 -99 R
-17 99 R D 7574 1530 M 98 0 R D 7509 1350 M 262 0 R 0 98 R -17 -98 R D
8098 1644 M 16 -49 R 0 99 R -16 -50 R -33 33 R -49 17 R -33 0 R -49 -17 R
-33 -33 R -16 -32 R -16 -49 R 0 -82 R 16 -49 R 16 -33 R 33 -33 R 49 -16 R
33 0 R 49 16 R 33 33 R 16 33 R D 7983 1694 M -32 -17 R -33 -33 R -17 -32 R
-16 -49 R 0 -82 R 16 -49 R 17 -33 R 33 -33 R 32 -16 R D 8310 1694 M 0 -344 R
D 8327 1694 M 0 -344 R D 8212 1694 M -16 -99 R 0 99 R 245 0 R 0 -99 R
-16 99 R D 8261 1350 M 115 0 R D 8638 1694 M -49 -17 R -33 -33 R -17 -32 R
-16 -66 R 0 -49 R 16 -65 R 17 -33 R 33 -33 R 49 -16 R 32 0 R 49 16 R 33 33 R
16 33 R 17 65 R 0 49 R -17 66 R -16 32 R -33 33 R -49 17 R -32 0 R -33 -17 R
-33 -33 R -16 -32 R -17 -66 R 0 -49 R 17 -65 R 16 -33 R 33 -33 R 33 -16 R D
8670 1350 M 33 16 R 33 33 R 16 33 R 16 65 R 0 49 R -16 66 R -16 32 R
-33 33 R -33 17 R D 8916 1694 M 0 -344 R D 8932 1694 M 0 -344 R D
8867 1694 M 196 0 R 49 -17 R 16 -16 R 17 -33 R 0 -33 R -17 -32 R -16 -17 R
-49 -16 R -131 0 R D 9063 1694 M 33 -17 R 16 -16 R 16 -33 R 0 -33 R
-16 -32 R -16 -17 R -33 -16 R D 8867 1350 M 114 0 R D 9014 1530 M 33 -16 R
16 -17 R 49 -114 R 16 -17 R 17 0 R 16 17 R D 9047 1514 M 16 -33 R 33 -115 R
16 -16 R 33 0 R 16 33 R 0 16 R D 9276 1694 M 0 -344 R D 9292 1694 M 0 -344 R
D 9226 1694 M 115 0 R D 9226 1350 M 115 0 R D 9455 1694 M 0 -344 R D
9472 1694 M 0 -344 R D 9570 1595 M 0 -130 R D 9406 1694 M 262 0 R 0 -99 R
-16 99 R D 9472 1530 M 98 0 R D 9406 1350 M 262 0 R 0 98 R -16 -98 R D
9979 1644 M 16 50 R 0 -99 R -16 49 R -33 33 R -49 17 R -49 0 R -49 -17 R
-33 -33 R 0 -32 R 17 -33 R 16 -16 R 33 -17 R 98 -32 R 33 -17 R 32 -32 R D
9766 1612 M 33 -33 R 33 -16 R 98 -33 R 33 -16 R 16 -17 R 16 -32 R 0 -66 R
-32 -33 R -49 -16 R -50 0 R -49 16 R -32 33 R -17 49 R 0 -98 R 17 49 R D
10911 1694 M -32 -164 R 32 33 R 49 16 R 49 0 R 50 -16 R 32 -33 R 17 -49 R
0 -33 R -17 -49 R -32 -33 R -50 -16 R -49 0 R -49 16 R -16 17 R -16 32 R
0 17 R 16 16 R 16 -16 R -16 -17 R D 11009 1579 M 33 -16 R 33 -33 R 16 -49 R
0 -33 R -16 -49 R -33 -33 R -33 -16 R D 10911 1694 M 164 0 R D 10911 1677 M
82 0 R 82 17 R D 11304 1694 M -49 -17 R -33 -49 R -16 -82 R 0 -49 R 16 -82 R
33 -49 R 49 -16 R 33 0 R 49 16 R 32 49 R 17 82 R 0 49 R -17 82 R -32 49 R
-49 17 R -33 0 R -33 -17 R -16 -16 R -16 -33 R -17 -82 R 0 -49 R 17 -82 R
16 -32 R 16 -17 R 33 -16 R D 11337 1350 M 32 16 R 17 17 R 16 32 R 16 82 R
0 49 R -16 82 R -16 33 R -17 16 R -32 17 R D 11631 1694 M -49 -17 R
-33 -49 R -16 -82 R 0 -49 R 16 -82 R 33 -49 R 49 -16 R 33 0 R 49 16 R
33 49 R 16 82 R 0 49 R -16 82 R -33 49 R -49 17 R -33 0 R -33 -17 R
-16 -16 R -16 -33 R -17 -82 R 0 -49 R 17 -82 R 16 -32 R 16 -17 R 33 -16 R D
11664 1350 M 33 16 R 16 17 R 16 32 R 17 82 R 0 49 R -17 82 R -16 33 R
-16 16 R -33 17 R D 12138 1481 M 196 0 R 0 33 R -16 32 R -16 17 R -33 16 R
-49 0 R -49 -16 R -33 -33 R -16 -49 R 0 -33 R 16 -49 R 33 -33 R 49 -16 R
33 0 R 49 16 R 32 33 R D 12318 1481 M 0 49 R -16 33 R D 12220 1579 M
-33 -16 R -32 -33 R -17 -49 R 0 -33 R 17 -49 R 32 -33 R 33 -16 R D
12433 1694 M 114 -344 R D 12449 1694 M 98 -295 R D 12662 1694 M -115 -344 R
D 12400 1694 M 98 0 R D 12596 1694 M 98 0 R D 13316 1694 M 0 -344 R D
13332 1694 M 0 -344 R D 13529 1694 M 0 -344 R D 13545 1694 M 0 -344 R D
13267 1694 M 114 0 R D 13480 1694 M 114 0 R D 13332 1530 M 197 0 R D
13267 1350 M 114 0 R D 13480 1350 M 114 0 R D 13692 1481 M 196 0 R 0 33 R
-16 32 R -16 17 R -33 16 R -49 0 R -49 -16 R -33 -33 R -16 -49 R 0 -33 R
16 -49 R 33 -33 R 49 -16 R 33 0 R 49 16 R 32 33 R D 13872 1481 M 0 49 R
-16 33 R D 13774 1579 M -33 -16 R -32 -33 R -17 -49 R 0 -33 R 17 -49 R
32 -33 R 33 -16 R D 14265 1497 M 294 0 R D 14690 1644 M 262 -147 R
-262 -147 R D 15426 1694 M 0 -344 R D 15442 1694 M 0 -344 R D 15328 1694 M
-16 -99 R 0 99 R 245 0 R 0 -99 R -16 99 R D 15377 1350 M 115 0 R D
15671 1546 M 0 -16 R -16 0 R 0 16 R 16 17 R 33 16 R 66 0 R 32 -16 R 17 -17 R
16 -32 R 0 -115 R 16 -33 R 17 -16 R D 15819 1546 M 0 -147 R 16 -33 R
33 -16 R 16 0 R D 15819 1514 M -17 -17 R -98 -16 R -49 -16 R -16 -33 R
0 -33 R 16 -33 R 49 -16 R 49 0 R 33 16 R 33 33 R D 15704 1481 M -33 -16 R
-16 -33 R 0 -33 R 16 -33 R 33 -16 R D 15982 1628 M 17 -16 R -17 -17 R
-16 17 R 0 16 R 16 33 R 17 16 R 49 17 R 65 0 R 49 -17 R 17 -16 R 16 -33 R
0 -33 R -16 -32 R -49 -33 R -82 -33 R -33 -16 R -33 -33 R -16 -49 R 0 -49 R
D 16113 1694 M 33 -17 R 16 -16 R 17 -33 R 0 -33 R -17 -32 R -49 -33 R
-65 -33 R D 15966 1383 M 16 16 R 33 0 R 82 -33 R 49 0 R 33 17 R 16 16 R D
16015 1399 M 82 -49 R 65 0 R 17 16 R 16 33 R 0 33 R D 16408 1694 M -49 -17 R
-33 -33 R -17 -32 R -16 -66 R 0 -49 R 16 -65 R 17 -33 R 33 -33 R 49 -16 R
32 0 R 49 16 R 33 33 R 16 33 R 17 65 R 0 49 R -17 66 R -16 32 R -33 33 R
-49 17 R -32 0 R -33 -17 R -33 -33 R -16 -32 R -17 -66 R 0 -49 R 17 -65 R
16 -33 R 33 -33 R 33 -16 R D 16440 1350 M 33 16 R 33 33 R 16 33 R 16 65 R
0 49 R -16 66 R -16 32 R -33 33 R -33 17 R D 16686 1694 M -33 -164 R 33 33 R
49 16 R 49 0 R 49 -16 R 33 -33 R 16 -49 R 0 -33 R -16 -49 R -33 -33 R
-49 -16 R -49 0 R -49 16 R -17 17 R -16 32 R 0 17 R 16 16 R 17 -16 R
-17 -17 R D 16784 1579 M 33 -16 R 32 -33 R 17 -49 R 0 -33 R -17 -49 R
-32 -33 R -33 -16 R D 16686 1694 M 163 0 R D 16686 1677 M 81 0 R 82 17 R D
1856 834 M 0 -294 R D 1870 834 M 0 -294 R D 1814 834 M 168 0 R 42 -14 R
14 -14 R 14 -28 R 0 -28 R -14 -28 R -14 -14 R -42 -14 R -112 0 R D
1982 834 M 28 -14 R 14 -14 R 14 -28 R 0 -28 R -14 -28 R -14 -14 R -28 -14 R
D 1814 540 M 98 0 R D 1940 694 M 28 -14 R 14 -14 R 42 -98 R 14 -14 R 14 0 R
14 14 R D 1968 680 M 14 -28 R 28 -98 R 14 -14 R 28 0 R 14 28 R 0 14 R D
2165 834 M 0 -294 R D 2179 834 M 0 -294 R D 2263 750 M 0 -112 R D 2122 834 M
225 0 R 0 -84 R -14 84 R D 2179 694 M 84 0 R D 2122 540 M 225 0 R 0 84 R
-14 -84 R D 2627 792 M 14 -42 R 0 84 R -14 -42 R -28 28 R -42 14 R -28 0 R
-42 -14 R -28 -28 R -14 -28 R -14 -42 R 0 -70 R 14 -42 R 14 -28 R 28 -28 R
42 -14 R 28 0 R 42 14 R 28 28 R 14 28 R D 2529 834 M -28 -14 R -28 -28 R
-14 -28 R -14 -42 R 0 -70 R 14 -42 R 14 -28 R 28 -28 R 28 -14 R D 2824 834 M
-43 -14 R -28 -28 R -14 -28 R -14 -56 R 0 -42 R 14 -56 R 14 -28 R 28 -28 R
43 -14 R 28 0 R 42 14 R 28 28 R 14 28 R 14 56 R 0 42 R -14 56 R -14 28 R
-28 28 R -42 14 R -28 0 R -29 -14 R -28 -28 R -14 -28 R -14 -56 R 0 -42 R
14 -56 R 14 -28 R 28 -28 R 29 -14 R D 2852 540 M 28 14 R 28 28 R 14 28 R
14 56 R 0 42 R -14 56 R -14 28 R -28 28 R -28 14 R D 3062 834 M 0 -294 R D
3076 834 M 0 -294 R D 3020 834 M 98 0 R D 3020 540 M 98 0 R D 3216 834 M
0 -294 R D 3230 834 M 0 -294 R D 3174 834 M 98 0 R D 3174 540 M 210 0 R
0 84 R -14 -84 R D 3623 792 M 14 42 R 0 -84 R -14 42 R -28 28 R -42 14 R
-42 0 R -42 -14 R -29 -28 R 0 -28 R 14 -28 R 15 -14 R 28 -14 R 84 -28 R
28 -14 R 28 -28 R D 3440 764 M 29 -28 R 28 -14 R 84 -28 R 28 -14 R 14 -14 R
14 -28 R 0 -56 R -28 -28 R -42 -14 R -42 0 R -42 14 R -29 28 R -14 42 R
0 -84 R 14 42 R D 11840 168 M 10 28 R 0 -56 R -10 28 R -18 19 R -29 9 R
-28 0 R -28 -9 R -18 -19 R 0 -18 R 9 -19 R 9 -9 R 19 -10 R 56 -19 R 19 -9 R
19 -19 R D 11719 150 M 18 -19 R 19 -9 R 56 -19 R 19 -10 R 9 -9 R 10 -19 R
0 -37 R -19 -19 R -28 -9 R -28 0 R -28 9 R -19 19 R -9 28 R 0 -56 R 9 28 R D
11924 196 M 0 -196 R D 11934 196 M 0 -196 R D 11896 196 M 94 0 R 28 -9 R
19 -19 R 9 -18 R 9 -28 R 0 -47 R -9 -28 R -9 -19 R -19 -19 R -28 -9 R
-94 0 R D 11990 196 M 18 -9 R 19 -19 R 10 -18 R 9 -28 R 0 -47 R -9 -28 R
-10 -19 R -19 -19 R -18 -9 R D 12167 196 M 0 -196 R D 12177 196 M 0 -196 R D
12111 196 M -9 -56 R 0 56 R 140 0 R 0 -56 R -9 56 R D 12139 0 M 66 0 R D
12308 131 M 0 -131 R D 12317 131 M 0 -131 R D 12317 75 M 9 28 R 19 19 R
19 9 R 28 0 R 9 -9 R 0 -10 R -9 -9 R -10 9 R 10 10 R D 12280 131 M 37 0 R D
12280 0 M 65 0 R D 12466 196 M -9 -9 R 9 -9 R 10 9 R -10 9 R D 12466 131 M
0 -131 R D 12476 131 M 0 -131 R D 12438 131 M 38 0 R D 12438 0 M 66 0 R D
12569 131 M 0 -131 R D 12579 131 M 0 -131 R D 12579 103 M 18 19 R 28 9 R
19 0 R 28 -9 R 9 -19 R 0 -103 R D 12644 131 M 19 -9 R 9 -19 R 0 -103 R D
12681 103 M 19 19 R 28 9 R 19 0 R 28 -9 R 9 -19 R 0 -103 R D 12747 131 M
19 -9 R 9 -19 R 0 -103 R D 12541 131 M 38 0 R D 12541 0 M 66 0 R D 12644 0 M
66 0 R D 12747 0 M 65 0 R D 12981 168 M 9 28 R 0 -56 R -9 28 R -19 19 R
-28 9 R -28 0 R -28 -9 R -19 -19 R 0 -18 R 9 -19 R 10 -9 R 18 -10 R 57 -19 R
18 -9 R 19 -19 R D 12859 150 M 19 -19 R 18 -9 R 57 -19 R 18 -10 R 10 -9 R
9 -19 R 0 -37 R -19 -19 R -28 -9 R -28 0 R -28 9 R -19 19 R -9 28 R 0 -56 R
9 28 R D 13065 196 M 0 -196 R D 13074 196 M 0 -196 R D 13037 196 M 112 0 R
28 -9 R 9 -9 R 10 -19 R 0 -28 R -10 -19 R -9 -9 R -28 -10 R -75 0 R D
13149 196 M 19 -9 R 9 -9 R 9 -19 R 0 -28 R -9 -19 R -9 -9 R -19 -10 R D
13037 0 M 65 0 R D 13270 131 M -9 -9 R 9 -10 R 10 10 R -10 9 R D 13270 19 M
-9 -10 R 9 -9 R 10 9 R -10 10 R D 13495 196 M 65 -196 R D 13504 196 M
56 -168 R D 13626 196 M -66 -196 R D 13476 196 M 56 0 R D 13588 196 M 56 0 R
D 13700 196 M 0 -196 R D 13710 196 M 0 -196 R D 13766 140 M 0 -75 R D
13672 196 M 150 0 R 0 -56 R -9 56 R D 13710 103 M 56 0 R D 13672 0 M 150 0 R
0 56 R -9 -56 R D 13897 196 M 0 -196 R D 13906 196 M 0 -196 R D 13869 196 M
112 0 R 28 -9 R 9 -9 R 9 -19 R 0 -19 R -9 -18 R -9 -10 R -28 -9 R -75 0 R D
13981 196 M 18 -9 R 10 -9 R 9 -19 R 0 -19 R -9 -18 R -10 -10 R -18 -9 R D
13869 0 M 65 0 R D 13953 103 M 18 -10 R 10 -9 R 28 -65 R 9 -10 R 9 0 R
10 10 R D 13971 93 M 10 -18 R 18 -66 R 10 -9 R 18 0 R 10 19 R 0 9 R D
14205 168 M 9 28 R 0 -56 R -9 28 R -19 19 R -28 9 R -28 0 R -28 -9 R
-18 -19 R 0 -18 R 9 -19 R 9 -9 R 19 -10 R 56 -19 R 19 -9 R 18 -19 R D
14084 150 M 18 -19 R 19 -9 R 56 -19 R 19 -10 R 9 -9 R 9 -19 R 0 -37 R
-18 -19 R -28 -9 R -28 0 R -28 9 R -19 19 R -9 28 R 0 -56 R 9 28 R D
14289 196 M 0 -196 R D 14299 196 M 0 -196 R D 14261 196 M 66 0 R D 14261 0 M
66 0 R D 14439 196 M -28 -9 R -19 -19 R -9 -18 R -10 -38 R 0 -28 R 10 -37 R
9 -19 R 19 -19 R 28 -9 R 18 0 R 29 9 R 18 19 R 10 19 R 9 37 R 0 28 R -9 38 R
-10 18 R -18 19 R -29 9 R -18 0 R -19 -9 R -19 -19 R -9 -18 R -9 -38 R
0 -28 R 9 -37 R 9 -19 R 19 -19 R 19 -9 R D 14457 0 M 19 9 R 19 19 R 9 19 R
10 37 R 0 28 R -10 38 R -9 18 R -19 19 R -19 9 R D 14598 196 M 0 -196 R D
14607 196 M 112 -177 R D 14607 178 M 112 -178 R 0 196 R D 14570 196 M 37 0 R
D 14691 196 M 56 0 R D 14570 0 M 56 0 R D 15028 178 M 0 -178 R D 15037 196 M
0 -196 R D 15037 196 M -103 -140 R 150 0 R D 15000 0 M 65 0 R D 15149 19 M
-9 -10 R 9 -9 R 10 9 R -10 10 R D 15252 159 M 19 9 R 28 28 R 0 -196 R D
15289 187 M 0 -187 R D 15252 0 M 84 0 R D 15420 159 M 10 -9 R -10 -10 R
-9 10 R 0 9 R 9 19 R 10 9 R 28 9 R 37 0 R 28 -9 R 9 -19 R 0 -28 R -9 -18 R
-28 -10 R -28 0 R D 15495 196 M 19 -9 R 9 -19 R 0 -28 R -9 -18 R -19 -10 R
19 -9 R 18 -19 R 10 -19 R 0 -28 R -10 -18 R -9 -10 R -28 -9 R -37 0 R
-28 9 R -10 10 R -9 18 R 0 10 R 9 9 R 10 -9 R -10 -10 R D 15523 93 M 9 -28 R
0 -28 R -9 -18 R -9 -10 R -19 -9 R D 16205 159 M 10 -9 R -10 -10 R -9 10 R
0 9 R 9 19 R 10 9 R 28 9 R 37 0 R 28 -9 R 10 -9 R 9 -19 R 0 -19 R -9 -18 R
-28 -19 R -47 -19 R -19 -9 R -19 -19 R -9 -28 R 0 -28 R D 16280 196 M
19 -9 R 9 -9 R 10 -19 R 0 -19 R -10 -18 R -28 -19 R -37 -19 R D 16196 19 M
9 9 R 19 0 R 47 -19 R 28 0 R 19 10 R 9 9 R D 16224 28 M 47 -28 R 37 0 R
10 9 R 9 19 R 0 19 R D 16430 196 M -28 -9 R -10 -19 R 0 -28 R 10 -18 R
28 -10 R 37 0 R 28 10 R 10 18 R 0 28 R -10 19 R -28 9 R -37 0 R -19 -9 R
-9 -19 R 0 -28 R 9 -18 R 19 -10 R D 16467 112 M 19 10 R 9 18 R 0 28 R
-9 19 R -19 9 R D 16430 112 M -28 -9 R -10 -10 R -9 -18 R 0 -38 R 9 -18 R
10 -10 R 28 -9 R 37 0 R 28 9 R 10 10 R 9 18 R 0 38 R -9 18 R -10 10 R
-28 9 R D 16430 112 M -19 -9 R -9 -10 R -10 -18 R 0 -38 R 10 -18 R 9 -10 R
19 -9 R D 16467 0 M 19 9 R 9 10 R 10 18 R 0 38 R -10 18 R -9 10 R -19 9 R D
16589 19 M -10 -10 R 10 -9 R 9 9 R -9 10 R D 16720 196 M -29 -9 R -18 -28 R
-10 -47 R 0 -28 R 10 -47 R 18 -28 R 29 -9 R 18 0 R 28 9 R 19 28 R 9 47 R
0 28 R -9 47 R -19 28 R -28 9 R -18 0 R -19 -9 R -10 -9 R -9 -19 R -9 -47 R
0 -28 R 9 -47 R 9 -18 R 10 -10 R 19 -9 R D 16738 0 M 19 9 R 9 10 R 10 18 R
9 47 R 0 28 R -9 47 R -10 19 R -9 9 R -19 9 R D 16860 159 M 9 -9 R -9 -10 R
-10 10 R 0 9 R 10 19 R 9 9 R 28 9 R 38 0 R 28 -9 R 9 -19 R 0 -28 R -9 -18 R
-28 -10 R -29 0 R D 16935 196 M 18 -9 R 10 -19 R 0 -28 R -10 -18 R -18 -10 R
18 -9 R 19 -19 R 9 -19 R 0 -28 R -9 -18 R -9 -10 R -28 -9 R -38 0 R -28 9 R
-9 10 R -10 18 R 0 10 R 10 9 R 9 -9 R -9 -10 R D 16963 93 M 9 -28 R 0 -28 R
-9 -18 R -10 -10 R -18 -9 R D 17056 19 M -9 -10 R 9 -9 R 9 9 R -9 10 R D
17140 159 M 10 -9 R -10 -10 R -9 10 R 0 9 R 9 19 R 10 9 R 28 9 R 37 0 R
28 -9 R 9 -9 R 10 -19 R 0 -19 R -10 -18 R -28 -19 R -46 -19 R -19 -9 R
-19 -19 R -9 -28 R 0 -28 R D 17215 196 M 19 -9 R 9 -9 R 9 -19 R 0 -19 R
-9 -18 R -28 -19 R -37 -19 R D 17131 19 M 9 9 R 19 0 R 47 -19 R 28 0 R
18 10 R 10 9 R D 17159 28 M 47 -28 R 37 0 R 9 9 R 10 19 R 0 19 R D
17374 196 M -28 -9 R -19 -28 R -9 -47 R 0 -28 R 9 -47 R 19 -28 R 28 -9 R
19 0 R 28 9 R 18 28 R 10 47 R 0 28 R -10 47 R -18 28 R -28 9 R -19 0 R
-19 -9 R -9 -9 R -10 -19 R -9 -47 R 0 -28 R 9 -47 R 10 -18 R 9 -10 R 19 -9 R
D 17393 0 M 18 9 R 10 10 R 9 18 R 9 47 R 0 28 R -9 47 R -9 19 R -10 9 R
-18 9 R D 17561 196 M -28 -9 R -19 -28 R -9 -47 R 0 -28 R 9 -47 R 19 -28 R
28 -9 R 18 0 R 29 9 R 18 28 R 10 47 R 0 28 R -10 47 R -18 28 R -29 9 R
-18 0 R -19 -9 R -9 -9 R -10 -19 R -9 -47 R 0 -28 R 9 -47 R 10 -18 R 9 -10 R
19 -9 R D 17579 0 M 19 9 R 10 10 R 9 18 R 9 47 R 0 28 R -9 47 R -9 19 R
-10 9 R -19 9 R D 17804 168 M -10 -9 R 10 -9 R 9 9 R 0 9 R -9 19 R -19 9 R
-28 0 R -28 -9 R -19 -19 R -9 -18 R -9 -38 R 0 -56 R 9 -28 R 19 -19 R
28 -9 R 18 0 R 28 9 R 19 19 R 10 28 R 0 9 R -10 28 R -19 19 R -28 10 R
-9 0 R -28 -10 R -19 -19 R -9 -28 R D 17757 196 M -19 -9 R -18 -19 R
-10 -18 R -9 -38 R 0 -56 R 9 -28 R 19 -19 R 19 -9 R D 17766 0 M 19 9 R
19 19 R 9 28 R 0 9 R -9 28 R -19 19 R -19 10 R D
%%PageTrailer
end
%%PageResources: font Helvetica
%%Trailer
showpage
%%Pages: 1
%%DocumentNeededResources: font Helvetica
%%EOF
