 500 eV  He -> Ta2O5 
   &TRI_INP

 text='---elemements---'     
     ncp    =  3 
     symbol = "He", "Ta", "O"

 text='---beam---'     
     case_e0=0
     e0  =  500, 0.00, 0.00 
     case_alpha=0
     alpha0 = 0.000, 0.000, 0.000 
     qubeam = 1.000, 0.000, 0.000
     flc    = 10.000E+0, 
     
 text='---control---'     
     nh       = 500000,
     nr_pproj = 64
     idrel    = 0, 

 text='---target---'     
     nm       =  7
     two_comp ="Ta2O5" 
     ttarget =  500E+0, 
     nqx     =  50, 
     qu      = 0.000, 0.285714, 0.714286 
     qumax   = 0.000, 1.000,    0.714286 
     inel0   = 5,     3,        3     
     ipot    = 1, 
     isbv    = 5, 

 text='---output parameter'     
     lmoments  = .true.
     lmatrices = .false.
     
     ltraj_p   = .false.    
     ltraj_r   = .false.    
     numb_hist = 10 ,    
     ioutput_hist = 10, 10, 0, 10, 10, 0,
     
     lparticle_r = .false, 
     lparticle_p = .false. 
     ioutput_part = 100, 100, 0, 100, 100, 0,
/
