====== pysrim run =======
        SRIM-2013.00
======================================== 
       Ion and Recoil PHONONS        
 See SRIM Outputs\TDATA.txt for calc. details
======================================== 
====== TRIM Calc.= Xe(150 eV ) ==> None(  25 A) ==============================
------------------------------------------------------------------------------
 See file :  SRIM Outputs\TDATA.txt calculation data
 Ion    = Xe   Energy = .15 keV
============= TARGET MATERIAL ======================================
Layer  1 : None
Layer Width =     3.E+01 AAA ;
  Layer # 1- Density = 6.030E22 atoms/cm3 = 2.702 g/cm3
  Layer # 1- Al = 100  Atomic Percent = 100  Mass Percent
====================================================================
 Total Ions calculated =30000.00
========================================================
  Table Units are  >>>> Phonons /(Angstrom-Ion)  <<<<  
========================================================
  DEPTH       PHONONS     PHONONS    
  (Ang.)      by ION      by RECOILS 
-----------  -----------  -----------
260000.E-06  232692.E-05  228356.E-06
510000.E-06  232696.E-05  279931.E-07
760000.E-06  232696.E-05  299229.E-07
101000.E-05  232696.E-05  413871.E-07
126000.E-05  232696.E-05  418163.E-07
151000.E-05  232696.E-05  507073.E-07
176000.E-05  232696.E-05  578122.E-07
201000.E-05  232696.E-05  702248.E-07
226000.E-05  232696.E-05  109361.E-06
251000.E-05  232696.E-05  234727.E-06
276000.E-05  300283.E-05  277751.E-06
301000.E-05  317175.E-05  732079.E-07
326000.E-05  317175.E-05  106695.E-06
351000.E-05  317175.E-05  348167.E-06
376000.E-05  317175.E-05  880889.E-06
401000.E-05  317175.E-05  130104.E-05
426000.E-05  317175.E-05  145568.E-05
451000.E-05  317175.E-05  169944.E-05
476000.E-05  317175.E-05  144476.E-05
501000.E-05  317175.E-05  141773.E-05
526000.E-05  408611.E-05  113347.E-05
551000.E-05  436769.E-05  769715.E-06
576000.E-05  436769.E-05  979568.E-06
601000.E-05  436769.E-05  125708.E-05
626000.E-05  436769.E-05  205780.E-05
651000.E-05  436769.E-05  279589.E-05
676000.E-05  436769.E-05  379286.E-05
701000.E-05  436769.E-05  431782.E-05
726000.E-05  436769.E-05  464087.E-05
751000.E-05  441276.E-05  496385.E-05
776000.E-05  489738.E-05  388714.E-05
801000.E-05  499840.E-05  279378.E-05
826000.E-05  499840.E-05  351274.E-05
851000.E-05  499840.E-05  411044.E-05
876000.E-05  499840.E-05  484281.E-05
901000.E-05  499840.E-05  579761.E-05
926000.E-05  499840.E-05  659358.E-05
951000.E-05  499823.E-05  720766.E-05
976000.E-05  495254.E-05  773789.E-05
100100.E-04  474615.E-05  791250.E-05
102600.E-04  431883.E-05  550598.E-05
105100.E-04  421049.E-05  454452.E-05
107600.E-04  421049.E-05  510583.E-05
110100.E-04  421049.E-05  561667.E-05
112600.E-04  421049.E-05  628421.E-05
115100.E-04  420732.E-05  690704.E-05
117600.E-04  417768.E-05  741936.E-05
120100.E-04  408514.E-05  796114.E-05
122600.E-04  388519.E-05  828773.E-05
125100.E-04  353470.E-05  773148.E-05
127600.E-04  299322.E-05  542938.E-05
130100.E-04  284537.E-05  450098.E-05
132600.E-04  284187.E-05  491035.E-05
135100.E-04  283225.E-05  513359.E-05
137600.E-04  281153.E-05  558924.E-05
140100.E-04  277088.E-05  575616.E-05
142600.E-04  270020.E-05  620136.E-05
145100.E-04  258710.E-05  627688.E-05
147600.E-04  241241.E-05  588829.E-05
150100.E-04  214569.E-05  509328.E-05
152600.E-04  180011.E-05  366169.E-05
155100.E-04  168801.E-05  310783.E-05
157600.E-04  167255.E-05  323738.E-05
160100.E-04  165173.E-05  340516.E-05
162600.E-04  161878.E-05  350156.E-05
165100.E-04  157511.E-05  352931.E-05
167600.E-04  151476.E-05  360162.E-05
170100.E-04  142774.E-05  353793.E-05
172600.E-04  131234.E-05  334479.E-05
175100.E-04  115962.E-05  282342.E-05
177600.E-04  987379.E-06  203411.E-05
180100.E-04  895719.E-06  152905.E-05
182600.E-04  882006.E-06  162788.E-05
185100.E-04  868291.E-06  169267.E-05
187600.E-04  844831.E-06  166477.E-05
190100.E-04  817393.E-06  166607.E-05
192600.E-04  794630.E-06  174654.E-05
195100.E-04  752493.E-06  171606.E-05
197600.E-04  701011.E-06  167004.E-05
200100.E-04  647995.E-06  144883.E-05
202600.E-04  543493.E-06  103566.E-05
205100.E-04  424166.E-06  615964.E-06
207600.E-04  417794.E-06  622149.E-06
210100.E-04  408848.E-06  619214.E-06
212600.E-04  404940.E-06  675688.E-06
215100.E-04  395310.E-06  700149.E-06
217600.E-04  384458.E-06  745513.E-06
220100.E-04  373015.E-06  778299.E-06
222600.E-04  362572.E-06  796890.E-06
225100.E-04  338837.E-06  708223.E-06
227600.E-04  262173.E-06  464140.E-06
230100.E-04  149533.E-06  188929.E-06
232600.E-04  141784.E-06  188548.E-06
235100.E-04  143446.E-06  215268.E-06
237600.E-04  134631.E-06  221577.E-06
240100.E-04  133094.E-06  230050.E-06
242600.E-04  124546.E-06  230910.E-06
245100.E-04  118907.E-06  277742.E-06
247600.E-04  118502.E-06  302248.E-06
250100.E-04  956520.E-07  254541.E-06
