             a                                       b                             c
dela        0.1006457486658589E+02        0.1006450244219903E+02        0.1956866670854518E+04 FU
dela        0.1006457486658589E+02        0.1006450244219903E+02        0.1956866670854518E+04 IN

             (a-b)*c                         a*c-b*c
dela        0.14172486880 54794E+00        0.14172486880 48858E+00  FU  --o0
dela        0.14172486880 54794E+00        0.14172486880 48858E+00  IN  -O0 -pc64

dela        0.14172486880 54794E+00        0.14172486880 54794E+00  FU  --o2
dela        0.14172486880 89555E+00        0.14172486880 85238E+00  IN  -O2 -pc64
dela        0.14172486880 89555E+00        0.14172486880 85238E+00  IN  -O0 -pc80
dela        0.14172486880 89555E+00        0.14172486880 85238E+00  IN  -O2 -xN
